<?xml version="1.0" encoding="utf-8"  standalone="no"?>
<!DOCTYPE svg PUBLIC "-//W3C//DTD SVG 1.1//EN"
 "http://www.w3.org/Graphics/SVG/1.1/DTD/svg11.dtd">
<svg 
 width="800" height="600"
 viewBox="0 0 800 600"
 xmlns="http://www.w3.org/2000/svg"
 xmlns:xlink="http://www.w3.org/1999/xlink"
>

<title>Gnuplot</title>
<desc>Produced by GNUPLOT 5.0 patchlevel 5 </desc>

<g id="gnuplot_canvas">

<rect x="0" y="0" width="800" height="600" fill="#ffffff"/>
<defs>

	<circle id='gpDot' r='0.5' stroke-width='0.5'/>
	<path id='gpPt0' stroke-width='0.148' stroke='currentColor' d='M-1,0 h2 M0,-1 v2'/>
	<path id='gpPt1' stroke-width='0.148' stroke='currentColor' d='M-1,-1 L1,1 M1,-1 L-1,1'/>
	<path id='gpPt2' stroke-width='0.148' stroke='currentColor' d='M-1,0 L1,0 M0,-1 L0,1 M-1,-1 L1,1 M-1,1 L1,-1'/>
	<rect id='gpPt3' stroke-width='0.148' stroke='currentColor' x='-1' y='-1' width='2' height='2'/>
	<rect id='gpPt4' stroke-width='0.148' stroke='currentColor' fill='currentColor' x='-1' y='-1' width='2' height='2'/>
	<circle id='gpPt5' stroke-width='0.148' stroke='currentColor' cx='0' cy='0' r='1'/>
	<use xlink:href='#gpPt5' id='gpPt6' fill='currentColor' stroke='none'/>
	<path id='gpPt7' stroke-width='0.148' stroke='currentColor' d='M0,-1.33 L-1.33,0.67 L1.33,0.67 z'/>
	<use xlink:href='#gpPt7' id='gpPt8' fill='currentColor' stroke='none'/>
	<use xlink:href='#gpPt7' id='gpPt9' stroke='currentColor' transform='rotate(180)'/>
	<use xlink:href='#gpPt9' id='gpPt10' fill='currentColor' stroke='none'/>
	<use xlink:href='#gpPt3' id='gpPt11' stroke='currentColor' transform='rotate(45)'/>
	<use xlink:href='#gpPt11' id='gpPt12' fill='currentColor' stroke='none'/>
	<path id='gpPt13' stroke-width='0.148' stroke='currentColor' d='M0,1.330 L1.265,0.411 L0.782,-1.067 L-0.782,-1.076 L-1.265,0.411 z'/>
	<use xlink:href='#gpPt13' id='gpPt14' fill='currentColor' stroke='none'/>
	<filter id='textbox' filterUnits='objectBoundingBox' x='0' y='0' height='1' width='1'>
	  <feFlood flood-color='#FFFFFF' flood-opacity='1' result='bgnd'/>
	  <feComposite in='SourceGraphic' in2='bgnd' operator='atop'/>
	</filter>
	<filter id='greybox' filterUnits='objectBoundingBox' x='0' y='0' height='1' width='1'>
	  <feFlood flood-color='lightgrey' flood-opacity='1' result='grey'/>
	  <feComposite in='SourceGraphic' in2='grey' operator='atop'/>
	</filter>
</defs>
<g fill="none" color="#FFFFFF" stroke="currentColor" stroke-width="1.00" stroke-linecap="butt" stroke-linejoin="miter">
</g>
<g fill="none" color="black" stroke="currentColor" stroke-width="1.00" stroke-linecap="butt" stroke-linejoin="miter">
	<path stroke='black'  d='M108.9,513.6 L122.4,513.6 M762.1,513.6 L748.6,513.6  '/>	<g transform="translate(96.3,519.5)" stroke="none" fill="black" font-family="Times" font-size="18.00"  text-anchor="end">
		<text><tspan font-family="Times" > 1</tspan></text>
	</g>
</g>
<g fill="none" color="black" stroke="currentColor" stroke-width="1.00" stroke-linecap="butt" stroke-linejoin="miter">
	<path stroke='black'  d='M108.9,470.3 L122.4,470.3 M762.1,470.3 L748.6,470.3  '/>	<g transform="translate(96.3,476.2)" stroke="none" fill="black" font-family="Times" font-size="18.00"  text-anchor="end">
		<text><tspan font-family="Times" > 1.2</tspan></text>
	</g>
</g>
<g fill="none" color="black" stroke="currentColor" stroke-width="1.00" stroke-linecap="butt" stroke-linejoin="miter">
	<path stroke='black'  d='M108.9,427.1 L122.4,427.1 M762.1,427.1 L748.6,427.1  '/>	<g transform="translate(96.3,433.0)" stroke="none" fill="black" font-family="Times" font-size="18.00"  text-anchor="end">
		<text><tspan font-family="Times" > 1.4</tspan></text>
	</g>
</g>
<g fill="none" color="black" stroke="currentColor" stroke-width="1.00" stroke-linecap="butt" stroke-linejoin="miter">
	<path stroke='black'  d='M108.9,383.8 L122.4,383.8 M762.1,383.8 L748.6,383.8  '/>	<g transform="translate(96.3,389.7)" stroke="none" fill="black" font-family="Times" font-size="18.00"  text-anchor="end">
		<text><tspan font-family="Times" > 1.6</tspan></text>
	</g>
</g>
<g fill="none" color="black" stroke="currentColor" stroke-width="1.00" stroke-linecap="butt" stroke-linejoin="miter">
	<path stroke='black'  d='M108.9,340.6 L122.4,340.6 M762.1,340.6 L748.6,340.6  '/>	<g transform="translate(96.3,346.5)" stroke="none" fill="black" font-family="Times" font-size="18.00"  text-anchor="end">
		<text><tspan font-family="Times" > 1.8</tspan></text>
	</g>
</g>
<g fill="none" color="black" stroke="currentColor" stroke-width="1.00" stroke-linecap="butt" stroke-linejoin="miter">
	<path stroke='black'  d='M108.9,297.4 L122.4,297.4 M762.1,297.4 L748.6,297.4  '/>	<g transform="translate(96.3,303.3)" stroke="none" fill="black" font-family="Times" font-size="18.00"  text-anchor="end">
		<text><tspan font-family="Times" > 2</tspan></text>
	</g>
</g>
<g fill="none" color="black" stroke="currentColor" stroke-width="1.00" stroke-linecap="butt" stroke-linejoin="miter">
	<path stroke='black'  d='M108.9,254.1 L122.4,254.1 M762.1,254.1 L748.6,254.1  '/>	<g transform="translate(96.3,260.0)" stroke="none" fill="black" font-family="Times" font-size="18.00"  text-anchor="end">
		<text><tspan font-family="Times" > 2.2</tspan></text>
	</g>
</g>
<g fill="none" color="black" stroke="currentColor" stroke-width="1.00" stroke-linecap="butt" stroke-linejoin="miter">
	<path stroke='black'  d='M108.9,210.8 L122.4,210.8 M762.1,210.8 L748.6,210.8  '/>	<g transform="translate(96.3,216.7)" stroke="none" fill="black" font-family="Times" font-size="18.00"  text-anchor="end">
		<text><tspan font-family="Times" > 2.4</tspan></text>
	</g>
</g>
<g fill="none" color="black" stroke="currentColor" stroke-width="1.00" stroke-linecap="butt" stroke-linejoin="miter">
	<path stroke='black'  d='M108.9,167.6 L122.4,167.6 M762.1,167.6 L748.6,167.6  '/>	<g transform="translate(96.3,173.5)" stroke="none" fill="black" font-family="Times" font-size="18.00"  text-anchor="end">
		<text><tspan font-family="Times" > 2.6</tspan></text>
	</g>
</g>
<g fill="none" color="black" stroke="currentColor" stroke-width="1.00" stroke-linecap="butt" stroke-linejoin="miter">
	<path stroke='black'  d='M108.9,124.3 L122.4,124.3 M762.1,124.3 L748.6,124.3  '/>	<g transform="translate(96.3,130.2)" stroke="none" fill="black" font-family="Times" font-size="18.00"  text-anchor="end">
		<text><tspan font-family="Times" > 2.8</tspan></text>
	</g>
</g>
<g fill="none" color="black" stroke="currentColor" stroke-width="1.00" stroke-linecap="butt" stroke-linejoin="miter">
	<path stroke='black'  d='M108.9,81.1 L122.4,81.1 M762.1,81.1 L748.6,81.1  '/>	<g transform="translate(96.3,87.0)" stroke="none" fill="black" font-family="Times" font-size="18.00"  text-anchor="end">
		<text><tspan font-family="Times" > 3</tspan></text>
	</g>
</g>
<g fill="none" color="black" stroke="currentColor" stroke-width="1.00" stroke-linecap="butt" stroke-linejoin="miter">
	<path stroke='black'  d='M108.9,513.6 L108.9,500.1 M108.9,81.1 L108.9,94.6  '/>	<g transform="translate(108.9,546.5)" stroke="none" fill="black" font-family="Times" font-size="18.00"  text-anchor="middle">
		<text><tspan font-family="Times" > 110</tspan></text>
	</g>
</g>
<g fill="none" color="black" stroke="currentColor" stroke-width="1.00" stroke-linecap="butt" stroke-linejoin="miter">
	<path stroke='black'  d='M181.5,513.6 L181.5,500.1 M181.5,81.1 L181.5,94.6  '/>	<g transform="translate(181.5,546.5)" stroke="none" fill="black" font-family="Times" font-size="18.00"  text-anchor="middle">
		<text><tspan font-family="Times" > 115</tspan></text>
	</g>
</g>
<g fill="none" color="black" stroke="currentColor" stroke-width="1.00" stroke-linecap="butt" stroke-linejoin="miter">
	<path stroke='black'  d='M254.1,513.6 L254.1,500.1 M254.1,81.1 L254.1,94.6  '/>	<g transform="translate(254.1,546.5)" stroke="none" fill="black" font-family="Times" font-size="18.00"  text-anchor="middle">
		<text><tspan font-family="Times" > 120</tspan></text>
	</g>
</g>
<g fill="none" color="black" stroke="currentColor" stroke-width="1.00" stroke-linecap="butt" stroke-linejoin="miter">
	<path stroke='black'  d='M326.6,513.6 L326.6,500.1 M326.6,81.1 L326.6,94.6  '/>	<g transform="translate(326.6,546.5)" stroke="none" fill="black" font-family="Times" font-size="18.00"  text-anchor="middle">
		<text><tspan font-family="Times" > 125</tspan></text>
	</g>
</g>
<g fill="none" color="black" stroke="currentColor" stroke-width="1.00" stroke-linecap="butt" stroke-linejoin="miter">
	<path stroke='black'  d='M399.2,513.6 L399.2,500.1 M399.2,81.1 L399.2,94.6  '/>	<g transform="translate(399.2,546.5)" stroke="none" fill="black" font-family="Times" font-size="18.00"  text-anchor="middle">
		<text><tspan font-family="Times" > 130</tspan></text>
	</g>
</g>
<g fill="none" color="black" stroke="currentColor" stroke-width="1.00" stroke-linecap="butt" stroke-linejoin="miter">
	<path stroke='black'  d='M471.8,513.6 L471.8,500.1 M471.8,81.1 L471.8,94.6  '/>	<g transform="translate(471.8,546.5)" stroke="none" fill="black" font-family="Times" font-size="18.00"  text-anchor="middle">
		<text><tspan font-family="Times" > 135</tspan></text>
	</g>
</g>
<g fill="none" color="black" stroke="currentColor" stroke-width="1.00" stroke-linecap="butt" stroke-linejoin="miter">
	<path stroke='black'  d='M544.4,513.6 L544.4,500.1 M544.4,81.1 L544.4,94.6  '/>	<g transform="translate(544.4,546.5)" stroke="none" fill="black" font-family="Times" font-size="18.00"  text-anchor="middle">
		<text><tspan font-family="Times" > 140</tspan></text>
	</g>
</g>
<g fill="none" color="black" stroke="currentColor" stroke-width="1.00" stroke-linecap="butt" stroke-linejoin="miter">
	<path stroke='black'  d='M616.9,513.6 L616.9,500.1 M616.9,81.1 L616.9,94.6  '/>	<g transform="translate(616.9,546.5)" stroke="none" fill="black" font-family="Times" font-size="18.00"  text-anchor="middle">
		<text><tspan font-family="Times" > 145</tspan></text>
	</g>
</g>
<g fill="none" color="black" stroke="currentColor" stroke-width="1.00" stroke-linecap="butt" stroke-linejoin="miter">
	<path stroke='black'  d='M689.5,513.6 L689.5,500.1 M689.5,81.1 L689.5,94.6  '/>	<g transform="translate(689.5,546.5)" stroke="none" fill="black" font-family="Times" font-size="18.00"  text-anchor="middle">
		<text><tspan font-family="Times" > 150</tspan></text>
	</g>
</g>
<g fill="none" color="black" stroke="currentColor" stroke-width="1.00" stroke-linecap="butt" stroke-linejoin="miter">
	<path stroke='black'  d='M762.1,513.6 L762.1,500.1 M762.1,81.1 L762.1,94.6  '/>	<g transform="translate(762.1,546.5)" stroke="none" fill="black" font-family="Times" font-size="18.00"  text-anchor="middle">
		<text><tspan font-family="Times" > 155</tspan></text>
	</g>
</g>
<g fill="none" color="black" stroke="currentColor" stroke-width="1.00" stroke-linecap="butt" stroke-linejoin="miter">
</g>
<g fill="none" color="black" stroke="currentColor" stroke-width="1.00" stroke-linecap="butt" stroke-linejoin="miter">
	<path stroke='black'  d='M108.9,81.1 L108.9,513.6 L762.1,513.6 L762.1,81.1 L108.9,81.1 Z  '/></g>
<g fill="none" color="black" stroke="currentColor" stroke-width="1.00" stroke-linecap="butt" stroke-linejoin="miter">
	<g transform="translate(25.6,297.4) rotate(270)" stroke="none" fill="black" font-family="Times" font-size="18.00"  text-anchor="middle">
		<text><tspan font-family="Times" >diagonalization time, sec</tspan></text>
	</g>
</g>
<g fill="none" color="black" stroke="currentColor" stroke-width="1.00" stroke-linecap="butt" stroke-linejoin="miter">
	<g transform="translate(435.5,587.0)" stroke="none" fill="black" font-family="Times" font-size="18.00"  text-anchor="middle">
		<text><tspan font-family="Times" >matrix size</tspan></text>
	</g>
</g>
<g fill="none" color="black" stroke="currentColor" stroke-width="1.00" stroke-linecap="butt" stroke-linejoin="miter">
	<g transform="translate(435.5,46.5)" stroke="none" fill="black" font-family="Times" font-size="18.00"  text-anchor="middle">
		<text><tspan font-family="Times" >diagonalization time as function of matrix size (armv7l)</tspan></text>
	</g>
</g>
	<g id="gnuplot_plot_1" ><title>measurement</title>
<g fill="none" color="black" stroke="currentColor" stroke-width="1.00" stroke-linecap="butt" stroke-linejoin="miter">
	<g transform="translate(335.7,114.0)" stroke="none" fill="black" font-family="Times" font-size="18.00"  text-anchor="end">
		<text><tspan font-family="Times" >measurement</tspan></text>
	</g>
</g>
<g fill="none" color="black" stroke="currentColor" stroke-width="1.00" stroke-linecap="butt" stroke-linejoin="miter">
	<use xlink:href='#gpPt0' transform='translate(152.4,472.5) scale(6.75)' color='rgb(148,   0, 211)'/>
	<use xlink:href='#gpPt0' transform='translate(181.5,457.4) scale(6.75)' color='rgb(148,   0, 211)'/>
	<use xlink:href='#gpPt0' transform='translate(210.5,453.0) scale(6.75)' color='rgb(148,   0, 211)'/>
	<use xlink:href='#gpPt0' transform='translate(239.5,435.7) scale(6.75)' color='rgb(148,   0, 211)'/>
	<use xlink:href='#gpPt0' transform='translate(268.6,420.6) scale(6.75)' color='rgb(148,   0, 211)'/>
	<use xlink:href='#gpPt0' transform='translate(297.6,407.6) scale(6.75)' color='rgb(148,   0, 211)'/>
	<use xlink:href='#gpPt0' transform='translate(326.6,390.3) scale(6.75)' color='rgb(148,   0, 211)'/>
	<use xlink:href='#gpPt0' transform='translate(355.7,370.9) scale(6.75)' color='rgb(148,   0, 211)'/>
	<use xlink:href='#gpPt0' transform='translate(384.7,366.5) scale(6.75)' color='rgb(148,   0, 211)'/>
	<use xlink:href='#gpPt0' transform='translate(413.7,336.3) scale(6.75)' color='rgb(148,   0, 211)'/>
	<use xlink:href='#gpPt0' transform='translate(442.8,319.0) scale(6.75)' color='rgb(148,   0, 211)'/>
	<use xlink:href='#gpPt0' transform='translate(471.8,303.8) scale(6.75)' color='rgb(148,   0, 211)'/>
	<use xlink:href='#gpPt0' transform='translate(500.8,269.2) scale(6.75)' color='rgb(148,   0, 211)'/>
	<use xlink:href='#gpPt0' transform='translate(529.9,249.8) scale(6.75)' color='rgb(148,   0, 211)'/>
	<use xlink:href='#gpPt0' transform='translate(558.9,234.6) scale(6.75)' color='rgb(148,   0, 211)'/>
	<use xlink:href='#gpPt0' transform='translate(587.9,208.7) scale(6.75)' color='rgb(148,   0, 211)'/>
	<use xlink:href='#gpPt0' transform='translate(616.9,210.8) scale(6.75)' color='rgb(148,   0, 211)'/>
	<use xlink:href='#gpPt0' transform='translate(646.0,165.4) scale(6.75)' color='rgb(148,   0, 211)'/>
	<use xlink:href='#gpPt0' transform='translate(675.0,161.1) scale(6.75)' color='rgb(148,   0, 211)'/>
	<use xlink:href='#gpPt0' transform='translate(704.0,130.8) scale(6.75)' color='rgb(148,   0, 211)'/>
	<use xlink:href='#gpPt0' transform='translate(733.1,94.1) scale(6.75)' color='rgb(148,   0, 211)'/>
	<use xlink:href='#gpPt0' transform='translate(380.2,108.1) scale(6.75)' color='rgb(148,   0, 211)'/>
</g>
	</g>
	<g id="gnuplot_plot_2" ><title>fit: -0.0+(n/107)3</title>
<g fill="none" color="black" stroke="currentColor" stroke-width="1.00" stroke-linecap="butt" stroke-linejoin="miter">
	<g transform="translate(335.7,141.0)" stroke="none" fill="black" font-family="Times" font-size="18.00"  text-anchor="end">
		<text><tspan font-family="Times" >fit: -0.0+(n/107)</tspan><tspan font-family="Times"  font-size="14.4" dy="-9.00px">3</tspan><tspan font-size="18.0" dy="9.00"></tspan></text>
	</g>
</g>
<g fill="none" color="black" stroke="currentColor" stroke-width="1.00" stroke-linecap="butt" stroke-linejoin="miter">
	<path stroke='rgb(  0, 158, 115)'  d='M348.3,135.1 L412.2,135.1 M152.4,477.6 L158.3,474.9 L164.2,472.1 L170.0,469.4 L175.9,466.6 L181.8,463.8
		L187.6,460.9 L193.5,458.1 L199.4,455.2 L205.2,452.3 L211.1,449.4 L217.0,446.5 L222.8,443.6 L228.7,440.6
		L234.6,437.6 L240.4,434.6 L246.3,431.6 L252.1,428.5 L258.0,425.5 L263.9,422.4 L269.7,419.3 L275.6,416.1
		L281.5,413.0 L287.3,409.8 L293.2,406.6 L299.1,403.4 L304.9,400.2 L310.8,396.9 L316.7,393.6 L322.5,390.3
		L328.4,387.0 L334.3,383.7 L340.1,380.3 L346.0,376.9 L351.9,373.5 L357.7,370.1 L363.6,366.6 L369.4,363.1
		L375.3,359.6 L381.2,356.1 L387.0,352.6 L392.9,349.0 L398.8,345.4 L404.6,341.8 L410.5,338.2 L416.4,334.5
		L422.2,330.9 L428.1,327.2 L434.0,323.4 L439.8,319.7 L445.7,315.9 L451.6,312.1 L457.4,308.3 L463.3,304.5
		L469.1,300.6 L475.0,296.8 L480.9,292.9 L486.7,288.9 L492.6,285.0 L498.5,281.0 L504.3,277.0 L510.2,273.0
		L516.1,268.9 L521.9,264.9 L527.8,260.8 L533.7,256.7 L539.5,252.5 L545.4,248.4 L551.3,244.2 L557.1,240.0
		L563.0,235.7 L568.9,231.5 L574.7,227.2 L580.6,222.9 L586.4,218.5 L592.3,214.2 L598.2,209.8 L604.0,205.4
		L609.9,200.9 L615.8,196.5 L621.6,192.0 L627.5,187.5 L633.4,182.9 L639.2,178.4 L645.1,173.8 L651.0,169.2
		L656.8,164.6 L662.7,159.9 L668.6,155.2 L674.4,150.5 L680.3,145.8 L686.1,141.0 L692.0,136.2 L697.9,131.4
		L703.7,126.6 L709.6,121.7 L715.5,116.8 L721.3,111.9 L727.2,106.9 L733.1,102.0  '/></g>
	</g>
<g fill="none" color="#FFFFFF" stroke="rgb(  0, 158, 115)" stroke-width="2.00" stroke-linecap="butt" stroke-linejoin="miter">
</g>
<g fill="none" color="black" stroke="currentColor" stroke-width="2.00" stroke-linecap="butt" stroke-linejoin="miter">
</g>
<g fill="none" color="black" stroke="black" stroke-width="1.00" stroke-linecap="butt" stroke-linejoin="miter">
</g>
<g fill="none" color="black" stroke="currentColor" stroke-width="1.00" stroke-linecap="butt" stroke-linejoin="miter">
	<path stroke='black'  d='M108.9,81.1 L108.9,513.6 L762.1,513.6 L762.1,81.1 L108.9,81.1 Z  '/></g>
<g fill="none" color="black" stroke="currentColor" stroke-width="1.00" stroke-linecap="butt" stroke-linejoin="miter">
</g>
</g>
</svg>

