   0.00000000       0.00000000       1.00000000    
   9.69245359E-02   9.69245359E-02  0.995302796    
  0.189050183      0.188206151      0.982149959    
  0.278297782      0.275111139      0.961441517    
  0.365792334      0.358179003      0.933690727    
  0.452208698      0.437527746      0.899251938    
  0.537957847      0.513029277      0.858428240    
  0.623292506      0.584415019      0.811523497    
  0.708369076      0.651341617      0.758866549    
  0.793284655      0.713432968      0.700821519    
  0.878099680      0.770307064      0.637790978    
  0.962851942      0.821594775      0.570215106    
   1.04756486      0.866951346      0.498569459    
   1.13225305      0.906065404      0.423360944    
   1.21692586      0.938664556      0.345124215    
   1.30158901      0.964519739      0.264417112    
   1.38624585      0.983448207      0.181816310    
   1.47089887      0.995315731       9.79130045E-02
   1.55554938       1.00003803       1.33082196E-02
   1.64019823      0.997581720      -7.13915452E-02
   1.72484601      0.987964630     -0.155578852    
   1.80949306      0.971255898     -0.238649741    
   1.89413953      0.947575510     -0.320008159    
   1.97878563      0.917093396     -0.399070293    
   2.06343150      0.880028367     -0.475268722    
   2.14807677      0.836646318     -0.548056543    
   2.23272204      0.787258744     -0.616911292    
   2.31736708      0.732219994     -0.681338847    
   2.40201211      0.671925068     -0.740876675    
   2.48665667      0.606806755     -0.795097470    
   2.57130122      0.537332356     -0.843611956    
   2.65594530      0.464000553     -0.886071980    
   2.74058938      0.387337625     -0.922172725    
   2.82523346      0.307893753     -0.951654971    
   2.90987706      0.226239175     -0.974307179    
   2.99452066      0.142959923     -0.989966631    
   3.07916403       5.86537011E-02 -0.998520911    
   3.16380715      -2.60743927E-02 -0.999908626    
   3.24845028     -0.110616252     -0.994119704    
   3.33309293     -0.194365099     -0.981195688    
   3.41773558     -0.276719838     -0.961229324    
   3.50237799     -0.357089370     -0.934363782    
   3.58702040     -0.434896886     -0.900791883    
   3.67166233     -0.509583950     -0.860754550    
   3.75630426     -0.580614448     -0.814539015    
   3.84094620     -0.647478640     -0.762477040    
   3.92558765     -0.709696531     -0.704942226    
   4.01022911     -0.766821623     -0.642347336    
   4.09487009     -0.818443835     -0.575141728    
   4.17951107     -0.864192724     -0.503807664    
   4.26415205     -0.903739870     -0.428856999    
   4.34879255     -0.936801374     -0.350827694    
   4.43343306     -0.963139951     -0.270279735    
   4.51807356     -0.982566535     -0.187791169    
   4.60271358     -0.994941711     -0.103953972    
   4.68735361      -1.00017655      -1.93698294E-02
   4.77199316     -0.998233378       6.53542280E-02
   4.85663271     -0.989126265      0.149610162    
   4.94127226     -0.972920358      0.232793301    
   5.02591133     -0.949732006      0.314306647    
   5.11055040     -0.919727564      0.393565238    
   5.19518900     -0.883122325      0.470000207    
   5.27982759     -0.840178967      0.543063045    
   5.36446619     -0.791205525      0.612229347    
   5.44910431     -0.736553550      0.677002728    
   5.53374243     -0.676615119      0.736918330    
   5.61838055     -0.611820400      0.791546106    
   5.70301819     -0.542634308      0.840494096    
   5.78765583     -0.469553351      0.883410871    
   5.87229347     -0.393101931      0.919988513    
   5.95693064     -0.313828707      0.949964404    
   6.04156733     -0.232302502      0.973123431    
   6.12620449     -0.149108365      0.989299357    
   6.21084118      -6.48433119E-02  0.998376012    
   6.29547739       1.98879689E-02   1.00028825    
   6.38011360      0.104477435      0.995022357    
   6.46474981      0.188318074      0.982616007    
   6.54938602      0.270808220      0.963158131    
   6.63402176      0.351355910      0.936788440    
   6.71865702      0.429383129      0.903696060    
   6.80329275      0.504329920      0.864118397    
   6.88792801      0.575658500      0.818339407    
   6.97256279      0.642856896      0.766687632    
   7.00000000      0.663650692      0.748760879    
