<?xml version="1.0" encoding="utf-8"  standalone="no"?>
<!DOCTYPE svg PUBLIC "-//W3C//DTD SVG 1.1//EN"
 "http://www.w3.org/Graphics/SVG/1.1/DTD/svg11.dtd">
<svg 
 width="800" height="600"
 viewBox="0 0 800 600"
 xmlns="http://www.w3.org/2000/svg"
 xmlns:xlink="http://www.w3.org/1999/xlink"
>

<title>Gnuplot</title>
<desc>Produced by GNUPLOT 5.0 patchlevel 5 </desc>

<g id="gnuplot_canvas">

<rect x="0" y="0" width="800" height="600" fill="none"/>
<defs>

	<circle id='gpDot' r='0.5' stroke-width='0.5'/>
	<path id='gpPt0' stroke-width='0.148' stroke='currentColor' d='M-1,0 h2 M0,-1 v2'/>
	<path id='gpPt1' stroke-width='0.148' stroke='currentColor' d='M-1,-1 L1,1 M1,-1 L-1,1'/>
	<path id='gpPt2' stroke-width='0.148' stroke='currentColor' d='M-1,0 L1,0 M0,-1 L0,1 M-1,-1 L1,1 M-1,1 L1,-1'/>
	<rect id='gpPt3' stroke-width='0.148' stroke='currentColor' x='-1' y='-1' width='2' height='2'/>
	<rect id='gpPt4' stroke-width='0.148' stroke='currentColor' fill='currentColor' x='-1' y='-1' width='2' height='2'/>
	<circle id='gpPt5' stroke-width='0.148' stroke='currentColor' cx='0' cy='0' r='1'/>
	<use xlink:href='#gpPt5' id='gpPt6' fill='currentColor' stroke='none'/>
	<path id='gpPt7' stroke-width='0.148' stroke='currentColor' d='M0,-1.33 L-1.33,0.67 L1.33,0.67 z'/>
	<use xlink:href='#gpPt7' id='gpPt8' fill='currentColor' stroke='none'/>
	<use xlink:href='#gpPt7' id='gpPt9' stroke='currentColor' transform='rotate(180)'/>
	<use xlink:href='#gpPt9' id='gpPt10' fill='currentColor' stroke='none'/>
	<use xlink:href='#gpPt3' id='gpPt11' stroke='currentColor' transform='rotate(45)'/>
	<use xlink:href='#gpPt11' id='gpPt12' fill='currentColor' stroke='none'/>
	<path id='gpPt13' stroke-width='0.148' stroke='currentColor' d='M0,1.330 L1.265,0.411 L0.782,-1.067 L-0.782,-1.076 L-1.265,0.411 z'/>
	<use xlink:href='#gpPt13' id='gpPt14' fill='currentColor' stroke='none'/>
	<filter id='textbox' filterUnits='objectBoundingBox' x='0' y='0' height='1' width='1'>
	  <feFlood flood-color='white' flood-opacity='1' result='bgnd'/>
	  <feComposite in='SourceGraphic' in2='bgnd' operator='atop'/>
	</filter>
	<filter id='greybox' filterUnits='objectBoundingBox' x='0' y='0' height='1' width='1'>
	  <feFlood flood-color='lightgrey' flood-opacity='1' result='grey'/>
	  <feComposite in='SourceGraphic' in2='grey' operator='atop'/>
	</filter>
</defs>
<g fill="none" color="white" stroke="currentColor" stroke-width="1.00" stroke-linecap="butt" stroke-linejoin="miter">
</g>
<g fill="none" color="black" stroke="currentColor" stroke-width="1.00" stroke-linecap="butt" stroke-linejoin="miter">
	<path stroke='black'  d='M122.4,500.1 L108.9,500.1 M748.6,500.1 L762.1,500.1  '/>	<g transform="translate(96.3,506.0)" stroke="none" fill="black" font-family="Times" font-size="18.00"  text-anchor="end">
		<text><tspan font-family="Times" > 0</tspan></text>
	</g>
</g>
<g fill="none" color="black" stroke="currentColor" stroke-width="1.00" stroke-linecap="butt" stroke-linejoin="miter">
	<path stroke='black'  d='M122.4,432.5 L108.9,432.5 M748.6,432.5 L762.1,432.5  '/>	<g transform="translate(96.3,438.4)" stroke="none" fill="black" font-family="Times" font-size="18.00"  text-anchor="end">
		<text><tspan font-family="Times" > 0.5</tspan></text>
	</g>
</g>
<g fill="none" color="black" stroke="currentColor" stroke-width="1.00" stroke-linecap="butt" stroke-linejoin="miter">
	<path stroke='black'  d='M122.4,364.9 L108.9,364.9 M748.6,364.9 L762.1,364.9  '/>	<g transform="translate(96.3,370.8)" stroke="none" fill="black" font-family="Times" font-size="18.00"  text-anchor="end">
		<text><tspan font-family="Times" > 1</tspan></text>
	</g>
</g>
<g fill="none" color="black" stroke="currentColor" stroke-width="1.00" stroke-linecap="butt" stroke-linejoin="miter">
	<path stroke='black'  d='M122.4,297.3 L108.9,297.3 M748.6,297.3 L762.1,297.3  '/>	<g transform="translate(96.3,303.2)" stroke="none" fill="black" font-family="Times" font-size="18.00"  text-anchor="end">
		<text><tspan font-family="Times" > 1.5</tspan></text>
	</g>
</g>
<g fill="none" color="black" stroke="currentColor" stroke-width="1.00" stroke-linecap="butt" stroke-linejoin="miter">
	<path stroke='black'  d='M122.4,229.8 L108.9,229.8 M748.6,229.8 L762.1,229.8  '/>	<g transform="translate(96.3,235.7)" stroke="none" fill="black" font-family="Times" font-size="18.00"  text-anchor="end">
		<text><tspan font-family="Times" > 2</tspan></text>
	</g>
</g>
<g fill="none" color="black" stroke="currentColor" stroke-width="1.00" stroke-linecap="butt" stroke-linejoin="miter">
	<path stroke='black'  d='M122.4,162.2 L108.9,162.2 M748.6,162.2 L762.1,162.2  '/>	<g transform="translate(96.3,168.1)" stroke="none" fill="black" font-family="Times" font-size="18.00"  text-anchor="end">
		<text><tspan font-family="Times" > 2.5</tspan></text>
	</g>
</g>
<g fill="none" color="black" stroke="currentColor" stroke-width="1.00" stroke-linecap="butt" stroke-linejoin="miter">
	<path stroke='black'  d='M122.4,94.6 L108.9,94.6 M748.6,94.6 L762.1,94.6  '/>	<g transform="translate(96.3,100.5)" stroke="none" fill="black" font-family="Times" font-size="18.00"  text-anchor="end">
		<text><tspan font-family="Times" > 3</tspan></text>
	</g>
</g>
<g fill="none" color="black" stroke="currentColor" stroke-width="1.00" stroke-linecap="butt" stroke-linejoin="miter">
	<path stroke='black'  d='M122.4,500.1 L122.4,513.6 M122.4,94.6 L122.4,81.1  '/>	<g transform="translate(122.4,546.5)" stroke="none" fill="black" font-family="Times" font-size="18.00"  text-anchor="middle">
		<text><tspan font-family="Times" > 1</tspan></text>
	</g>
</g>
<g fill="none" color="black" stroke="currentColor" stroke-width="1.00" stroke-linecap="butt" stroke-linejoin="miter">
	<path stroke='black'  d='M185.0,500.1 L185.0,513.6 M185.0,94.6 L185.0,81.1  '/>	<g transform="translate(185.0,546.5)" stroke="none" fill="black" font-family="Times" font-size="18.00"  text-anchor="middle">
		<text><tspan font-family="Times" > 2</tspan></text>
	</g>
</g>
<g fill="none" color="black" stroke="currentColor" stroke-width="1.00" stroke-linecap="butt" stroke-linejoin="miter">
	<path stroke='black'  d='M247.6,500.1 L247.6,513.6 M247.6,94.6 L247.6,81.1  '/>	<g transform="translate(247.6,546.5)" stroke="none" fill="black" font-family="Times" font-size="18.00"  text-anchor="middle">
		<text><tspan font-family="Times" > 3</tspan></text>
	</g>
</g>
<g fill="none" color="black" stroke="currentColor" stroke-width="1.00" stroke-linecap="butt" stroke-linejoin="miter">
	<path stroke='black'  d='M310.3,500.1 L310.3,513.6 M310.3,94.6 L310.3,81.1  '/>	<g transform="translate(310.3,546.5)" stroke="none" fill="black" font-family="Times" font-size="18.00"  text-anchor="middle">
		<text><tspan font-family="Times" > 4</tspan></text>
	</g>
</g>
<g fill="none" color="black" stroke="currentColor" stroke-width="1.00" stroke-linecap="butt" stroke-linejoin="miter">
	<path stroke='black'  d='M372.9,500.1 L372.9,513.6 M372.9,94.6 L372.9,81.1  '/>	<g transform="translate(372.9,546.5)" stroke="none" fill="black" font-family="Times" font-size="18.00"  text-anchor="middle">
		<text><tspan font-family="Times" > 5</tspan></text>
	</g>
</g>
<g fill="none" color="black" stroke="currentColor" stroke-width="1.00" stroke-linecap="butt" stroke-linejoin="miter">
	<path stroke='black'  d='M435.5,500.1 L435.5,513.6 M435.5,94.6 L435.5,81.1  '/>	<g transform="translate(435.5,546.5)" stroke="none" fill="black" font-family="Times" font-size="18.00"  text-anchor="middle">
		<text><tspan font-family="Times" > 6</tspan></text>
	</g>
</g>
<g fill="none" color="black" stroke="currentColor" stroke-width="1.00" stroke-linecap="butt" stroke-linejoin="miter">
	<path stroke='black'  d='M498.1,500.1 L498.1,513.6 M498.1,94.6 L498.1,81.1  '/>	<g transform="translate(498.1,546.5)" stroke="none" fill="black" font-family="Times" font-size="18.00"  text-anchor="middle">
		<text><tspan font-family="Times" > 7</tspan></text>
	</g>
</g>
<g fill="none" color="black" stroke="currentColor" stroke-width="1.00" stroke-linecap="butt" stroke-linejoin="miter">
	<path stroke='black'  d='M560.7,500.1 L560.7,513.6 M560.7,94.6 L560.7,81.1  '/>	<g transform="translate(560.7,546.5)" stroke="none" fill="black" font-family="Times" font-size="18.00"  text-anchor="middle">
		<text><tspan font-family="Times" > 8</tspan></text>
	</g>
</g>
<g fill="none" color="black" stroke="currentColor" stroke-width="1.00" stroke-linecap="butt" stroke-linejoin="miter">
	<path stroke='black'  d='M623.4,500.1 L623.4,513.6 M623.4,94.6 L623.4,81.1  '/>	<g transform="translate(623.4,546.5)" stroke="none" fill="black" font-family="Times" font-size="18.00"  text-anchor="middle">
		<text><tspan font-family="Times" > 9</tspan></text>
	</g>
</g>
<g fill="none" color="black" stroke="currentColor" stroke-width="1.00" stroke-linecap="butt" stroke-linejoin="miter">
	<path stroke='black'  d='M686.0,500.1 L686.0,513.6 M686.0,94.6 L686.0,81.1  '/>	<g transform="translate(686.0,546.5)" stroke="none" fill="black" font-family="Times" font-size="18.00"  text-anchor="middle">
		<text><tspan font-family="Times" > 10</tspan></text>
	</g>
</g>
<g fill="none" color="black" stroke="currentColor" stroke-width="1.00" stroke-linecap="butt" stroke-linejoin="miter">
	<path stroke='black'  d='M748.6,500.1 L748.6,513.6 M748.6,94.6 L748.6,81.1  '/>	<g transform="translate(748.6,546.5)" stroke="none" fill="black" font-family="Times" font-size="18.00"  text-anchor="middle">
		<text><tspan font-family="Times" > 11</tspan></text>
	</g>
</g>
<g fill="none" color="black" stroke="currentColor" stroke-width="1.00" stroke-linecap="butt" stroke-linejoin="miter">
</g>
<g fill="none" color="black" stroke="currentColor" stroke-width="1.00" stroke-linecap="butt" stroke-linejoin="miter">
	<path stroke='black'  d='M122.4,94.6 L122.4,500.1 L748.6,500.1 L748.6,94.6 L122.4,94.6 Z  '/></g>
<g fill="none" color="black" stroke="currentColor" stroke-width="1.00" stroke-linecap="butt" stroke-linejoin="miter">
	<g transform="translate(25.6,297.4) rotate(270)" stroke="none" fill="black" font-family="Times" font-size="18.00"  text-anchor="middle">
		<text><tspan font-family="Times" >y</tspan></text>
	</g>
</g>
<g fill="none" color="black" stroke="currentColor" stroke-width="1.00" stroke-linecap="butt" stroke-linejoin="miter">
	<g transform="translate(435.5,587.0)" stroke="none" fill="black" font-family="Times" font-size="18.00"  text-anchor="middle">
		<text><tspan font-family="Times" >x</tspan></text>
	</g>
</g>
<g fill="none" color="black" stroke="currentColor" stroke-width="1.00" stroke-linecap="butt" stroke-linejoin="miter">
	<g transform="translate(435.5,46.5)" stroke="none" fill="black" font-family="Times" font-size="18.00"  text-anchor="middle">
		<text><tspan font-family="Times" >Linear/quadratic/cubic splines of random data</tspan></text>
	</g>
</g>
	<g id="gnuplot_plot_1" ><title>data</title>
<g fill="none" color="black" stroke="currentColor" stroke-width="1.00" stroke-linecap="butt" stroke-linejoin="miter">
	<g transform="translate(646.9,398.0)" stroke="none" fill="black" font-family="Times" font-size="18.00"  text-anchor="end">
		<text><tspan font-family="Times" >data</tspan></text>
	</g>
</g>
<g fill="none" color="black" stroke="currentColor" stroke-width="1.00" stroke-linecap="butt" stroke-linejoin="miter">
	<use xlink:href='#gpPt0' transform='translate(153.7,473.1) scale(6.75)' color='rgb(148,   0, 211)'/>
	<use xlink:href='#gpPt0' transform='translate(216.3,428.3) scale(6.75)' color='rgb(148,   0, 211)'/>
	<use xlink:href='#gpPt0' transform='translate(279.0,316.9) scale(6.75)' color='rgb(148,   0, 211)'/>
	<use xlink:href='#gpPt0' transform='translate(341.6,330.0) scale(6.75)' color='rgb(148,   0, 211)'/>
	<use xlink:href='#gpPt0' transform='translate(404.2,292.9) scale(6.75)' color='rgb(148,   0, 211)'/>
	<use xlink:href='#gpPt0' transform='translate(466.8,308.3) scale(6.75)' color='rgb(148,   0, 211)'/>
	<use xlink:href='#gpPt0' transform='translate(529.4,304.5) scale(6.75)' color='rgb(148,   0, 211)'/>
	<use xlink:href='#gpPt0' transform='translate(592.1,192.1) scale(6.75)' color='rgb(148,   0, 211)'/>
	<use xlink:href='#gpPt0' transform='translate(654.7,165.0) scale(6.75)' color='rgb(148,   0, 211)'/>
	<use xlink:href='#gpPt0' transform='translate(717.3,103.4) scale(6.75)' color='rgb(148,   0, 211)'/>
	<use xlink:href='#gpPt0' transform='translate(691.4,392.1) scale(6.75)' color='rgb(148,   0, 211)'/>
</g>
	</g>
	<g id="gnuplot_plot_2" ><title>linear spline</title>
<g fill="none" color="black" stroke="currentColor" stroke-width="1.00" stroke-linecap="butt" stroke-linejoin="miter">
	<g transform="translate(646.9,425.0)" stroke="none" fill="black" font-family="Times" font-size="18.00"  text-anchor="end">
		<text><tspan font-family="Times" >linear spline</tspan></text>
	</g>
</g>
<g fill="none" color="black" stroke="currentColor" stroke-width="1.00" stroke-linecap="butt" stroke-linejoin="miter">
	<path stroke='rgb(  0, 158, 115)'  d='M659.5,419.1 L723.4,419.1 M153.7,473.1 L158.1,469.9 L162.5,466.8 L166.9,463.6 L171.3,460.5 L175.7,457.3
		L180.1,454.2 L184.5,451.0 L188.9,447.9 L193.3,444.7 L197.7,441.6 L202.1,438.4 L206.5,435.3 L210.9,432.1
		L215.4,429.0 L219.8,422.2 L224.2,414.3 L228.6,406.5 L233.0,398.7 L237.4,390.8 L241.8,383.0 L246.2,375.2
		L250.6,367.3 L255.0,359.5 L259.4,351.7 L263.8,343.8 L268.2,336.0 L272.6,328.2 L277.0,320.3 L281.4,317.4
		L285.8,318.3 L290.2,319.2 L294.6,320.1 L299.0,321.1 L303.4,322.0 L307.8,322.9 L312.2,323.8 L316.6,324.8
		L321.0,325.7 L325.4,326.6 L329.8,327.5 L334.2,328.4 L338.6,329.4 L343.0,329.1 L347.4,326.5 L351.8,323.9
		L356.2,321.3 L360.6,318.7 L365.1,316.1 L369.5,313.5 L373.9,310.9 L378.3,308.3 L382.7,305.7 L387.1,303.1
		L391.5,300.4 L395.9,297.8 L400.3,295.2 L404.7,293.0 L409.1,294.1 L413.5,295.2 L417.9,296.3 L422.3,297.4
		L426.7,298.4 L431.1,299.5 L435.5,300.6 L439.9,301.7 L444.3,302.8 L448.7,303.9 L453.1,304.9 L457.5,306.0
		L461.9,307.1 L466.3,308.2 L470.7,308.1 L475.1,307.8 L479.5,307.5 L483.9,307.3 L488.3,307.0 L492.7,306.7
		L497.1,306.5 L501.5,306.2 L505.9,305.9 L510.4,305.7 L514.8,305.4 L519.2,305.1 L523.6,304.9 L528.0,304.6
		L532.4,299.2 L536.8,291.3 L541.2,283.4 L545.6,275.5 L550.0,267.6 L554.4,259.7 L558.8,251.8 L563.2,243.9
		L567.6,236.0 L572.0,228.1 L576.4,220.2 L580.8,212.3 L585.2,204.4 L589.6,196.5 L594.0,191.2 L598.4,189.3
		L602.8,187.4 L607.2,185.5 L611.6,183.6 L616.0,181.7 L620.4,179.8 L624.8,177.9 L629.2,176.0 L633.6,174.1
		L638.0,172.2 L642.4,170.3 L646.8,168.4 L651.2,166.5 L655.6,164.0 L660.1,159.7 L664.5,155.4 L668.9,151.0
		L673.3,146.7 L677.7,142.4 L682.1,138.1 L686.5,133.7 L690.9,129.4 L695.3,125.1 L699.7,120.7 L704.1,116.4
		L708.5,112.1 L712.9,107.8 L717.3,103.4  '/></g>
	</g>
	<g id="gnuplot_plot_3" ><title>quadratic spline</title>
<g fill="none" color="black" stroke="currentColor" stroke-width="1.00" stroke-linecap="butt" stroke-linejoin="miter">
	<g transform="translate(646.9,452.0)" stroke="none" fill="black" font-family="Times" font-size="18.00"  text-anchor="end">
		<text><tspan font-family="Times" >quadratic spline</tspan></text>
	</g>
</g>
<g fill="none" color="black" stroke="currentColor" stroke-width="1.00" stroke-linecap="butt" stroke-linejoin="miter">
	<path stroke='rgb( 86, 180, 233)'  d='M659.5,446.1 L723.4,446.1 M153.7,473.1 L158.1,472.7 L162.5,471.9 L166.9,470.6 L171.3,469.0 L175.7,466.9
		L180.1,464.5 L184.5,461.6 L188.9,458.2 L193.3,454.5 L197.7,450.4 L202.1,445.8 L206.5,440.8 L210.9,435.4
		L215.4,429.6 L219.8,423.4 L224.2,417.0 L228.6,410.3 L233.0,403.4 L237.4,396.3 L241.8,388.9 L246.2,381.3
		L250.6,373.4 L255.0,365.3 L259.4,356.9 L263.8,348.3 L268.2,339.5 L272.6,330.4 L277.0,321.1 L281.4,311.8
		L285.8,303.8 L290.2,297.3 L294.6,292.2 L299.0,288.7 L303.4,286.6 L307.8,285.9 L312.2,286.8 L316.6,289.1
		L321.0,292.9 L325.4,298.1 L329.8,304.8 L334.2,313.0 L338.6,322.7 L343.0,333.7 L347.4,343.4 L351.8,351.2
		L356.2,357.0 L360.6,360.8 L365.1,362.7 L369.5,362.6 L373.9,360.6 L378.3,356.5 L382.7,350.6 L387.1,342.6
		L391.5,332.7 L395.9,320.8 L400.3,306.9 L404.7,291.1 L409.1,276.0 L413.5,263.4 L417.9,253.3 L422.3,245.7
		L426.7,240.6 L431.1,237.9 L435.5,237.7 L439.9,240.1 L444.3,244.9 L448.7,252.2 L453.1,262.0 L457.5,274.2
		L461.9,289.0 L466.3,306.2 L470.7,323.9 L475.1,339.0 L479.5,351.3 L483.9,361.0 L488.3,368.1 L492.7,372.4
		L497.1,374.1 L501.5,373.0 L505.9,369.4 L510.4,363.0 L514.8,354.0 L519.2,342.2 L523.6,327.9 L528.0,310.8
		L532.4,292.0 L536.8,274.6 L541.2,258.7 L545.6,244.5 L550.0,231.9 L554.4,220.9 L558.8,211.5 L563.2,203.6
		L567.6,197.4 L572.0,192.8 L576.4,189.8 L580.8,188.4 L585.2,188.6 L589.6,190.4 L594.0,193.5 L598.4,196.3
		L602.8,198.3 L607.2,199.6 L611.6,200.1 L616.0,199.8 L620.4,198.8 L624.8,197.0 L629.2,194.5 L633.6,191.2
		L638.0,187.1 L642.4,182.3 L646.8,176.8 L651.2,170.4 L655.6,163.4 L660.1,156.4 L664.5,149.8 L668.9,143.6
		L673.3,137.9 L677.7,132.6 L682.1,127.7 L686.5,123.2 L690.9,119.1 L695.3,115.4 L699.7,112.2 L704.1,109.4
		L708.5,107.0 L712.9,105.0 L717.3,103.4  '/></g>
	</g>
	<g id="gnuplot_plot_4" ><title>gnuplot cubic spline</title>
<g fill="none" color="black" stroke="currentColor" stroke-width="1.00" stroke-linecap="butt" stroke-linejoin="miter">
	<g transform="translate(646.9,479.0)" stroke="none" fill="black" font-family="Times" font-size="18.00"  text-anchor="end">
		<text><tspan font-family="Times" >gnuplot cubic spline</tspan></text>
	</g>
</g>
<g fill="none" color="black" stroke="currentColor" stroke-width="1.00" stroke-linecap="butt" stroke-linejoin="miter">
	<path stroke='rgb(230, 159,   0)'  d='M659.5,473.1 L723.4,473.1 M153.7,473.1 L159.4,471.5 L165.1,469.8 L170.8,467.9 L176.5,465.6 L182.2,462.8
		L187.9,459.3 L193.6,455.1 L199.3,450.1 L204.9,444.0 L210.6,436.7 L216.3,428.3 L222.0,418.5 L227.7,407.6
		L233.4,396.0 L239.1,384.0 L244.8,372.0 L250.5,360.2 L256.2,349.0 L261.9,338.8 L267.6,329.8 L273.3,322.4
		L279.0,316.9 L284.6,313.5 L290.3,312.1 L296.0,312.2 L301.7,313.6 L307.4,315.9 L313.1,318.8 L318.8,321.9
		L324.5,324.9 L330.2,327.5 L335.9,329.3 L341.6,330.0 L347.3,329.3 L353.0,327.5 L358.6,324.6 L364.3,321.0
		L370.0,316.8 L375.7,312.3 L381.4,307.7 L387.1,303.3 L392.8,299.2 L398.5,295.7 L404.2,292.9 L409.9,291.2
		L415.6,290.3 L421.3,290.3 L427.0,291.0 L432.7,292.4 L438.3,294.3 L444.0,296.6 L449.7,299.3 L455.4,302.2
		L461.1,305.2 L466.8,308.3 L472.5,311.3 L478.2,314.1 L483.9,316.6 L489.6,318.5 L495.3,319.8 L501.0,320.2
		L506.7,319.7 L512.4,318.0 L518.0,315.0 L523.7,310.6 L529.4,304.5 L535.1,296.8 L540.8,287.6 L546.5,277.3
		L552.2,266.2 L557.9,254.6 L563.6,242.8 L569.3,231.1 L575.0,219.9 L580.7,209.4 L586.4,200.0 L592.1,192.1
		L597.7,185.7 L603.4,180.8 L609.1,177.2 L614.8,174.6 L620.5,172.7 L626.2,171.5 L631.9,170.5 L637.6,169.6
		L643.3,168.5 L649.0,167.1 L654.7,165.0 L660.4,162.1 L666.1,158.5 L671.7,154.1 L677.4,149.1 L683.1,143.6
		L688.8,137.6 L694.5,131.3 L700.2,124.6 L705.9,117.7 L711.6,110.6 L717.3,103.4  '/></g>
	</g>
<g fill="none" color="white" stroke="rgb(230, 159,   0)" stroke-width="2.00" stroke-linecap="butt" stroke-linejoin="miter">
</g>
<g fill="none" color="black" stroke="currentColor" stroke-width="2.00" stroke-linecap="butt" stroke-linejoin="miter">
</g>
<g fill="none" color="black" stroke="black" stroke-width="1.00" stroke-linecap="butt" stroke-linejoin="miter">
</g>
<g fill="none" color="black" stroke="currentColor" stroke-width="1.00" stroke-linecap="butt" stroke-linejoin="miter">
	<path stroke='black'  d='M122.4,94.6 L122.4,500.1 L748.6,500.1 L748.6,94.6 L122.4,94.6 Z  '/></g>
<g fill="none" color="black" stroke="currentColor" stroke-width="1.00" stroke-linecap="butt" stroke-linejoin="miter">
</g>
</g>
</svg>

