-3.76991 0.278168 0.278168
-3.75691 0.271146 0.271146
-3.74391 0.265215 0.265215
-3.73091 0.260239 0.260239
-3.71791 0.256109 0.256109
-3.70491 0.252736 0.252736
-3.69191 0.25005 0.25005
-3.67891 0.247991 0.247991
-3.66591 0.246513 0.246513
-3.65291 0.245579 0.245579
-3.63991 0.245158 0.245158
-3.62691 0.245227 0.245227
-3.61391 0.245768 0.245768
-3.60091 0.24677 0.24677
-3.58791 0.248224 0.248224
-3.57491 0.250126 0.250126
-3.56191 0.252478 0.252478
-3.54891 0.255283 0.255283
-3.53591 0.25855 0.25855
-3.52291 0.262291 0.262291
-3.50991 0.266522 0.266522
-3.49691 0.271262 0.271262
-3.48391 0.276536 0.276536
-3.47091 0.282372 0.282372
-3.45791 0.288805 0.288805
-3.44491 0.295874 0.295874
-3.43191 0.303624 0.303624
-3.41891 0.312109 0.312109
-3.40591 0.32139 0.32139
-3.39291 0.331536 0.331536
-3.37991 0.342628 0.342628
-3.36691 0.354761 0.354761
-3.35391 0.368042 0.368042
-3.34091 0.382598 0.382598
-3.32791 0.398573 0.398573
-3.31491 0.416142 0.416142
-3.30191 0.435505 0.435505
-3.28891 0.456903 0.456903
-3.27591 0.480622 0.480622
-3.26291 0.507003 0.507003
-3.24991 0.536464 0.536464
-3.23691 0.56951 0.56951
-3.22391 0.606769 0.606769
-3.21091 0.649023 0.649023
-3.19791 0.697259 0.697259
-3.18491 0.752744 0.752744
-3.17191 0.817131 0.817131
-3.15891 0.892613 0.892613
-3.14591 0.982166 0.982166
-3.13291 1.08993 1.08993
-3.11991 1.22185 1.22185
-3.10691 1.38676 1.38676
-3.09391 1.59838 1.59838
-3.08091 1.87926 1.87926
-3.06791 2.26922 2.26922
-3.05491 2.8458 2.8458
-3.04191 3.78271 3.78271
-3.02891 5.56618 5.56618
-3.01591 10.2714 10.2714
-3.00291 57.0422 57.0422
-2.98991 -16.7332 -16.7332
-2.97691 -7.43688 -7.43688
-2.96391 -4.84188 -4.84188
-2.95091 -3.62426 -3.62426
-2.93791 -2.91894 -2.91894
-2.92491 -2.45992 -2.45992
-2.91191 -2.13825 -2.13825
-2.89891 -1.901 -1.901
-2.88591 -1.71938 -1.71938
-2.87291 -1.57639 -1.57639
-2.85991 -1.46135 -1.46135
-2.84691 -1.36718 -1.36718
-2.83391 -1.28907 -1.28907
-2.82091 -1.22356 -1.22356
-2.80791 -1.16817 -1.16817
-2.79491 -1.12104 -1.12104
-2.78191 -1.08074 -1.08074
-2.76891 -1.0462 -1.0462
-2.75591 -1.01655 -1.01655
-2.74291 -0.991121 -0.991121
-2.72991 -0.969375 -0.969375
-2.71691 -0.950873 -0.950873
-2.70391 -0.93526 -0.93526
-2.69091 -0.922247 -0.922247
-2.67791 -0.911597 -0.911597
-2.66491 -0.903117 -0.903117
-2.65191 -0.89665 -0.89665
-2.63891 -0.892066 -0.892066
-2.62591 -0.889263 -0.889263
-2.61291 -0.88816 -0.88816
-2.59991 -0.888695 -0.888695
-2.58691 -0.890824 -0.890824
-2.57391 -0.894518 -0.894518
-2.56091 -0.899762 -0.899762
-2.54791 -0.906555 -0.906555
-2.53491 -0.914909 -0.914909
-2.52191 -0.92485 -0.92485
-2.50891 -0.936416 -0.936416
-2.49591 -0.949658 -0.949658
-2.48291 -0.964642 -0.964642
-2.46991 -0.981448 -0.981448
-2.45691 -1.00017 -1.00017
-2.44391 -1.02093 -1.02093
-2.43091 -1.04385 -1.04385
-2.41791 -1.0691 -1.0691
-2.40491 -1.09685 -1.09685
-2.39191 -1.12732 -1.12732
-2.37891 -1.16074 -1.16074
-2.36591 -1.19739 -1.19739
-2.35291 -1.23761 -1.23761
-2.33991 -1.28177 -1.28177
-2.32691 -1.33032 -1.33032
-2.31391 -1.38377 -1.38377
-2.30091 -1.44275 -1.44275
-2.28791 -1.50797 -1.50797
-2.27491 -1.58031 -1.58031
-2.26191 -1.66082 -1.66082
-2.24891 -1.75074 -1.75074
-2.23591 -1.85165 -1.85165
-2.22291 -1.96543 -1.96543
-2.20991 -2.09449 -2.09449
-2.19691 -2.24184 -2.24184
-2.18391 -2.41136 -2.41136
-2.17091 -2.60811 -2.60811
-2.15791 -2.83883 -2.83883
-2.14491 -3.11266 -3.11266
-2.13191 -3.44238 -3.44238
-2.11891 -3.84633 -3.84633
-2.10591 -4.35188 -4.35188
-2.09291 -5.00173 -5.00173
-2.07991 -5.86633 -5.86633
-2.06691 -7.07096 -7.07096
-2.05391 -8.86169 -8.86169
-2.04091 -11.7974 -11.7974
-2.02791 -17.4782 -17.4782
-2.01491 -33.0843 -33.0843
-2.00191 -261.158 -261.158
-1.98891 45.5623 45.5623
-1.97591 21.2409 21.2409
-1.96291 13.9783 13.9783
-1.94991 10.4925 10.4925
-1.93691 8.44898 8.44898
-1.92391 7.10861 7.10861
-1.91091 6.16377 6.16377
-1.89791 5.46349 5.46349
-1.88491 4.92505 4.92505
-1.87191 4.4993 4.4993
-1.85891 4.15524 4.15524
-1.84591 3.87231 3.87231
-1.83291 3.63637 3.63637
-1.81991 3.43738 3.43738
-1.80691 3.26801 3.26801
-1.79391 3.12278 3.12278
-1.78091 2.99752 2.99752
-1.76791 2.88901 2.88901
-1.75491 2.79472 2.79472
-1.74191 2.71264 2.71264
-1.72891 2.64115 2.64115
-1.71591 2.57896 2.57896
-1.70291 2.52498 2.52498
-1.68991 2.47834 2.47834
-1.67691 2.43832 2.43832
-1.66391 2.40431 2.40431
-1.65091 2.37583 2.37583
-1.63791 2.35246 2.35246
-1.62491 2.33386 2.33386
-1.61191 2.31975 2.31975
-1.59891 2.30992 2.30992
-1.58591 2.30418 2.30418
-1.57291 2.30241 2.30241
-1.55991 2.30451 2.30451
-1.54691 2.31041 2.31041
-1.53391 2.32009 2.32009
-1.52091 2.33356 2.33356
-1.50791 2.35085 2.35085
-1.49491 2.37203 2.37203
-1.48191 2.3972 2.3972
-1.46891 2.42649 2.42649
-1.45591 2.46007 2.46007
-1.44291 2.49816 2.49816
-1.42991 2.54099 2.54099
-1.41691 2.58886 2.58886
-1.40391 2.64213 2.64213
-1.39091 2.7012 2.7012
-1.37791 2.76655 2.76655
-1.36491 2.83873 2.83873
-1.35191 2.9184 2.9184
-1.33891 3.0063 3.0063
-1.32591 3.10334 3.10334
-1.31291 3.21056 3.21056
-1.29991 3.3292 3.3292
-1.28691 3.46072 3.46072
-1.27391 3.60688 3.60688
-1.26091 3.7698 3.7698
-1.24791 3.95204 3.95204
-1.23491 4.15674 4.15674
-1.22191 4.38779 4.38779
-1.20891 4.65004 4.65004
-1.19591 4.94966 4.94966
-1.18291 5.29454 5.29454
-1.16991 5.69505 5.69505
-1.15691 6.16494 6.16494
-1.14391 6.72298 6.72298
-1.13091 7.39541 7.39541
-1.11791 8.22001 8.22001
-1.10491 9.25333 9.25333
-1.09191 10.5839 10.5839
-1.07891 12.3587 12.3587
-1.06591 14.8404 14.8404
-1.05291 18.5503 18.5503
-1.03991 24.6885 24.6885
-1.02691 36.7741 36.7741
-1.01391 71.4814 71.4814
-1.00091 1097.05 1097.05
-0.987911 -83.161 -83.161
-0.974911 -40.3169 -40.3169
-0.961911 -26.7318 -26.7318
-0.948911 -20.0702 -20.0702
-0.935911 -16.1191 -16.1191
-0.922911 -13.5074 -13.5074
-0.909911 -11.6554 -11.6554
-0.896911 -10.2758 -10.2758
-0.883911 -9.21002 -9.21002
-0.870911 -8.36344 -8.36344
-0.857911 -7.67599 -7.67599
-0.844911 -7.10777 -7.10777
-0.831911 -6.63126 -6.63126
-0.818911 -6.22683 -6.22683
-0.805911 -5.88012 -5.88012
-0.792911 -5.5804 -5.5804
-0.779911 -5.31946 -5.31946
-0.766911 -5.09096 -5.09096
-0.753911 -4.88989 -4.88989
-0.740911 -4.71227 -4.71227
-0.727911 -4.55487 -4.55487
-0.714911 -4.41508 -4.41508
-0.701911 -4.29076 -4.29076
-0.688911 -4.18011 -4.18011
-0.675911 -4.08167 -4.08167
-0.662911 -3.9942 -3.9942
-0.649911 -3.91665 -3.91665
-0.636911 -3.84815 -3.84815
-0.623911 -3.78796 -3.78796
-0.610911 -3.73545 -3.73545
-0.597911 -3.69011 -3.69011
-0.584911 -3.65149 -3.65149
-0.571911 -3.61923 -3.61923
-0.558911 -3.59302 -3.59302
-0.545911 -3.57263 -3.57263
-0.532911 -3.55788 -3.55788
-0.519911 -3.54862 -3.54862
-0.506911 -3.54477 -3.54477
-0.493911 -3.54628 -3.54628
-0.480911 -3.55316 -3.55316
-0.467911 -3.56544 -3.56544
-0.454911 -3.58322 -3.58322
-0.441911 -3.60662 -3.60662
-0.428911 -3.63585 -3.63585
-0.415911 -3.67112 -3.67112
-0.402911 -3.71275 -3.71275
-0.389911 -3.7611 -3.7611
-0.376911 -3.81659 -3.81659
-0.363911 -3.87976 -3.87976
-0.350911 -3.95122 -3.95122
-0.337911 -4.03171 -4.03171
-0.324911 -4.12209 -4.12209
-0.311911 -4.22339 -4.22339
-0.298911 -4.33685 -4.33685
-0.285911 -4.46394 -4.46394
-0.272911 -4.6064 -4.6064
-0.259911 -4.76637 -4.76637
-0.246911 -4.94643 -4.94643
-0.233911 -5.14976 -5.14976
-0.220911 -5.3803 -5.3803
-0.207911 -5.64297 -5.64297
-0.194911 -5.94405 -5.94405
-0.181911 -6.29158 -6.29158
-0.168911 -6.69614 -6.69614
-0.155911 -7.1718 -7.1718
-0.142911 -7.73779 -7.73779
-0.129911 -8.42106 -8.42106
-0.116911 -9.26053 -9.26053
-0.103911 -10.3146 -10.3146
-0.0909112 -11.6752 -11.6752
-0.0779112 -13.4954 -13.4954
-0.0649112 -16.0512 -16.0512
-0.0519112 -19.8948 -19.8948
-0.0389112 -26.3167 -26.3167
-0.0259112 -39.1968 -39.1968
-0.0129112 -78.0424 -78.0424
8.88157e-05 11258.7 11258.7
0.0130888 75.8367 75.8367
0.0260888 37.7786 37.7786
0.0390888 25.0429 25.0429
0.0520888 18.67 18.67
0.0650888 14.8472 14.8472
0.0780888 12.3008 12.3008
0.0910888 10.4843 10.4843
0.104089 9.12408 9.12408
0.117089 8.06809 8.06809
0.130089 7.22506 7.22506
0.143089 6.53691 6.53691
0.156089 5.96489 5.96489
0.169089 5.48219 5.48219
0.182089 5.06963 5.06963
0.195089 4.71317 4.71317
0.208089 4.40227 4.40227
0.221089 4.12886 4.12886
0.234089 3.88668 3.88668
0.247089 3.67078 3.67078
0.260089 3.4772 3.4772
0.273089 3.30274 3.30274
0.286089 3.14477 3.14477
0.299089 3.00115 3.00115
0.312089 2.87005 2.87005
0.325089 2.74997 2.74997
0.338089 2.63963 2.63963
0.351089 2.53794 2.53794
0.364089 2.44396 2.44396
0.377089 2.35688 2.35688
0.390089 2.27602 2.27602
0.403089 2.20076 2.20076
0.416089 2.13057 2.13057
0.429089 2.06498 2.06498
0.442089 2.0036 2.0036
0.455089 1.94604 1.94604
0.468089 1.89199 1.89199
0.481089 1.84117 1.84117
0.494089 1.7933 1.7933
0.507089 1.74817 1.74817
0.520089 1.70556 1.70556
0.533089 1.66529 1.66529
0.546089 1.62719 1.62719
0.559089 1.5911 1.5911
0.572089 1.55689 1.55689
0.585089 1.52442 1.52442
0.598089 1.49359 1.49359
0.611089 1.46429 1.46429
0.624089 1.43642 1.43642
0.637089 1.40989 1.40989
0.650089 1.38463 1.38463
0.663089 1.36055 1.36055
0.676089 1.33758 1.33758
0.689089 1.31567 1.31567
0.702089 1.29476 1.29476
0.715089 1.27478 1.27478
0.728089 1.2557 1.2557
0.741089 1.23746 1.23746
0.754089 1.22001 1.22001
0.767089 1.20333 1.20333
0.780089 1.18736 1.18736
0.793089 1.17208 1.17208
0.806089 1.15746 1.15746
0.819089 1.14345 1.14345
0.832089 1.13004 1.13004
0.845089 1.11719 1.11719
0.858089 1.10489 1.10489
0.871089 1.0931 1.0931
0.884089 1.08181 1.08181
0.897089 1.07099 1.07099
0.910089 1.06062 1.06062
0.923089 1.0507 1.0507
0.936089 1.04118 1.04118
0.949089 1.03208 1.03208
0.962089 1.02336 1.02336
0.975089 1.01501 1.01501
0.988089 1.00702 1.00702
1.00109 0.999373 0.999373
1.01409 0.992062 0.992062
1.02709 0.985072 0.985072
1.04009 0.978394 0.978394
1.05309 0.972016 0.972016
1.06609 0.965928 0.965928
1.07909 0.960122 0.960122
1.09209 0.954588 0.954588
1.10509 0.949319 0.949319
1.11809 0.944306 0.944306
1.13109 0.939542 0.939542
1.14409 0.935019 0.935019
1.15709 0.930732 0.930732
1.17009 0.926673 0.926673
1.18309 0.922836 0.922836
1.19609 0.919216 0.919216
1.20909 0.915808 0.915808
1.22209 0.912605 0.912605
1.23509 0.909604 0.909604
1.24809 0.906799 0.906799
1.26109 0.904186 0.904186
1.27409 0.90176 0.90176
1.28709 0.899519 0.899519
1.30009 0.897457 0.897457
1.31309 0.895572 0.895572
1.32609 0.89386 0.89386
1.33909 0.892317 0.892317
1.35209 0.890941 0.890941
1.36509 0.889729 0.889729
1.37809 0.888678 0.888678
1.39109 0.887786 0.887786
1.40409 0.887049 0.887049
1.41709 0.886466 0.886466
1.43009 0.886034 0.886034
1.44309 0.885751 0.885751
1.45609 0.885616 0.885616
1.46909 0.885627 0.885627
1.48209 0.885781 0.885781
1.49509 0.886078 0.886078
1.50809 0.886516 0.886516
1.52109 0.887092 0.887092
1.53409 0.887807 0.887807
1.54709 0.888659 0.888659
1.56009 0.889646 0.889646
1.57309 0.890769 0.890769
1.58609 0.892024 0.892024
1.59909 0.893413 0.893413
1.61209 0.894934 0.894934
1.62509 0.896586 0.896586
1.63809 0.898369 0.898369
1.65109 0.900282 0.900282
1.66409 0.902325 0.902325
1.67709 0.904497 0.904497
1.69009 0.906798 0.906798
1.70309 0.909228 0.909228
1.71609 0.911786 0.911786
1.72909 0.914472 0.914472
1.74209 0.917287 0.917287
1.75509 0.92023 0.92023
1.76809 0.923301 0.923301
1.78109 0.9265 0.9265
1.79409 0.929828 0.929828
1.80709 0.933285 0.933285
1.82009 0.93687 0.93687
1.83309 0.940585 0.940585
1.84609 0.944429 0.944429
1.85909 0.948404 0.948404
1.87209 0.952509 0.952509
1.88509 0.956745 0.956745
1.89809 0.961113 0.961113
1.91109 0.965613 0.965613
1.92409 0.970246 0.970246
1.93709 0.975013 0.975013
1.95009 0.979915 0.979915
1.96309 0.984952 0.984952
1.97609 0.990125 0.990125
1.98909 0.995436 0.995436
2.00209 1.00088 1.00088
2.01509 1.00647 1.00647
2.02809 1.0122 1.0122
2.04109 1.01807 1.01807
2.05409 1.02409 1.02409
2.06709 1.03024 1.03024
2.08009 1.03655 1.03655
2.09309 1.043 1.043
2.10609 1.04959 1.04959
2.11909 1.05634 1.05634
2.13209 1.06324 1.06324
2.14509 1.07029 1.07029
2.15809 1.0775 1.0775
2.17109 1.08486 1.08486
2.18409 1.09238 1.09238
2.19709 1.10006 1.10006
2.21009 1.1079 1.1079
2.22309 1.11591 1.11591
2.23609 1.12408 1.12408
2.24909 1.13241 1.13241
2.26209 1.14092 1.14092
2.27509 1.1496 1.1496
2.28809 1.15845 1.15845
2.30109 1.16747 1.16747
2.31409 1.17668 1.17668
2.32709 1.18607 1.18607
2.34009 1.19563 1.19563
2.35309 1.20539 1.20539
2.36609 1.21533 1.21533
2.37909 1.22546 1.22546
2.39209 1.23579 1.23579
2.40509 1.24631 1.24631
2.41809 1.25703 1.25703
2.43109 1.26795 1.26795
2.44409 1.27908 1.27908
2.45709 1.29042 1.29042
2.47009 1.30196 1.30196
2.48309 1.31372 1.31372
2.49609 1.32569 1.32569
2.50909 1.33789 1.33789
2.52209 1.35031 1.35031
2.53509 1.36296 1.36296
2.54809 1.37583 1.37583
2.56109 1.38894 1.38894
2.57409 1.40229 1.40229
2.58709 1.41588 1.41588
2.60009 1.42972 1.42972
2.61309 1.44381 1.44381
2.62609 1.45814 1.45814
2.63909 1.47274 1.47274
2.65209 1.4876 1.4876
2.66509 1.50272 1.50272
2.67809 1.51812 1.51812
2.69109 1.53378 1.53378
2.70409 1.54973 1.54973
2.71709 1.56596 1.56596
2.73009 1.58248 1.58248
2.74309 1.5993 1.5993
2.75609 1.61641 1.61641
2.76909 1.63383 1.63383
2.78209 1.65155 1.65155
2.79509 1.66959 1.66959
2.80809 1.68795 1.68795
2.82109 1.70664 1.70664
2.83409 1.72565 1.72565
2.84709 1.745 1.745
2.86009 1.76469 1.76469
2.87309 1.78473 1.78473
2.88609 1.80513 1.80513
2.89909 1.82589 1.82589
2.91209 1.84701 1.84701
2.92509 1.86851 1.86851
2.93809 1.89038 1.89038
2.95109 1.91265 1.91265
2.96409 1.9353 1.9353
2.97709 1.95836 1.95836
2.99009 1.98183 1.98183
3.00309 2.00571 2.00571
3.01609 2.03002 2.03002
3.02909 2.05475 2.05475
3.04209 2.07993 2.07993
3.05509 2.10555 2.10555
3.06809 2.13163 2.13163
3.08109 2.15817 2.15817
3.09409 2.18518 2.18518
3.10709 2.21267 2.21267
3.12009 2.24065 2.24065
3.13309 2.26913 2.26913
3.14609 2.29812 2.29812
3.15909 2.32763 2.32763
3.17209 2.35766 2.35766
3.18509 2.38823 2.38823
3.19809 2.41934 2.41934
3.21109 2.45102 2.45102
3.22409 2.48326 2.48326
3.23709 2.51608 2.51608
3.25009 2.54949 2.54949
3.26309 2.5835 2.5835
3.27609 2.61812 2.61812
3.28909 2.65336 2.65336
3.30209 2.68925 2.68925
3.31509 2.72578 2.72578
3.32809 2.76297 2.76297
3.34109 2.80083 2.80083
3.35409 2.83938 2.83938
3.36709 2.87863 2.87863
3.38009 2.91859 2.91859
3.39309 2.95927 2.95927
3.40609 3.0007 3.0007
3.41909 3.04289 3.04289
3.43209 3.08584 3.08584
3.44509 3.12958 3.12958
3.45809 3.17412 3.17412
3.47109 3.21948 3.21948
3.48409 3.26566 3.26566
3.49709 3.3127 3.3127
3.51009 3.3606 3.3606
3.52309 3.40939 3.40939
3.53609 3.45907 3.45907
3.54909 3.50967 3.50967
3.56209 3.56121 3.56121
3.57509 3.6137 3.6137
3.58809 3.66717 3.66717
3.60109 3.72162 3.72162
3.61409 3.77709 3.77709
3.62709 3.8336 3.8336
3.64009 3.89116 3.89116
3.65309 3.94979 3.94979
3.66609 4.00952 4.00952
3.67909 4.07037 4.07037
3.69209 4.13236 4.13236
3.70509 4.19551 4.19551
3.71809 4.25986 4.25986
3.73109 4.32541 4.32541
3.74409 4.3922 4.3922
3.75709 4.46026 4.46026
3.77009 4.5296 4.5296
3.78309 4.60025 4.60025
3.79609 4.67225 4.67225
3.80909 4.74561 4.74561
3.82209 4.82037 4.82037
3.83509 4.89656 4.89656
3.84809 4.9742 4.9742
3.86109 5.05332 5.05332
3.87409 5.13396 5.13396
3.88709 5.21614 5.21614
3.90009 5.29991 5.29991
3.91309 5.38528 5.38528
3.92609 5.4723 5.4723
3.93909 5.561 5.561
3.95209 5.65141 5.65141
3.96509 5.74357 5.74357
3.97809 5.83751 5.83751
3.99109 5.93328 5.93328
4.00409 6.03091 6.03091
4.01709 6.13044 6.13044
4.03009 6.23191 6.23191
4.04309 6.33536 6.33536
4.05609 6.44083 6.44083
4.06909 6.54837 6.54837
4.08209 6.65802 6.65802
4.09509 6.76982 6.76982
4.10809 6.88382 6.88382
4.12109 7.00006 7.00006
4.13409 7.1186 7.1186
4.14709 7.23948 7.23948
4.16009 7.36275 7.36275
4.17309 7.48846 7.48846
4.18609 7.61667 7.61667
4.19909 7.74743 7.74743
4.21209 7.88079 7.88079
4.22509 8.0168 8.0168
4.23809 8.15554 8.15554
4.25109 8.29704 8.29704
4.26409 8.44139 8.44139
4.27709 8.58862 8.58862
4.29009 8.73881 8.73881
4.30309 8.89202 8.89202
4.31609 9.04832 9.04832
4.32909 9.20777 9.20777
4.34209 9.37045 9.37045
4.35509 9.53641 9.53641
4.36809 9.70573 9.70573
4.38109 9.8785 9.8785
4.39409 10.0548 10.0548
4.40709 10.2346 10.2346
4.42009 10.4182 10.4182
4.43309 10.6054 10.6054
4.44609 10.7965 10.7965
4.45909 10.9915 10.9915
4.47209 11.1905 11.1905
4.48509 11.3936 11.3936
4.49809 11.6009 11.6009
4.51109 11.8124 11.8124
4.52409 12.0283 12.0283
4.53709 12.2487 12.2487
4.55009 12.4736 12.4736
4.56309 12.7032 12.7032
4.57609 12.9375 12.9375
4.58909 13.1767 13.1767
4.60209 13.4209 13.4209
4.61509 13.6701 13.6701
4.62809 13.9246 13.9246
4.64109 14.1843 14.1843
4.65409 14.4495 14.4495
4.66709 14.7203 14.7203
4.68009 14.9967 14.9967
4.69309 15.279 15.279
4.70609 15.5671 15.5671
4.71909 15.8614 15.8614
4.73209 16.1618 16.1618
4.74509 16.4686 16.4686
4.75809 16.7819 16.7819
4.77109 17.1018 17.1018
4.78409 17.4285 17.4285
4.79709 17.7622 17.7622
4.81009 18.1029 18.1029
4.82309 18.4509 18.4509
4.83609 18.8063 18.8063
4.84909 19.1693 19.1693
4.86209 19.5401 19.5401
4.87509 19.9188 19.9188
4.88809 20.3057 20.3057
4.90109 20.7008 20.7008
4.91409 21.1044 21.1044
4.92709 21.5168 21.5168
4.94009 21.938 21.938
4.95309 22.3683 22.3683
4.96609 22.8079 22.8079
4.97909 23.257 23.257
4.99209 23.7159 23.7159
5.00509 24.1847 24.1847
5.01809 24.6637 24.6637
5.03109 25.1532 25.1532
5.04409 25.6533 25.6533
5.05709 26.1643 26.1643
5.07009 26.6865 26.6865
5.08309 27.2201 27.2201
5.09609 27.7654 27.7654
5.10909 28.3226 28.3226
5.12209 28.8921 28.8921
5.13509 29.4741 29.4741
5.14809 30.069 30.069
5.16109 30.6769 30.6769
5.17409 31.2983 31.2983
5.18709 31.9334 31.9334
5.20009 32.5826 32.5826
5.21309 33.2461 33.2461
5.22609 33.9244 33.9244
5.23909 34.6178 34.6178
5.25209 35.3266 35.3266
5.26509 36.0511 36.0511
5.27809 36.7919 36.7919
5.29109 37.5491 37.5491
5.30409 38.3233 38.3233
5.31709 39.1149 39.1149
5.33009 39.9242 39.9242
5.34309 40.7516 40.7516
5.35609 41.5977 41.5977
5.36909 42.4627 42.4627
5.38209 43.3473 43.3473
5.39509 44.2518 44.2518
5.40809 45.1768 45.1768
5.42109 46.1227 46.1227
5.43409 47.09 47.09
5.44709 48.0792 48.0792
5.46009 49.0908 49.0908
5.47309 50.1255 50.1255
5.48609 51.1837 51.1837
5.49909 52.266 52.266
5.51209 53.373 53.373
5.52509 54.5052 54.5052
5.53809 55.6634 55.6634
5.55109 56.8481 56.8481
5.56409 58.0599 58.0599
5.57709 59.2995 59.2995
5.59009 60.5676 60.5676
5.60309 61.8648 61.8648
5.61609 63.1919 63.1919
5.62909 64.5497 64.5497
5.64209 65.9387 65.9387
5.65509 67.3599 67.3599
5.66809 68.8139 68.8139
5.68109 70.3016 70.3016
5.69409 71.8238 71.8238
5.70709 73.3814 73.3814
5.72009 74.9751 74.9751
5.73309 76.606 76.606
5.74609 78.2748 78.2748
5.75909 79.9826 79.9826
5.77209 81.7302 81.7302
5.78509 83.5187 83.5187
5.79809 85.3491 85.3491
5.81109 87.2223 87.2223
5.82409 89.1395 89.1395
5.83709 91.1017 91.1017
5.85009 93.11 93.11
5.86309 95.1656 95.1656
5.87609 97.2697 97.2697
5.88909 99.4234 99.4234
5.90209 101.628 101.628
5.91509 103.885 103.885
5.92809 106.195 106.195
5.94109 108.559 108.559
5.95409 110.98 110.98
5.96709 113.459 113.459
5.98009 115.996 115.996
5.99309 118.594 118.594
6.00609 121.253 121.253
6.01909 123.977 123.977
6.03209 126.765 126.765
6.04509 129.619 129.619
6.05809 132.542 132.542
6.07109 135.536 135.536
6.08409 138.6 138.6
6.09709 141.739 141.739
6.11009 144.953 144.953
6.12309 148.244 148.244
6.13609 151.614 151.614
6.14909 155.066 155.066
6.16209 158.601 158.601
6.17509 162.222 162.222
6.18809 165.93 165.93
6.20109 169.728 169.728
6.21409 173.618 173.618
6.22709 177.602 177.602
6.24009 181.683 181.683
6.25309 185.863 185.863
6.26609 190.145 190.145
6.27909 194.532 194.532
