<?xml version="1.0" encoding="utf-8"  standalone="no"?>
<!DOCTYPE svg PUBLIC "-//W3C//DTD SVG 1.1//EN"
 "http://www.w3.org/Graphics/SVG/1.1/DTD/svg11.dtd">
<svg 
 width="600" height="480"
 viewBox="0 0 600 480"
 xmlns="http://www.w3.org/2000/svg"
 xmlns:xlink="http://www.w3.org/1999/xlink"
>

<title>Gnuplot</title>
<desc>Produced by GNUPLOT 5.0 patchlevel 5 </desc>

<g id="gnuplot_canvas">

<rect x="0" y="0" width="600" height="480" fill="#ffffff"/>
<defs>

	<circle id='gpDot' r='0.5' stroke-width='0.5'/>
	<path id='gpPt0' stroke-width='0.222' stroke='currentColor' d='M-1,0 h2 M0,-1 v2'/>
	<path id='gpPt1' stroke-width='0.222' stroke='currentColor' d='M-1,-1 L1,1 M1,-1 L-1,1'/>
	<path id='gpPt2' stroke-width='0.222' stroke='currentColor' d='M-1,0 L1,0 M0,-1 L0,1 M-1,-1 L1,1 M-1,1 L1,-1'/>
	<rect id='gpPt3' stroke-width='0.222' stroke='currentColor' x='-1' y='-1' width='2' height='2'/>
	<rect id='gpPt4' stroke-width='0.222' stroke='currentColor' fill='currentColor' x='-1' y='-1' width='2' height='2'/>
	<circle id='gpPt5' stroke-width='0.222' stroke='currentColor' cx='0' cy='0' r='1'/>
	<use xlink:href='#gpPt5' id='gpPt6' fill='currentColor' stroke='none'/>
	<path id='gpPt7' stroke-width='0.222' stroke='currentColor' d='M0,-1.33 L-1.33,0.67 L1.33,0.67 z'/>
	<use xlink:href='#gpPt7' id='gpPt8' fill='currentColor' stroke='none'/>
	<use xlink:href='#gpPt7' id='gpPt9' stroke='currentColor' transform='rotate(180)'/>
	<use xlink:href='#gpPt9' id='gpPt10' fill='currentColor' stroke='none'/>
	<use xlink:href='#gpPt3' id='gpPt11' stroke='currentColor' transform='rotate(45)'/>
	<use xlink:href='#gpPt11' id='gpPt12' fill='currentColor' stroke='none'/>
	<path id='gpPt13' stroke-width='0.222' stroke='currentColor' d='M0,1.330 L1.265,0.411 L0.782,-1.067 L-0.782,-1.076 L-1.265,0.411 z'/>
	<use xlink:href='#gpPt13' id='gpPt14' fill='currentColor' stroke='none'/>
	<filter id='textbox' filterUnits='objectBoundingBox' x='0' y='0' height='1' width='1'>
	  <feFlood flood-color='#FFFFFF' flood-opacity='1' result='bgnd'/>
	  <feComposite in='SourceGraphic' in2='bgnd' operator='atop'/>
	</filter>
	<filter id='greybox' filterUnits='objectBoundingBox' x='0' y='0' height='1' width='1'>
	  <feFlood flood-color='lightgrey' flood-opacity='1' result='grey'/>
	  <feComposite in='SourceGraphic' in2='grey' operator='atop'/>
	</filter>
</defs>
<g fill="none" color="#FFFFFF" stroke="currentColor" stroke-width="1.00" stroke-linecap="butt" stroke-linejoin="miter">
</g>
<g fill="none" color="black" stroke="currentColor" stroke-width="1.00" stroke-linecap="butt" stroke-linejoin="miter">
	<path stroke='black'  d='M72.6,413.4 L63.6,413.4 M432.5,413.4 L441.5,413.4  '/>	<g transform="translate(55.3,417.3)" stroke="none" fill="black" font-family="Arial" font-size="12.00"  text-anchor="end">
		<text><tspan font-family="Arial" > 4</tspan></text>
	</g>
</g>
<g fill="none" color="black" stroke="currentColor" stroke-width="1.00" stroke-linecap="butt" stroke-linejoin="miter">
	<path stroke='black'  d='M72.6,355.0 L63.6,355.0 M432.5,355.0 L441.5,355.0  '/>	<g transform="translate(55.3,358.9)" stroke="none" fill="black" font-family="Arial" font-size="12.00"  text-anchor="end">
		<text><tspan font-family="Arial" > 6</tspan></text>
	</g>
</g>
<g fill="none" color="black" stroke="currentColor" stroke-width="1.00" stroke-linecap="butt" stroke-linejoin="miter">
	<path stroke='black'  d='M72.6,296.6 L63.6,296.6 M432.5,296.6 L441.5,296.6  '/>	<g transform="translate(55.3,300.5)" stroke="none" fill="black" font-family="Arial" font-size="12.00"  text-anchor="end">
		<text><tspan font-family="Arial" > 8</tspan></text>
	</g>
</g>
<g fill="none" color="black" stroke="currentColor" stroke-width="1.00" stroke-linecap="butt" stroke-linejoin="miter">
	<path stroke='black'  d='M72.6,238.2 L63.6,238.2 M432.5,238.2 L441.5,238.2  '/>	<g transform="translate(55.3,242.1)" stroke="none" fill="black" font-family="Arial" font-size="12.00"  text-anchor="end">
		<text><tspan font-family="Arial" > 10</tspan></text>
	</g>
</g>
<g fill="none" color="black" stroke="currentColor" stroke-width="1.00" stroke-linecap="butt" stroke-linejoin="miter">
	<path stroke='black'  d='M72.6,179.9 L63.6,179.9 M432.5,179.9 L441.5,179.9  '/>	<g transform="translate(55.3,183.8)" stroke="none" fill="black" font-family="Arial" font-size="12.00"  text-anchor="end">
		<text><tspan font-family="Arial" > 12</tspan></text>
	</g>
</g>
<g fill="none" color="black" stroke="currentColor" stroke-width="1.00" stroke-linecap="butt" stroke-linejoin="miter">
	<path stroke='black'  d='M72.6,121.5 L63.6,121.5 M432.5,121.5 L441.5,121.5  '/>	<g transform="translate(55.3,125.4)" stroke="none" fill="black" font-family="Arial" font-size="12.00"  text-anchor="end">
		<text><tspan font-family="Arial" > 14</tspan></text>
	</g>
</g>
<g fill="none" color="black" stroke="currentColor" stroke-width="1.00" stroke-linecap="butt" stroke-linejoin="miter">
	<path stroke='black'  d='M72.6,63.1 L63.6,63.1 M432.5,63.1 L441.5,63.1  '/>	<g transform="translate(55.3,67.0)" stroke="none" fill="black" font-family="Arial" font-size="12.00"  text-anchor="end">
		<text><tspan font-family="Arial" > 16</tspan></text>
	</g>
</g>
<g fill="none" color="black" stroke="currentColor" stroke-width="1.00" stroke-linecap="butt" stroke-linejoin="miter">
	<path stroke='black'  d='M72.6,413.4 L72.6,422.4 M72.6,63.1 L72.6,54.1  '/>	<g transform="translate(72.6,444.3)" stroke="none" fill="black" font-family="Arial" font-size="12.00"  text-anchor="middle">
		<text><tspan font-family="Arial" > 0</tspan></text>
	</g>
</g>
<g fill="none" color="black" stroke="currentColor" stroke-width="1.00" stroke-linecap="butt" stroke-linejoin="miter">
	<path stroke='black'  d='M132.6,413.4 L132.6,422.4 M132.6,63.1 L132.6,54.1  '/>	<g transform="translate(132.6,444.3)" stroke="none" fill="black" font-family="Arial" font-size="12.00"  text-anchor="middle">
		<text><tspan font-family="Arial" > 0.5</tspan></text>
	</g>
</g>
<g fill="none" color="black" stroke="currentColor" stroke-width="1.00" stroke-linecap="butt" stroke-linejoin="miter">
	<path stroke='black'  d='M192.6,413.4 L192.6,422.4 M192.6,63.1 L192.6,54.1  '/>	<g transform="translate(192.6,444.3)" stroke="none" fill="black" font-family="Arial" font-size="12.00"  text-anchor="middle">
		<text><tspan font-family="Arial" > 1</tspan></text>
	</g>
</g>
<g fill="none" color="black" stroke="currentColor" stroke-width="1.00" stroke-linecap="butt" stroke-linejoin="miter">
	<path stroke='black'  d='M252.6,413.4 L252.6,422.4 M252.6,63.1 L252.6,54.1  '/>	<g transform="translate(252.6,444.3)" stroke="none" fill="black" font-family="Arial" font-size="12.00"  text-anchor="middle">
		<text><tspan font-family="Arial" > 1.5</tspan></text>
	</g>
</g>
<g fill="none" color="black" stroke="currentColor" stroke-width="1.00" stroke-linecap="butt" stroke-linejoin="miter">
	<path stroke='black'  d='M312.5,413.4 L312.5,422.4 M312.5,63.1 L312.5,54.1  '/>	<g transform="translate(312.5,444.3)" stroke="none" fill="black" font-family="Arial" font-size="12.00"  text-anchor="middle">
		<text><tspan font-family="Arial" > 2</tspan></text>
	</g>
</g>
<g fill="none" color="black" stroke="currentColor" stroke-width="1.00" stroke-linecap="butt" stroke-linejoin="miter">
	<path stroke='black'  d='M372.5,413.4 L372.5,422.4 M372.5,63.1 L372.5,54.1  '/>	<g transform="translate(372.5,444.3)" stroke="none" fill="black" font-family="Arial" font-size="12.00"  text-anchor="middle">
		<text><tspan font-family="Arial" > 2.5</tspan></text>
	</g>
</g>
<g fill="none" color="black" stroke="currentColor" stroke-width="1.00" stroke-linecap="butt" stroke-linejoin="miter">
	<path stroke='black'  d='M432.5,413.4 L432.5,422.4 M432.5,63.1 L432.5,54.1  '/>	<g transform="translate(432.5,444.3)" stroke="none" fill="black" font-family="Arial" font-size="12.00"  text-anchor="middle">
		<text><tspan font-family="Arial" > 3</tspan></text>
	</g>
</g>
<g fill="none" color="black" stroke="currentColor" stroke-width="1.00" stroke-linecap="butt" stroke-linejoin="miter">
</g>
<g fill="none" color="black" stroke="currentColor" stroke-width="1.00" stroke-linecap="butt" stroke-linejoin="miter">
	<path stroke='black'  d='M72.6,63.1 L72.6,413.4 L432.5,413.4 L432.5,63.1 L72.6,63.1 Z  '/></g>
<g fill="none" color="black" stroke="currentColor" stroke-width="1.00" stroke-linecap="butt" stroke-linejoin="miter">
	<g transform="translate(17.0,238.3) rotate(270)" stroke="none" fill="black" font-family="Arial" font-size="12.00"  text-anchor="middle">
		<text><tspan font-family="Arial" >y</tspan></text>
	</g>
</g>
<g fill="none" color="black" stroke="currentColor" stroke-width="1.00" stroke-linecap="butt" stroke-linejoin="miter">
	<g transform="translate(252.5,471.3)" stroke="none" fill="black" font-family="Arial" font-size="12.00"  text-anchor="middle">
		<text><tspan font-family="Arial" >x</tspan></text>
	</g>
</g>
<g fill="none" color="black" stroke="currentColor" stroke-width="1.00" stroke-linecap="butt" stroke-linejoin="miter">
	<g transform="translate(252.5,31.0)" stroke="none" fill="black" font-family="Arial" font-size="12.00"  text-anchor="middle">
		<text><tspan font-family="Arial" >least-squares fit of F</tspan><tspan font-family="Arial"  font-size="9.6" dy="3.60px">c</tspan><tspan font-family="Arial"  font-size="12.0" dy="-3.60px">(x)=c</tspan><tspan font-family="Arial"  font-size="9.6" dy="3.60px">0</tspan><tspan font-family="Arial"  font-size="12.0" dy="-3.60px">/x+c</tspan><tspan font-family="Arial"  font-size="9.6" dy="3.60px">1</tspan><tspan font-family="Arial"  font-size="12.0" dy="-3.60px">+c</tspan><tspan font-family="Arial"  font-size="9.6" dy="3.60px">2</tspan><tspan font-family="Arial"  font-size="12.0" dy="-3.60px">*x to some data</tspan></text>
	</g>
</g>
	<g id="gnuplot_plot_1" ><title>data</title>
<g fill="none" color="black" stroke="currentColor" stroke-width="1.00" stroke-linecap="butt" stroke-linejoin="miter">
	<g transform="translate(532.8,76.0)" stroke="none" fill="black" font-family="Arial" font-size="12.00"  text-anchor="end">
		<text><tspan font-family="Arial" >data</tspan></text>
	</g>
</g>
<g fill="none" color="black" stroke="currentColor" stroke-width="1.00" stroke-linecap="butt" stroke-linejoin="miter">
	<path stroke='rgb(148,   0, 211)'  d='M541.1,72.1 L583.3,72.1 M541.1,67.6 L541.1,76.6 M583.3,67.6 L583.3,76.6 M84.6,186.1 L84.6,136.0
		M80.1,186.1 L89.1,186.1 M80.1,136.0 L89.1,136.0 M90.0,271.1 L90.0,250.1 M85.5,271.1 L94.5,271.1
		M85.5,250.1 L94.5,250.1 M97.9,329.6 L97.9,300.1 M93.4,329.6 L102.4,329.6 M93.4,300.1 L102.4,300.1
		M109.4,353.4 L109.4,329.8 M104.9,353.4 L113.9,353.4 M104.9,329.8 L113.9,329.8 M126.2,387.9 L126.2,348.1
		M121.7,387.9 L130.7,387.9 M121.7,348.1 L130.7,348.1 M150.5,375.7 L150.5,340.4 M146.0,375.7 L155.0,375.7
		M146.0,340.4 L155.0,340.4 M185.8,389.6 L185.8,339.6 M181.3,389.6 L190.3,389.6 M181.3,339.6 L190.3,339.6
		M237.2,337.1 L237.2,316.6 M232.7,337.1 L241.7,337.1 M232.7,316.6 L241.7,316.6 M311.9,302.1 L311.9,238.9
		M307.4,302.1 L316.4,302.1 M307.4,238.9 L316.4,238.9 M420.5,227.9 L420.5,169.4 M416.0,227.9 L425.0,227.9
		M416.0,169.4 L425.0,169.4  '/>	<use xlink:href='#gpPt0' transform='translate(84.6,161.1) scale(4.50)' color='rgb(148,   0, 211)'/>
	<use xlink:href='#gpPt0' transform='translate(90.0,260.6) scale(4.50)' color='rgb(148,   0, 211)'/>
	<use xlink:href='#gpPt0' transform='translate(97.9,314.8) scale(4.50)' color='rgb(148,   0, 211)'/>
	<use xlink:href='#gpPt0' transform='translate(109.4,341.6) scale(4.50)' color='rgb(148,   0, 211)'/>
	<use xlink:href='#gpPt0' transform='translate(126.2,368.0) scale(4.50)' color='rgb(148,   0, 211)'/>
	<use xlink:href='#gpPt0' transform='translate(150.5,358.1) scale(4.50)' color='rgb(148,   0, 211)'/>
	<use xlink:href='#gpPt0' transform='translate(185.8,364.6) scale(4.50)' color='rgb(148,   0, 211)'/>
	<use xlink:href='#gpPt0' transform='translate(237.2,326.9) scale(4.50)' color='rgb(148,   0, 211)'/>
	<use xlink:href='#gpPt0' transform='translate(311.9,270.5) scale(4.50)' color='rgb(148,   0, 211)'/>
	<use xlink:href='#gpPt0' transform='translate(420.5,198.7) scale(4.50)' color='rgb(148,   0, 211)'/>
	<use xlink:href='#gpPt0' transform='translate(562.2,72.1) scale(4.50)' color='rgb(148,   0, 211)'/>
</g>
	</g>
	<g id="gnuplot_plot_2" ><title>Fc(x)</title>
<g fill="none" color="black" stroke="currentColor" stroke-width="1.00" stroke-linecap="butt" stroke-linejoin="miter">
	<g transform="translate(532.8,94.0)" stroke="none" fill="black" font-family="Arial" font-size="12.00"  text-anchor="end">
		<text><tspan font-family="Arial" >F</tspan><tspan font-family="Arial"  font-size="9.6" dy="3.60px">c</tspan><tspan font-family="Arial"  font-size="12.0" dy="-3.60px">(x)</tspan></text>
	</g>
</g>
<g fill="none" color="black" stroke="currentColor" stroke-width="1.00" stroke-linecap="butt" stroke-linejoin="miter">
	<path stroke='rgb(  0, 158, 115)'  d='M541.1,90.1 L583.3,90.1 M82.7,120.5 L86.5,209.1 L90.2,258.9 L93.9,290.3 L97.7,311.6 L101.4,326.6
		L105.1,337.6 L108.9,345.7 L112.6,351.8 L116.3,356.4 L120.1,359.8 L123.8,362.4 L127.5,364.2 L131.3,365.4
		L135.0,366.2 L138.7,366.5 L142.4,366.6 L146.2,366.3 L149.9,365.8 L153.6,365.1 L157.4,364.2 L161.1,363.2
		L164.8,362.0 L168.6,360.7 L172.3,359.3 L176.0,357.8 L179.8,356.2 L183.5,354.6 L187.2,352.8 L191.0,351.0
		L194.7,349.2 L198.4,347.3 L202.2,345.3 L205.9,343.3 L209.6,341.3 L213.4,339.2 L217.1,337.1 L220.8,334.9
		L224.6,332.7 L228.3,330.5 L232.0,328.3 L235.8,326.1 L239.5,323.8 L243.2,321.5 L247.0,319.2 L250.7,316.8
		L254.4,314.5 L258.1,312.1 L261.9,309.8 L265.6,307.4 L269.3,305.0 L273.1,302.5 L276.8,300.1 L280.5,297.7
		L284.3,295.2 L288.0,292.7 L291.7,290.3 L295.5,287.8 L299.2,285.3 L302.9,282.8 L306.7,280.3 L310.4,277.8
		L314.1,275.2 L317.9,272.7 L321.6,270.2 L325.3,267.6 L329.1,265.1 L332.8,262.5 L336.5,260.0 L340.3,257.4
		L344.0,254.9 L347.7,252.3 L351.5,249.7 L355.2,247.1 L358.9,244.5 L362.7,241.9 L366.4,239.3 L370.1,236.7
		L373.8,234.1 L377.6,231.5 L381.3,228.9 L385.0,226.3 L388.8,223.7 L392.5,221.1 L396.2,218.5 L400.0,215.8
		L403.7,213.2 L407.4,210.6 L411.2,208.0 L414.9,205.3 L418.6,202.7 L422.4,200.0  '/></g>
	</g>
	<g id="gnuplot_plot_3" ><title>FC(x)c0+dc0</title>
<g fill="none" color="black" stroke="currentColor" stroke-width="1.00" stroke-linecap="butt" stroke-linejoin="miter">
	<g transform="translate(532.8,112.0)" stroke="none" fill="black" font-family="Arial" font-size="12.00"  text-anchor="end">
		<text><tspan font-family="Arial" >F</tspan><tspan font-family="Arial"  font-size="9.6" dy="3.60px">C</tspan><tspan font-family="Arial"  font-size="12.0" dy="-3.60px">(x)</tspan><tspan font-family="Arial"  font-size="9.6" dy="3.60px">c0+dc0</tspan><tspan font-size="12.0" dy="-3.60"></tspan></text>
	</g>
</g>
<g fill="none" color="black" stroke="currentColor" stroke-width="1.00" stroke-linecap="butt" stroke-linejoin="miter">
	<path stroke='rgb( 86, 180, 233)'  d='M541.1,108.1 L583.3,108.1 M82.7,87.1 L86.5,184.7 L90.2,239.7 L93.9,274.5 L97.7,298.1 L101.4,314.9
		L105.1,327.2 L108.9,336.4 L112.6,343.3 L116.3,348.6 L120.1,352.7 L123.8,355.7 L127.5,358.0 L131.3,359.6
		L135.0,360.7 L138.7,361.4 L142.4,361.7 L146.2,361.7 L149.9,361.4 L153.6,360.9 L157.4,360.3 L161.1,359.4
		L164.8,358.4 L168.6,357.2 L172.3,355.9 L176.0,354.6 L179.8,353.1 L183.5,351.5 L187.2,349.9 L191.0,348.2
		L194.7,346.4 L198.4,344.6 L202.2,342.7 L205.9,340.8 L209.6,338.8 L213.4,336.8 L217.1,334.7 L220.8,332.6
		L224.6,330.5 L228.3,328.4 L232.0,326.2 L235.8,324.0 L239.5,321.8 L243.2,319.5 L247.0,317.2 L250.7,314.9
		L254.4,312.6 L258.1,310.3 L261.9,308.0 L265.6,305.6 L269.3,303.2 L273.1,300.8 L276.8,298.4 L280.5,296.0
		L284.3,293.6 L288.0,291.2 L291.7,288.7 L295.5,286.3 L299.2,283.8 L302.9,281.3 L306.7,278.8 L310.4,276.3
		L314.1,273.8 L317.9,271.3 L321.6,268.8 L325.3,266.3 L329.1,263.8 L332.8,261.2 L336.5,258.7 L340.3,256.2
		L344.0,253.6 L347.7,251.0 L351.5,248.5 L355.2,245.9 L358.9,243.3 L362.7,240.8 L366.4,238.2 L370.1,235.6
		L373.8,233.0 L377.6,230.4 L381.3,227.8 L385.0,225.2 L388.8,222.6 L392.5,220.0 L396.2,217.4 L400.0,214.8
		L403.7,212.2 L407.4,209.6 L411.2,207.0 L414.9,204.3 L418.6,201.7 L422.4,199.1  '/></g>
	</g>
	<g id="gnuplot_plot_4" ><title>FC(x)c0-dc0</title>
<g fill="none" color="black" stroke="currentColor" stroke-width="1.00" stroke-linecap="butt" stroke-linejoin="miter">
	<g transform="translate(532.8,130.0)" stroke="none" fill="black" font-family="Arial" font-size="12.00"  text-anchor="end">
		<text><tspan font-family="Arial" >F</tspan><tspan font-family="Arial"  font-size="9.6" dy="3.60px">C</tspan><tspan font-family="Arial"  font-size="12.0" dy="-3.60px">(x)</tspan><tspan font-family="Arial"  font-size="9.6" dy="3.60px">c0-dc0</tspan><tspan font-size="12.0" dy="-3.60"></tspan></text>
	</g>
</g>
<g fill="none" color="black" stroke="currentColor" stroke-width="1.00" stroke-linecap="butt" stroke-linejoin="miter">
	<path stroke='rgb(230, 159,   0)'  d='M541.1,126.1 L583.3,126.1 M82.7,153.9 L86.5,233.5 L90.2,278.1 L93.9,306.2 L97.7,325.1 L101.4,338.4
		L105.1,348.0 L108.9,355.0 L112.6,360.3 L116.3,364.1 L120.1,367.0 L123.8,369.0 L127.5,370.3 L131.3,371.2
		L135.0,371.6 L138.7,371.6 L142.4,371.4 L146.2,370.9 L149.9,370.2 L153.6,369.3 L157.4,368.2 L161.1,367.0
		L164.8,365.7 L168.6,364.3 L172.3,362.7 L176.0,361.1 L179.8,359.4 L183.5,357.6 L187.2,355.8 L191.0,353.9
		L194.7,352.0 L198.4,350.0 L202.2,347.9 L205.9,345.8 L209.6,343.7 L213.4,341.6 L217.1,339.4 L220.8,337.2
		L224.6,335.0 L228.3,332.7 L232.0,330.4 L235.8,328.1 L239.5,325.8 L243.2,323.5 L247.0,321.1 L250.7,318.7
		L254.4,316.4 L258.1,314.0 L261.9,311.5 L265.6,309.1 L269.3,306.7 L273.1,304.2 L276.8,301.8 L280.5,299.3
		L284.3,296.8 L288.0,294.3 L291.7,291.8 L295.5,289.3 L299.2,286.8 L302.9,284.3 L306.7,281.7 L310.4,279.2
		L314.1,276.6 L317.9,274.1 L321.6,271.5 L325.3,269.0 L329.1,266.4 L332.8,263.8 L336.5,261.3 L340.3,258.7
		L344.0,256.1 L347.7,253.5 L351.5,250.9 L355.2,248.3 L358.9,245.7 L362.7,243.1 L366.4,240.5 L370.1,237.9
		L373.8,235.3 L377.6,232.6 L381.3,230.0 L385.0,227.4 L388.8,224.8 L392.5,222.1 L396.2,219.5 L400.0,216.9
		L403.7,214.2 L407.4,211.6 L411.2,209.0 L414.9,206.3 L418.6,203.7 L422.4,201.0  '/></g>
	</g>
	<g id="gnuplot_plot_5" ><title>FC(x)c1+dc1</title>
<g fill="none" color="black" stroke="currentColor" stroke-width="1.00" stroke-linecap="butt" stroke-linejoin="miter">
	<g transform="translate(532.8,148.0)" stroke="none" fill="black" font-family="Arial" font-size="12.00"  text-anchor="end">
		<text><tspan font-family="Arial" >F</tspan><tspan font-family="Arial"  font-size="9.6" dy="3.60px">C</tspan><tspan font-family="Arial"  font-size="12.0" dy="-3.60px">(x)</tspan><tspan font-family="Arial"  font-size="9.6" dy="3.60px">c1+dc1</tspan><tspan font-size="12.0" dy="-3.60"></tspan></text>
	</g>
</g>
<g fill="none" color="black" stroke="currentColor" stroke-width="1.00" stroke-linecap="butt" stroke-linejoin="miter">
	<path stroke='rgb(240, 228,  66)'  d='M541.1,144.1 L583.3,144.1 M82.7,103.3 L86.5,191.8 L90.2,241.7 L93.9,273.1 L97.7,294.3 L101.4,309.4
		L105.1,320.3 L108.9,328.4 L112.6,334.5 L116.3,339.1 L120.1,342.6 L123.8,345.1 L127.5,346.9 L131.3,348.1
		L135.0,348.9 L138.7,349.3 L142.4,349.3 L146.2,349.1 L149.9,348.6 L153.6,347.9 L157.4,347.0 L161.1,345.9
		L164.8,344.8 L168.6,343.5 L172.3,342.1 L176.0,340.6 L179.8,339.0 L183.5,337.3 L187.2,335.6 L191.0,333.8
		L194.7,331.9 L198.4,330.0 L202.2,328.1 L205.9,326.0 L209.6,324.0 L213.4,321.9 L217.1,319.8 L220.8,317.7
		L224.6,315.5 L228.3,313.3 L232.0,311.1 L235.8,308.8 L239.5,306.5 L243.2,304.2 L247.0,301.9 L250.7,299.6
		L254.4,297.2 L258.1,294.9 L261.9,292.5 L265.6,290.1 L269.3,287.7 L273.1,285.3 L276.8,282.8 L280.5,280.4
		L284.3,277.9 L288.0,275.5 L291.7,273.0 L295.5,270.5 L299.2,268.0 L302.9,265.5 L306.7,263.0 L310.4,260.5
		L314.1,258.0 L317.9,255.5 L321.6,252.9 L325.3,250.4 L329.1,247.8 L332.8,245.3 L336.5,242.7 L340.3,240.2
		L344.0,237.6 L347.7,235.0 L351.5,232.4 L355.2,229.9 L358.9,227.3 L362.7,224.7 L366.4,222.1 L370.1,219.5
		L373.8,216.9 L377.6,214.3 L381.3,211.7 L385.0,209.1 L388.8,206.4 L392.5,203.8 L396.2,201.2 L400.0,198.6
		L403.7,196.0 L407.4,193.3 L411.2,190.7 L414.9,188.1 L418.6,185.4 L422.4,182.8  '/></g>
	</g>
	<g id="gnuplot_plot_6" ><title>FC(x)c1-dc1</title>
<g fill="none" color="black" stroke="currentColor" stroke-width="1.00" stroke-linecap="butt" stroke-linejoin="miter">
	<g transform="translate(532.8,166.0)" stroke="none" fill="black" font-family="Arial" font-size="12.00"  text-anchor="end">
		<text><tspan font-family="Arial" >F</tspan><tspan font-family="Arial"  font-size="9.6" dy="3.60px">C</tspan><tspan font-family="Arial"  font-size="12.0" dy="-3.60px">(x)</tspan><tspan font-family="Arial"  font-size="9.6" dy="3.60px">c1-dc1</tspan><tspan font-size="12.0" dy="-3.60"></tspan></text>
	</g>
</g>
<g fill="none" color="black" stroke="currentColor" stroke-width="1.00" stroke-linecap="butt" stroke-linejoin="miter">
	<path stroke='rgb(  0, 114, 178)'  d='M541.1,162.1 L583.3,162.1 M82.7,137.8 L86.5,226.3 L90.2,276.2 L93.9,307.6 L97.7,328.9 L101.4,343.9
		L105.1,354.8 L108.9,363.0 L112.6,369.1 L116.3,373.6 L120.1,377.1 L123.8,379.6 L127.5,381.4 L131.3,382.7
		L135.0,383.4 L138.7,383.8 L142.4,383.8 L146.2,383.6 L149.9,383.1 L153.6,382.4 L157.4,381.5 L161.1,380.5
		L164.8,379.3 L168.6,378.0 L172.3,376.6 L176.0,375.1 L179.8,373.5 L183.5,371.8 L187.2,370.1 L191.0,368.3
		L194.7,366.4 L198.4,364.5 L202.2,362.6 L205.9,360.6 L209.6,358.5 L213.4,356.4 L217.1,354.3 L220.8,352.2
		L224.6,350.0 L228.3,347.8 L232.0,345.6 L235.8,343.3 L239.5,341.1 L243.2,338.8 L247.0,336.4 L250.7,334.1
		L254.4,331.8 L258.1,329.4 L261.9,327.0 L265.6,324.6 L269.3,322.2 L273.1,319.8 L276.8,317.4 L280.5,314.9
		L284.3,312.5 L288.0,310.0 L291.7,307.5 L295.5,305.0 L299.2,302.6 L302.9,300.1 L306.7,297.5 L310.4,295.0
		L314.1,292.5 L317.9,290.0 L321.6,287.4 L325.3,284.9 L329.1,282.4 L332.8,279.8 L336.5,277.2 L340.3,274.7
		L344.0,272.1 L347.7,269.5 L351.5,267.0 L355.2,264.4 L358.9,261.8 L362.7,259.2 L366.4,256.6 L370.1,254.0
		L373.8,251.4 L377.6,248.8 L381.3,246.2 L385.0,243.6 L388.8,241.0 L392.5,238.3 L396.2,235.7 L400.0,233.1
		L403.7,230.5 L407.4,227.8 L411.2,225.2 L414.9,222.6 L418.6,219.9 L422.4,217.3  '/></g>
	</g>
	<g id="gnuplot_plot_7" ><title>FC(x)c2+dc2</title>
<g fill="none" color="black" stroke="currentColor" stroke-width="1.00" stroke-linecap="butt" stroke-linejoin="miter">
	<g transform="translate(532.8,184.0)" stroke="none" fill="black" font-family="Arial" font-size="12.00"  text-anchor="end">
		<text><tspan font-family="Arial" >F</tspan><tspan font-family="Arial"  font-size="9.6" dy="3.60px">C</tspan><tspan font-family="Arial"  font-size="12.0" dy="-3.60px">(x)</tspan><tspan font-family="Arial"  font-size="9.6" dy="3.60px">c2+dc2</tspan><tspan font-size="12.0" dy="-3.60"></tspan></text>
	</g>
</g>
<g fill="none" color="black" stroke="currentColor" stroke-width="1.00" stroke-linecap="butt" stroke-linejoin="miter">
	<path stroke='rgb(229,  30,  16)'  d='M541.1,180.1 L583.3,180.1 M82.7,119.5 L86.5,207.7 L90.2,257.2 L93.9,288.3 L97.7,309.1 L101.4,323.8
		L105.1,334.4 L108.9,342.2 L112.6,347.9 L116.3,352.1 L120.1,355.2 L123.8,357.4 L127.5,358.8 L131.3,359.7
		L135.0,360.1 L138.7,360.1 L142.4,359.8 L146.2,359.1 L149.9,358.3 L153.6,357.2 L157.4,356.0 L161.1,354.6
		L164.8,353.1 L168.6,351.4 L172.3,349.6 L176.0,347.8 L179.8,345.8 L183.5,343.8 L187.2,341.7 L191.0,339.5
		L194.7,337.3 L198.4,335.0 L202.2,332.7 L205.9,330.3 L209.6,327.9 L213.4,325.5 L217.1,323.0 L220.8,320.5
		L224.6,318.0 L228.3,315.4 L232.0,312.8 L235.8,310.2 L239.5,307.5 L243.2,304.9 L247.0,302.2 L250.7,299.5
		L254.4,296.8 L258.1,294.1 L261.9,291.3 L265.6,288.6 L269.3,285.8 L273.1,283.0 L276.8,280.2 L280.5,277.4
		L284.3,274.6 L288.0,271.8 L291.7,268.9 L295.5,266.1 L299.2,263.2 L302.9,260.4 L306.7,257.5 L310.4,254.6
		L314.1,251.7 L317.9,248.8 L321.6,245.9 L325.3,243.0 L329.1,240.1 L332.8,237.2 L336.5,234.3 L340.3,231.4
		L344.0,228.4 L347.7,225.5 L351.5,222.5 L355.2,219.6 L358.9,216.7 L362.7,213.7 L366.4,210.7 L370.1,207.8
		L373.8,204.8 L377.6,201.8 L381.3,198.9 L385.0,195.9 L388.8,192.9 L392.5,189.9 L396.2,186.9 L400.0,184.0
		L403.7,181.0 L407.4,178.0 L411.2,175.0 L414.9,172.0 L418.6,169.0 L422.4,166.0  '/></g>
	</g>
	<g id="gnuplot_plot_8" ><title>FC(x)c2-dc2</title>
<g fill="none" color="black" stroke="currentColor" stroke-width="1.00" stroke-linecap="butt" stroke-linejoin="miter">
	<g transform="translate(532.8,202.0)" stroke="none" fill="black" font-family="Arial" font-size="12.00"  text-anchor="end">
		<text><tspan font-family="Arial" >F</tspan><tspan font-family="Arial"  font-size="9.6" dy="3.60px">C</tspan><tspan font-family="Arial"  font-size="12.0" dy="-3.60px">(x)</tspan><tspan font-family="Arial"  font-size="9.6" dy="3.60px">c2-dc2</tspan><tspan font-size="12.0" dy="-3.60"></tspan></text>
	</g>
</g>
<g fill="none" color="black" stroke="currentColor" stroke-width="1.00" stroke-linecap="butt" stroke-linejoin="miter">
	<path stroke='rgb(  0,   0,   0)'  d='M541.1,198.1 L583.3,198.1 M82.7,121.5 L86.5,210.4 L90.2,260.6 L93.9,292.4 L97.7,314.0 L101.4,329.4
		L105.1,340.7 L108.9,349.2 L112.6,355.7 L116.3,360.6 L120.1,364.4 L123.8,367.3 L127.5,369.5 L131.3,371.1
		L135.0,372.2 L138.7,373.0 L142.4,373.4 L146.2,373.5 L149.9,373.3 L153.6,373.0 L157.4,372.5 L161.1,371.8
		L164.8,371.0 L168.6,370.1 L172.3,369.0 L176.0,367.9 L179.8,366.7 L183.5,365.4 L187.2,364.0 L191.0,362.6
		L194.7,361.1 L198.4,359.5 L202.2,357.9 L205.9,356.3 L209.6,354.6 L213.4,352.9 L217.1,351.1 L220.8,349.4
		L224.6,347.5 L228.3,345.7 L232.0,343.8 L235.8,342.0 L239.5,340.0 L243.2,338.1 L247.0,336.2 L250.7,334.2
		L254.4,332.2 L258.1,330.2 L261.9,328.2 L265.6,326.2 L269.3,324.1 L273.1,322.1 L276.8,320.0 L280.5,317.9
		L284.3,315.8 L288.0,313.7 L291.7,311.6 L295.5,309.5 L299.2,307.4 L302.9,305.2 L306.7,303.1 L310.4,300.9
		L314.1,298.8 L317.9,296.6 L321.6,294.4 L325.3,292.3 L329.1,290.1 L332.8,287.9 L336.5,285.7 L340.3,283.5
		L344.0,281.3 L347.7,279.1 L351.5,276.9 L355.2,274.6 L358.9,272.4 L362.7,270.2 L366.4,268.0 L370.1,265.7
		L373.8,263.5 L377.6,261.2 L381.3,259.0 L385.0,256.7 L388.8,254.5 L392.5,252.2 L396.2,250.0 L400.0,247.7
		L403.7,245.5 L407.4,243.2 L411.2,240.9 L414.9,238.6 L418.6,236.4 L422.4,234.1  '/></g>
	</g>
<g fill="none" color="#FFFFFF" stroke="rgb(  0,   0,   0)" stroke-width="2.00" stroke-linecap="butt" stroke-linejoin="miter">
</g>
<g fill="none" color="black" stroke="currentColor" stroke-width="2.00" stroke-linecap="butt" stroke-linejoin="miter">
</g>
<g fill="none" color="black" stroke="black" stroke-width="1.00" stroke-linecap="butt" stroke-linejoin="miter">
</g>
<g fill="none" color="black" stroke="currentColor" stroke-width="1.00" stroke-linecap="butt" stroke-linejoin="miter">
	<path stroke='black'  d='M72.6,63.1 L72.6,413.4 L432.5,413.4 L432.5,63.1 L72.6,63.1 Z  '/></g>
<g fill="none" color="black" stroke="currentColor" stroke-width="1.00" stroke-linecap="butt" stroke-linejoin="miter">
</g>
</g>
</svg>

