\relax 
\@writefile{toc}{\contentsline {section}{\numberline {1}Gradient of Rosenbrock function}{1}}
\newlabel{rosen}{{1}{1}}
\@writefile{toc}{\contentsline {section}{\numberline {2}Bound states of hydrogen atom with shooting method for boundary value problems}{1}}
\@writefile{toc}{\contentsline {subsection}{\numberline {2.1}Introduction}{1}}
\@writefile{toc}{\contentsline {subsection}{\numberline {2.2}Exercises}{1}}
