finding minimum of Rosenbrock function
exact minimum: f(1, 1)=0
start point:
        5       11 ; function value: 19616

amoeba nsteps: 134
finial point:
        1        1 ; function value: 4.11265e-14
