<?xml version="1.0" encoding="utf-8"  standalone="no"?>
<!DOCTYPE svg PUBLIC "-//W3C//DTD SVG 1.1//EN"
 "http://www.w3.org/Graphics/SVG/1.1/DTD/svg11.dtd">
<svg 
 width="800" height="600"
 viewBox="0 0 800 600"
 xmlns="http://www.w3.org/2000/svg"
 xmlns:xlink="http://www.w3.org/1999/xlink"
>

<title>Gnuplot</title>
<desc>Produced by GNUPLOT 5.0 patchlevel 5 </desc>

<g id="gnuplot_canvas">

<rect x="0" y="0" width="800" height="600" fill="none"/>
<defs>

	<circle id='gpDot' r='0.5' stroke-width='0.5'/>
	<path id='gpPt0' stroke-width='0.148' stroke='currentColor' d='M-1,0 h2 M0,-1 v2'/>
	<path id='gpPt1' stroke-width='0.148' stroke='currentColor' d='M-1,-1 L1,1 M1,-1 L-1,1'/>
	<path id='gpPt2' stroke-width='0.148' stroke='currentColor' d='M-1,0 L1,0 M0,-1 L0,1 M-1,-1 L1,1 M-1,1 L1,-1'/>
	<rect id='gpPt3' stroke-width='0.148' stroke='currentColor' x='-1' y='-1' width='2' height='2'/>
	<rect id='gpPt4' stroke-width='0.148' stroke='currentColor' fill='currentColor' x='-1' y='-1' width='2' height='2'/>
	<circle id='gpPt5' stroke-width='0.148' stroke='currentColor' cx='0' cy='0' r='1'/>
	<use xlink:href='#gpPt5' id='gpPt6' fill='currentColor' stroke='none'/>
	<path id='gpPt7' stroke-width='0.148' stroke='currentColor' d='M0,-1.33 L-1.33,0.67 L1.33,0.67 z'/>
	<use xlink:href='#gpPt7' id='gpPt8' fill='currentColor' stroke='none'/>
	<use xlink:href='#gpPt7' id='gpPt9' stroke='currentColor' transform='rotate(180)'/>
	<use xlink:href='#gpPt9' id='gpPt10' fill='currentColor' stroke='none'/>
	<use xlink:href='#gpPt3' id='gpPt11' stroke='currentColor' transform='rotate(45)'/>
	<use xlink:href='#gpPt11' id='gpPt12' fill='currentColor' stroke='none'/>
	<path id='gpPt13' stroke-width='0.148' stroke='currentColor' d='M0,1.330 L1.265,0.411 L0.782,-1.067 L-0.782,-1.076 L-1.265,0.411 z'/>
	<use xlink:href='#gpPt13' id='gpPt14' fill='currentColor' stroke='none'/>
	<filter id='textbox' filterUnits='objectBoundingBox' x='0' y='0' height='1' width='1'>
	  <feFlood flood-color='white' flood-opacity='1' result='bgnd'/>
	  <feComposite in='SourceGraphic' in2='bgnd' operator='atop'/>
	</filter>
	<filter id='greybox' filterUnits='objectBoundingBox' x='0' y='0' height='1' width='1'>
	  <feFlood flood-color='lightgrey' flood-opacity='1' result='grey'/>
	  <feComposite in='SourceGraphic' in2='grey' operator='atop'/>
	</filter>
</defs>
<g fill="none" color="white" stroke="currentColor" stroke-width="1.00" stroke-linecap="butt" stroke-linejoin="miter">
</g>
<g fill="none" color="black" stroke="currentColor" stroke-width="1.00" stroke-linecap="butt" stroke-linejoin="miter">
	<path stroke='black'  d='M109.8,500.1 L96.3,500.1 M748.6,500.1 L762.1,500.1  '/>	<g transform="translate(83.7,506.0)" stroke="none" fill="black" font-family="Times" font-size="18.00"  text-anchor="end">
		<text><tspan font-family="Times" > 0</tspan></text>
	</g>
</g>
<g fill="none" color="black" stroke="currentColor" stroke-width="1.00" stroke-linecap="butt" stroke-linejoin="miter">
	<path stroke='black'  d='M109.8,459.5 L96.3,459.5 M748.6,459.5 L762.1,459.5  '/>	<g transform="translate(83.7,465.4)" stroke="none" fill="black" font-family="Times" font-size="18.00"  text-anchor="end">
		<text><tspan font-family="Times" > 1</tspan></text>
	</g>
</g>
<g fill="none" color="black" stroke="currentColor" stroke-width="1.00" stroke-linecap="butt" stroke-linejoin="miter">
	<path stroke='black'  d='M109.8,419.0 L96.3,419.0 M748.6,419.0 L762.1,419.0  '/>	<g transform="translate(83.7,424.9)" stroke="none" fill="black" font-family="Times" font-size="18.00"  text-anchor="end">
		<text><tspan font-family="Times" > 2</tspan></text>
	</g>
</g>
<g fill="none" color="black" stroke="currentColor" stroke-width="1.00" stroke-linecap="butt" stroke-linejoin="miter">
	<path stroke='black'  d='M109.8,378.4 L96.3,378.4 M748.6,378.4 L762.1,378.4  '/>	<g transform="translate(83.7,384.3)" stroke="none" fill="black" font-family="Times" font-size="18.00"  text-anchor="end">
		<text><tspan font-family="Times" > 3</tspan></text>
	</g>
</g>
<g fill="none" color="black" stroke="currentColor" stroke-width="1.00" stroke-linecap="butt" stroke-linejoin="miter">
	<path stroke='black'  d='M109.8,337.9 L96.3,337.9 M748.6,337.9 L762.1,337.9  '/>	<g transform="translate(83.7,343.8)" stroke="none" fill="black" font-family="Times" font-size="18.00"  text-anchor="end">
		<text><tspan font-family="Times" > 4</tspan></text>
	</g>
</g>
<g fill="none" color="black" stroke="currentColor" stroke-width="1.00" stroke-linecap="butt" stroke-linejoin="miter">
	<path stroke='black'  d='M109.8,297.3 L96.3,297.3 M748.6,297.3 L762.1,297.3  '/>	<g transform="translate(83.7,303.2)" stroke="none" fill="black" font-family="Times" font-size="18.00"  text-anchor="end">
		<text><tspan font-family="Times" > 5</tspan></text>
	</g>
</g>
<g fill="none" color="black" stroke="currentColor" stroke-width="1.00" stroke-linecap="butt" stroke-linejoin="miter">
	<path stroke='black'  d='M109.8,256.8 L96.3,256.8 M748.6,256.8 L762.1,256.8  '/>	<g transform="translate(83.7,262.7)" stroke="none" fill="black" font-family="Times" font-size="18.00"  text-anchor="end">
		<text><tspan font-family="Times" > 6</tspan></text>
	</g>
</g>
<g fill="none" color="black" stroke="currentColor" stroke-width="1.00" stroke-linecap="butt" stroke-linejoin="miter">
	<path stroke='black'  d='M109.8,216.2 L96.3,216.2 M748.6,216.2 L762.1,216.2  '/>	<g transform="translate(83.7,222.1)" stroke="none" fill="black" font-family="Times" font-size="18.00"  text-anchor="end">
		<text><tspan font-family="Times" > 7</tspan></text>
	</g>
</g>
<g fill="none" color="black" stroke="currentColor" stroke-width="1.00" stroke-linecap="butt" stroke-linejoin="miter">
	<path stroke='black'  d='M109.8,175.7 L96.3,175.7 M748.6,175.7 L762.1,175.7  '/>	<g transform="translate(83.7,181.6)" stroke="none" fill="black" font-family="Times" font-size="18.00"  text-anchor="end">
		<text><tspan font-family="Times" > 8</tspan></text>
	</g>
</g>
<g fill="none" color="black" stroke="currentColor" stroke-width="1.00" stroke-linecap="butt" stroke-linejoin="miter">
	<path stroke='black'  d='M109.8,135.1 L96.3,135.1 M748.6,135.1 L762.1,135.1  '/>	<g transform="translate(83.7,141.0)" stroke="none" fill="black" font-family="Times" font-size="18.00"  text-anchor="end">
		<text><tspan font-family="Times" > 9</tspan></text>
	</g>
</g>
<g fill="none" color="black" stroke="currentColor" stroke-width="1.00" stroke-linecap="butt" stroke-linejoin="miter">
	<path stroke='black'  d='M109.8,94.6 L96.3,94.6 M748.6,94.6 L762.1,94.6  '/>	<g transform="translate(83.7,100.5)" stroke="none" fill="black" font-family="Times" font-size="18.00"  text-anchor="end">
		<text><tspan font-family="Times" > 10</tspan></text>
	</g>
</g>
<g fill="none" color="black" stroke="currentColor" stroke-width="1.00" stroke-linecap="butt" stroke-linejoin="miter">
	<path stroke='black'  d='M109.8,500.1 L109.8,513.6 M109.8,94.6 L109.8,81.1  '/>	<g transform="translate(109.8,546.5)" stroke="none" fill="black" font-family="Times" font-size="18.00"  text-anchor="middle">
		<text><tspan font-family="Times" > 0</tspan></text>
	</g>
</g>
<g fill="none" color="black" stroke="currentColor" stroke-width="1.00" stroke-linecap="butt" stroke-linejoin="miter">
	<path stroke='black'  d='M173.7,500.1 L173.7,513.6 M173.7,94.6 L173.7,81.1  '/>	<g transform="translate(173.7,546.5)" stroke="none" fill="black" font-family="Times" font-size="18.00"  text-anchor="middle">
		<text><tspan font-family="Times" > 1</tspan></text>
	</g>
</g>
<g fill="none" color="black" stroke="currentColor" stroke-width="1.00" stroke-linecap="butt" stroke-linejoin="miter">
	<path stroke='black'  d='M237.6,500.1 L237.6,513.6 M237.6,94.6 L237.6,81.1  '/>	<g transform="translate(237.6,546.5)" stroke="none" fill="black" font-family="Times" font-size="18.00"  text-anchor="middle">
		<text><tspan font-family="Times" > 2</tspan></text>
	</g>
</g>
<g fill="none" color="black" stroke="currentColor" stroke-width="1.00" stroke-linecap="butt" stroke-linejoin="miter">
	<path stroke='black'  d='M301.4,500.1 L301.4,513.6 M301.4,94.6 L301.4,81.1  '/>	<g transform="translate(301.4,546.5)" stroke="none" fill="black" font-family="Times" font-size="18.00"  text-anchor="middle">
		<text><tspan font-family="Times" > 3</tspan></text>
	</g>
</g>
<g fill="none" color="black" stroke="currentColor" stroke-width="1.00" stroke-linecap="butt" stroke-linejoin="miter">
	<path stroke='black'  d='M365.3,500.1 L365.3,513.6 M365.3,94.6 L365.3,81.1  '/>	<g transform="translate(365.3,546.5)" stroke="none" fill="black" font-family="Times" font-size="18.00"  text-anchor="middle">
		<text><tspan font-family="Times" > 4</tspan></text>
	</g>
</g>
<g fill="none" color="black" stroke="currentColor" stroke-width="1.00" stroke-linecap="butt" stroke-linejoin="miter">
	<path stroke='black'  d='M429.2,500.1 L429.2,513.6 M429.2,94.6 L429.2,81.1  '/>	<g transform="translate(429.2,546.5)" stroke="none" fill="black" font-family="Times" font-size="18.00"  text-anchor="middle">
		<text><tspan font-family="Times" > 5</tspan></text>
	</g>
</g>
<g fill="none" color="black" stroke="currentColor" stroke-width="1.00" stroke-linecap="butt" stroke-linejoin="miter">
	<path stroke='black'  d='M493.1,500.1 L493.1,513.6 M493.1,94.6 L493.1,81.1  '/>	<g transform="translate(493.1,546.5)" stroke="none" fill="black" font-family="Times" font-size="18.00"  text-anchor="middle">
		<text><tspan font-family="Times" > 6</tspan></text>
	</g>
</g>
<g fill="none" color="black" stroke="currentColor" stroke-width="1.00" stroke-linecap="butt" stroke-linejoin="miter">
	<path stroke='black'  d='M557.0,500.1 L557.0,513.6 M557.0,94.6 L557.0,81.1  '/>	<g transform="translate(557.0,546.5)" stroke="none" fill="black" font-family="Times" font-size="18.00"  text-anchor="middle">
		<text><tspan font-family="Times" > 7</tspan></text>
	</g>
</g>
<g fill="none" color="black" stroke="currentColor" stroke-width="1.00" stroke-linecap="butt" stroke-linejoin="miter">
	<path stroke='black'  d='M620.8,500.1 L620.8,513.6 M620.8,94.6 L620.8,81.1  '/>	<g transform="translate(620.8,546.5)" stroke="none" fill="black" font-family="Times" font-size="18.00"  text-anchor="middle">
		<text><tspan font-family="Times" > 8</tspan></text>
	</g>
</g>
<g fill="none" color="black" stroke="currentColor" stroke-width="1.00" stroke-linecap="butt" stroke-linejoin="miter">
	<path stroke='black'  d='M684.7,500.1 L684.7,513.6 M684.7,94.6 L684.7,81.1  '/>	<g transform="translate(684.7,546.5)" stroke="none" fill="black" font-family="Times" font-size="18.00"  text-anchor="middle">
		<text><tspan font-family="Times" > 9</tspan></text>
	</g>
</g>
<g fill="none" color="black" stroke="currentColor" stroke-width="1.00" stroke-linecap="butt" stroke-linejoin="miter">
	<path stroke='black'  d='M748.6,500.1 L748.6,513.6 M748.6,94.6 L748.6,81.1  '/>	<g transform="translate(748.6,546.5)" stroke="none" fill="black" font-family="Times" font-size="18.00"  text-anchor="middle">
		<text><tspan font-family="Times" > 10</tspan></text>
	</g>
</g>
<g fill="none" color="black" stroke="currentColor" stroke-width="1.00" stroke-linecap="butt" stroke-linejoin="miter">
</g>
<g fill="none" color="black" stroke="currentColor" stroke-width="1.00" stroke-linecap="butt" stroke-linejoin="miter">
	<path stroke='black'  d='M109.8,94.6 L109.8,500.1 L748.6,500.1 L748.6,94.6 L109.8,94.6 Z  '/></g>
<g fill="none" color="black" stroke="currentColor" stroke-width="1.00" stroke-linecap="butt" stroke-linejoin="miter">
	<g transform="translate(25.6,297.4) rotate(270)" stroke="none" fill="black" font-family="Times" font-size="18.00"  text-anchor="middle">
		<text><tspan font-family="Times" >y</tspan></text>
	</g>
</g>
<g fill="none" color="black" stroke="currentColor" stroke-width="1.00" stroke-linecap="butt" stroke-linejoin="miter">
	<g transform="translate(429.2,587.0)" stroke="none" fill="black" font-family="Times" font-size="18.00"  text-anchor="middle">
		<text><tspan font-family="Times" >x</tspan></text>
	</g>
</g>
<g fill="none" color="black" stroke="currentColor" stroke-width="1.00" stroke-linecap="butt" stroke-linejoin="miter">
	<g transform="translate(429.2,46.5)" stroke="none" fill="black" font-family="Times" font-size="18.00"  text-anchor="middle">
		<text><tspan font-family="Times" >Linear/quadratic/cubic splines of some random data</tspan></text>
	</g>
</g>
	<g id="gnuplot_plot_1" ><title>data</title>
<g fill="none" color="black" stroke="currentColor" stroke-width="1.00" stroke-linecap="butt" stroke-linejoin="miter">
	<g transform="translate(646.9,371.0)" stroke="none" fill="black" font-family="Times" font-size="18.00"  text-anchor="end">
		<text><tspan font-family="Times" >data</tspan></text>
	</g>
</g>
<g fill="none" color="black" stroke="currentColor" stroke-width="1.00" stroke-linecap="butt" stroke-linejoin="miter">
	<use xlink:href='#gpPt6' transform='translate(129.0,459.5) scale(6.75)' color='rgb(148,   0, 211)'/>
	<use xlink:href='#gpPt6' transform='translate(219.7,437.6) scale(6.75)' color='rgb(148,   0, 211)'/>
	<use xlink:href='#gpPt6' transform='translate(285.8,445.5) scale(6.75)' color='rgb(148,   0, 211)'/>
	<use xlink:href='#gpPt6' transform='translate(325.1,415.4) scale(6.75)' color='rgb(148,   0, 211)'/>
	<use xlink:href='#gpPt6' transform='translate(360.3,376.7) scale(6.75)' color='rgb(148,   0, 211)'/>
	<use xlink:href='#gpPt6' transform='translate(417.7,257.2) scale(6.75)' color='rgb(148,   0, 211)'/>
	<use xlink:href='#gpPt6' transform='translate(503.3,262.0) scale(6.75)' color='rgb(148,   0, 211)'/>
	<use xlink:href='#gpPt6' transform='translate(597.1,204.1) scale(6.75)' color='rgb(148,   0, 211)'/>
	<use xlink:href='#gpPt6' transform='translate(671.6,159.8) scale(6.75)' color='rgb(148,   0, 211)'/>
	<use xlink:href='#gpPt6' transform='translate(717.0,103.7) scale(6.75)' color='rgb(148,   0, 211)'/>
	<use xlink:href='#gpPt6' transform='translate(691.4,365.1) scale(6.75)' color='rgb(148,   0, 211)'/>
</g>
	</g>
	<g id="gnuplot_plot_2" ><title>linear</title>
<g fill="none" color="black" stroke="currentColor" stroke-width="1.00" stroke-linecap="butt" stroke-linejoin="miter">
	<g transform="translate(646.9,398.0)" stroke="none" fill="black" font-family="Times" font-size="18.00"  text-anchor="end">
		<text><tspan font-family="Times" >linear</tspan></text>
	</g>
</g>
<g fill="none" color="black" stroke="currentColor" stroke-width="1.00" stroke-linecap="butt" stroke-linejoin="miter">
	<path stroke='rgb(  0, 158, 115)'  d='M659.5,392.1 L723.4,392.1 M129.0,459.5 L135.4,458.0 L141.7,456.5 L148.1,454.9 L154.5,453.4 L160.9,451.8
		L167.3,450.3 L173.7,448.8 L180.1,447.2 L186.5,445.7 L192.8,444.1 L199.2,442.6 L205.6,441.0 L212.0,439.5
		L218.4,438.0 L224.8,438.2 L231.2,439.0 L237.6,439.8 L243.9,440.5 L250.3,441.3 L256.7,442.0 L263.1,442.8
		L269.5,443.6 L275.9,444.3 L282.3,445.1 L288.7,443.3 L295.1,438.4 L301.4,433.5 L307.8,428.6 L314.2,423.7
		L320.6,418.8 L327.0,413.3 L333.4,406.3 L339.8,399.3 L346.2,392.3 L352.5,385.3 L358.9,378.2 L365.3,366.3
		L371.7,353.0 L378.1,339.7 L384.5,326.4 L390.9,313.1 L397.3,299.8 L403.6,286.5 L410.0,273.2 L416.4,259.9
		L422.8,257.4 L429.2,257.8 L435.6,258.2 L442.0,258.5 L448.4,258.9 L454.8,259.2 L461.1,259.6 L467.5,260.0
		L473.9,260.3 L480.3,260.7 L486.7,261.1 L493.1,261.4 L499.5,261.8 L505.9,260.4 L512.2,256.5 L518.6,252.5
		L525.0,248.6 L531.4,244.6 L537.8,240.7 L544.2,236.7 L550.6,232.8 L557.0,228.9 L563.3,224.9 L569.7,221.0
		L576.1,217.0 L582.5,213.1 L588.9,209.1 L595.3,205.2 L601.7,201.3 L608.1,197.6 L614.5,193.8 L620.8,190.0
		L627.2,186.2 L633.6,182.4 L640.0,178.6 L646.4,174.8 L652.8,171.0 L659.2,167.2 L665.6,163.4 L671.9,159.4
		L678.3,151.5 L684.7,143.6 L691.1,135.7 L697.5,127.8 L703.9,119.9 L710.3,112.0 L716.7,104.1  '/></g>
	</g>
	<g id="gnuplot_plot_3" ><title>quadratic</title>
<g fill="none" color="black" stroke="currentColor" stroke-width="1.00" stroke-linecap="butt" stroke-linejoin="miter">
	<g transform="translate(646.9,425.0)" stroke="none" fill="black" font-family="Times" font-size="18.00"  text-anchor="end">
		<text><tspan font-family="Times" >quadratic</tspan></text>
	</g>
</g>
<g fill="none" color="black" stroke="currentColor" stroke-width="1.00" stroke-linecap="butt" stroke-linejoin="miter">
	<path stroke='rgb( 86, 180, 233)'  d='M659.5,419.1 L723.4,419.1 M129.0,459.5 L135.4,442.1 L141.7,427.0 L148.1,414.3 L154.5,404.1 L160.9,396.2
		L167.3,390.8 L173.7,387.8 L180.1,387.2 L186.5,389.1 L192.8,393.3 L199.2,400.0 L205.6,409.0 L212.0,420.5
		L218.4,434.5 L224.8,449.1 L231.2,461.0 L237.6,470.1 L243.9,476.2 L250.3,479.5 L256.7,479.9 L263.1,477.4
		L269.5,472.1 L275.9,463.9 L282.3,452.8 L288.7,439.4 L295.1,428.2 L301.4,419.9 L307.8,414.6 L314.2,412.4
		L320.6,413.1 L327.0,416.5 L333.4,417.5 L339.8,414.5 L346.2,407.3 L352.5,396.0 L358.9,380.6 L365.3,362.7
		L371.7,345.8 L378.1,330.0 L384.5,315.3 L390.9,301.8 L397.3,289.4 L403.6,278.1 L410.0,267.9 L416.4,258.9
		L422.8,251.0 L429.2,244.4 L435.6,239.1 L442.0,235.1 L448.4,232.4 L454.8,230.9 L461.1,230.8 L467.5,231.9
		L473.9,234.3 L480.3,238.0 L486.7,243.0 L493.1,249.3 L499.5,256.8 L505.9,265.4 L512.2,272.8 L518.6,278.4
		L525.0,282.3 L531.4,284.4 L537.8,284.8 L544.2,283.4 L550.6,280.2 L557.0,275.3 L563.3,268.6 L569.7,260.2
		L576.1,250.0 L582.5,238.0 L588.9,224.3 L595.3,208.8 L601.7,192.6 L608.1,178.4 L614.5,166.5 L620.8,156.9
		L627.2,149.5 L633.6,144.3 L640.0,141.4 L646.4,140.7 L652.8,142.2 L659.2,146.0 L665.6,152.0 L671.9,160.3
		L678.3,166.9 L684.7,168.7 L691.1,165.6 L697.5,157.7 L703.9,145.0 L710.3,127.5 L716.7,105.2  '/></g>
	</g>
	<g id="gnuplot_plot_4" ><title>cubic</title>
<g fill="none" color="black" stroke="currentColor" stroke-width="1.00" stroke-linecap="butt" stroke-linejoin="miter">
	<g transform="translate(646.9,452.0)" stroke="none" fill="black" font-family="Times" font-size="18.00"  text-anchor="end">
		<text><tspan font-family="Times" >cubic</tspan></text>
	</g>
</g>
<g fill="none" color="black" stroke="currentColor" stroke-width="1.00" stroke-linecap="butt" stroke-linejoin="miter">
	<path stroke='rgb(230, 159,   0)'  d='M659.5,446.1 L723.4,446.1 M129.0,459.5 L135.4,456.7 L141.7,453.9 L148.1,451.2 L154.5,448.6 L160.9,446.2
		L167.3,443.9 L173.7,441.9 L180.1,440.2 L186.5,438.7 L192.8,437.6 L199.2,436.9 L205.6,436.6 L212.0,436.8
		L218.4,437.4 L224.8,438.6 L231.2,440.2 L237.6,442.0 L243.9,443.9 L250.3,445.7 L256.7,447.2 L263.1,448.2
		L269.5,448.6 L275.9,448.2 L282.3,446.8 L288.7,444.2 L295.1,440.5 L301.4,435.9 L307.8,430.7 L314.2,425.1
		L320.6,419.4 L327.0,413.8 L333.4,408.3 L339.8,402.5 L346.2,396.0 L352.5,388.3 L358.9,379.0 L365.3,367.7
		L371.7,354.6 L378.1,340.3 L384.5,325.4 L390.9,310.3 L397.3,295.5 L403.6,281.7 L410.0,269.4 L416.4,259.0
		L422.8,251.1 L429.2,245.6 L435.6,242.2 L442.0,240.6 L448.4,240.6 L454.8,241.9 L461.1,244.1 L467.5,246.9
		L473.9,250.2 L480.3,253.5 L486.7,256.7 L493.1,259.4 L499.5,261.3 L505.9,262.2 L512.2,261.9 L518.6,260.5
		L525.0,258.2 L531.4,255.1 L537.8,251.3 L544.2,246.9 L550.6,242.0 L557.0,236.8 L563.3,231.4 L569.7,225.9
		L576.1,220.4 L582.5,215.1 L588.9,210.0 L595.3,205.3 L601.7,201.1 L608.1,197.4 L614.5,194.0 L620.8,190.8
		L627.2,187.8 L633.6,184.7 L640.0,181.5 L646.4,178.0 L652.8,174.2 L659.2,170.0 L665.6,165.1 L671.9,159.5
		L678.3,153.1 L684.7,146.0 L691.1,138.4 L697.5,130.2 L703.9,121.8 L710.3,113.0 L716.7,104.2  '/></g>
	</g>
	<g id="gnuplot_plot_5" ><title>gnuplot cubic spline</title>
<g fill="none" color="white" stroke="rgb(230, 159,   0)" stroke-width="4.00" stroke-linecap="butt" stroke-linejoin="miter">
</g>
<g fill="none" color="black" stroke="currentColor" stroke-width="4.00" stroke-linecap="butt" stroke-linejoin="miter">
	<g transform="translate(646.9,479.0)" stroke="none" fill="black" font-family="Times" font-size="18.00"  text-anchor="end">
		<text><tspan font-family="Times" >gnuplot cubic spline</tspan></text>
	</g>
</g>
<g fill="none" color="black" stroke="currentColor" stroke-width="4.00" stroke-linecap="butt" stroke-linejoin="miter">
	<path stroke='rgb(240, 228,  66)' stroke-dasharray='20.0,20.0'  d='M659.5,473.1 L723.4,473.1 M129.0,459.5 L134.9,456.9 L140.8,454.3 L146.8,451.8 L152.7,449.3 L158.7,447.0
		L164.6,444.9 L170.5,442.9 L176.5,441.1 L182.4,439.6 L188.4,438.3 L194.3,437.4 L200.2,436.8 L206.2,436.6
		L212.1,436.8 L218.1,437.4 L224.0,438.5 L229.9,439.9 L235.9,441.6 L241.8,443.3 L247.8,445.0 L253.7,446.5
		L259.6,447.7 L265.6,448.4 L271.5,448.6 L277.5,447.9 L283.4,446.4 L289.4,443.8 L295.3,440.3 L301.2,436.1
		L307.2,431.3 L313.1,426.1 L319.1,420.8 L325.0,415.5 L330.9,410.4 L336.9,405.2 L342.8,399.5 L348.8,393.0
		L354.7,385.4 L360.6,376.2 L366.6,365.2 L372.5,352.9 L378.5,339.5 L384.4,325.6 L390.3,311.5 L396.3,297.7
		L402.2,284.7 L408.2,272.8 L414.1,262.5 L420.0,254.2 L426.0,248.1 L431.9,243.9 L437.9,241.4 L443.8,240.5
		L449.7,240.8 L455.7,242.1 L461.6,244.3 L467.6,246.9 L473.5,250.0 L479.4,253.1 L485.4,256.1 L491.3,258.7
		L497.3,260.8 L503.2,262.0 L509.1,262.2 L515.1,261.4 L521.0,259.8 L527.0,257.4 L532.9,254.3 L538.8,250.6
		L544.8,246.4 L550.7,241.9 L556.7,237.1 L562.6,232.0 L568.5,226.9 L574.5,221.8 L580.4,216.8 L586.4,212.0
		L592.3,207.4 L598.2,203.3 L604.2,199.6 L610.1,196.3 L616.1,193.2 L622.0,190.3 L627.9,187.4 L633.9,184.6
		L639.8,181.6 L645.8,178.4 L651.7,174.9 L657.6,171.0 L663.6,166.7 L669.5,161.7 L675.5,156.1 L681.4,149.8
		L687.3,143.0 L693.3,135.7 L699.2,128.0 L705.2,120.0 L711.1,111.9 L717.0,103.7  '/></g>
	</g>
<g fill="none" color="white" stroke="rgb(240, 228,  66)" stroke-width="2.00" stroke-linecap="butt" stroke-linejoin="miter">
</g>
<g fill="none" color="black" stroke="currentColor" stroke-width="2.00" stroke-linecap="butt" stroke-linejoin="miter">
</g>
<g fill="none" color="black" stroke="black" stroke-width="1.00" stroke-linecap="butt" stroke-linejoin="miter">
</g>
<g fill="none" color="black" stroke="currentColor" stroke-width="1.00" stroke-linecap="butt" stroke-linejoin="miter">
	<path stroke='black'  d='M109.8,94.6 L109.8,500.1 L748.6,500.1 L748.6,94.6 L109.8,94.6 Z  '/></g>
<g fill="none" color="black" stroke="currentColor" stroke-width="1.00" stroke-linecap="butt" stroke-linejoin="miter">
</g>
</g>
</svg>

