<?xml version="1.0" encoding="utf-8"  standalone="no"?>
<!DOCTYPE svg PUBLIC "-//W3C//DTD SVG 1.1//EN"
 "http://www.w3.org/Graphics/SVG/1.1/DTD/svg11.dtd">
<svg 
 width="600" height="480"
 viewBox="0 0 600 480"
 xmlns="http://www.w3.org/2000/svg"
 xmlns:xlink="http://www.w3.org/1999/xlink"
>

<title>Gnuplot</title>
<desc>Produced by GNUPLOT 5.0 patchlevel 5 </desc>

<g id="gnuplot_canvas">

<rect x="0" y="0" width="600" height="480" fill="none"/>
<defs>

	<circle id='gpDot' r='0.5' stroke-width='0.5'/>
	<path id='gpPt0' stroke-width='0.222' stroke='currentColor' d='M-1,0 h2 M0,-1 v2'/>
	<path id='gpPt1' stroke-width='0.222' stroke='currentColor' d='M-1,-1 L1,1 M1,-1 L-1,1'/>
	<path id='gpPt2' stroke-width='0.222' stroke='currentColor' d='M-1,0 L1,0 M0,-1 L0,1 M-1,-1 L1,1 M-1,1 L1,-1'/>
	<rect id='gpPt3' stroke-width='0.222' stroke='currentColor' x='-1' y='-1' width='2' height='2'/>
	<rect id='gpPt4' stroke-width='0.222' stroke='currentColor' fill='currentColor' x='-1' y='-1' width='2' height='2'/>
	<circle id='gpPt5' stroke-width='0.222' stroke='currentColor' cx='0' cy='0' r='1'/>
	<use xlink:href='#gpPt5' id='gpPt6' fill='currentColor' stroke='none'/>
	<path id='gpPt7' stroke-width='0.222' stroke='currentColor' d='M0,-1.33 L-1.33,0.67 L1.33,0.67 z'/>
	<use xlink:href='#gpPt7' id='gpPt8' fill='currentColor' stroke='none'/>
	<use xlink:href='#gpPt7' id='gpPt9' stroke='currentColor' transform='rotate(180)'/>
	<use xlink:href='#gpPt9' id='gpPt10' fill='currentColor' stroke='none'/>
	<use xlink:href='#gpPt3' id='gpPt11' stroke='currentColor' transform='rotate(45)'/>
	<use xlink:href='#gpPt11' id='gpPt12' fill='currentColor' stroke='none'/>
	<path id='gpPt13' stroke-width='0.222' stroke='currentColor' d='M0,1.330 L1.265,0.411 L0.782,-1.067 L-0.782,-1.076 L-1.265,0.411 z'/>
	<use xlink:href='#gpPt13' id='gpPt14' fill='currentColor' stroke='none'/>
	<filter id='textbox' filterUnits='objectBoundingBox' x='0' y='0' height='1' width='1'>
	  <feFlood flood-color='white' flood-opacity='1' result='bgnd'/>
	  <feComposite in='SourceGraphic' in2='bgnd' operator='atop'/>
	</filter>
	<filter id='greybox' filterUnits='objectBoundingBox' x='0' y='0' height='1' width='1'>
	  <feFlood flood-color='lightgrey' flood-opacity='1' result='grey'/>
	  <feComposite in='SourceGraphic' in2='grey' operator='atop'/>
	</filter>
</defs>
<g fill="none" color="white" stroke="currentColor" stroke-width="1.00" stroke-linecap="butt" stroke-linejoin="miter">
</g>
<g fill="none" color="black" stroke="currentColor" stroke-width="1.00" stroke-linecap="butt" stroke-linejoin="miter">
</g>
<g fill="none" color="black" stroke="black" stroke-width="0.50" stroke-linecap="butt" stroke-linejoin="miter">
</g>
<g fill="none" color="gray" stroke="currentColor" stroke-width="0.50" stroke-linecap="butt" stroke-linejoin="miter">
	<path stroke='gray' stroke-dasharray='2,4' class="gridline"  d='M55.3,422.4 L575.0,422.4  '/></g>
<g fill="none" color="gray" stroke="gray" stroke-width="1.00" stroke-linecap="butt" stroke-linejoin="miter">
</g>
<g fill="none" color="black" stroke="currentColor" stroke-width="1.00" stroke-linecap="butt" stroke-linejoin="miter">
	<path stroke='black'  d='M55.3,422.4 L64.3,422.4 M575.0,422.4 L566.0,422.4  '/>	<g transform="translate(47.0,426.3)" stroke="none" fill="black" font-family="Arial" font-size="12.00"  text-anchor="end">
		<text><tspan font-family="Arial" >-5</tspan></text>
	</g>
</g>
<g fill="none" color="black" stroke="currentColor" stroke-width="1.00" stroke-linecap="butt" stroke-linejoin="miter">
</g>
<g fill="none" color="black" stroke="black" stroke-width="0.50" stroke-linecap="butt" stroke-linejoin="miter">
</g>
<g fill="none" color="gray" stroke="currentColor" stroke-width="0.50" stroke-linecap="butt" stroke-linejoin="miter">
	<path stroke='gray' stroke-dasharray='2,4' class="gridline"  d='M55.3,369.8 L575.0,369.8  '/></g>
<g fill="none" color="gray" stroke="gray" stroke-width="1.00" stroke-linecap="butt" stroke-linejoin="miter">
</g>
<g fill="none" color="black" stroke="currentColor" stroke-width="1.00" stroke-linecap="butt" stroke-linejoin="miter">
	<path stroke='black'  d='M55.3,369.8 L64.3,369.8 M575.0,369.8 L566.0,369.8  '/>	<g transform="translate(47.0,373.7)" stroke="none" fill="black" font-family="Arial" font-size="12.00"  text-anchor="end">
		<text><tspan font-family="Arial" >-4</tspan></text>
	</g>
</g>
<g fill="none" color="black" stroke="currentColor" stroke-width="1.00" stroke-linecap="butt" stroke-linejoin="miter">
</g>
<g fill="none" color="black" stroke="black" stroke-width="0.50" stroke-linecap="butt" stroke-linejoin="miter">
</g>
<g fill="none" color="gray" stroke="currentColor" stroke-width="0.50" stroke-linecap="butt" stroke-linejoin="miter">
	<path stroke='gray' stroke-dasharray='2,4' class="gridline"  d='M55.3,317.2 L575.0,317.2  '/></g>
<g fill="none" color="gray" stroke="gray" stroke-width="1.00" stroke-linecap="butt" stroke-linejoin="miter">
</g>
<g fill="none" color="black" stroke="currentColor" stroke-width="1.00" stroke-linecap="butt" stroke-linejoin="miter">
	<path stroke='black'  d='M55.3,317.2 L64.3,317.2 M575.0,317.2 L566.0,317.2  '/>	<g transform="translate(47.0,321.1)" stroke="none" fill="black" font-family="Arial" font-size="12.00"  text-anchor="end">
		<text><tspan font-family="Arial" >-3</tspan></text>
	</g>
</g>
<g fill="none" color="black" stroke="currentColor" stroke-width="1.00" stroke-linecap="butt" stroke-linejoin="miter">
</g>
<g fill="none" color="black" stroke="black" stroke-width="0.50" stroke-linecap="butt" stroke-linejoin="miter">
</g>
<g fill="none" color="gray" stroke="currentColor" stroke-width="0.50" stroke-linecap="butt" stroke-linejoin="miter">
	<path stroke='gray' stroke-dasharray='2,4' class="gridline"  d='M55.3,264.6 L575.0,264.6  '/></g>
<g fill="none" color="gray" stroke="gray" stroke-width="1.00" stroke-linecap="butt" stroke-linejoin="miter">
</g>
<g fill="none" color="black" stroke="currentColor" stroke-width="1.00" stroke-linecap="butt" stroke-linejoin="miter">
	<path stroke='black'  d='M55.3,264.6 L64.3,264.6 M575.0,264.6 L566.0,264.6  '/>	<g transform="translate(47.0,268.5)" stroke="none" fill="black" font-family="Arial" font-size="12.00"  text-anchor="end">
		<text><tspan font-family="Arial" >-2</tspan></text>
	</g>
</g>
<g fill="none" color="black" stroke="currentColor" stroke-width="1.00" stroke-linecap="butt" stroke-linejoin="miter">
</g>
<g fill="none" color="black" stroke="black" stroke-width="0.50" stroke-linecap="butt" stroke-linejoin="miter">
</g>
<g fill="none" color="gray" stroke="currentColor" stroke-width="0.50" stroke-linecap="butt" stroke-linejoin="miter">
	<path stroke='gray' stroke-dasharray='2,4' class="gridline"  d='M55.3,211.9 L575.0,211.9  '/></g>
<g fill="none" color="gray" stroke="gray" stroke-width="1.00" stroke-linecap="butt" stroke-linejoin="miter">
</g>
<g fill="none" color="black" stroke="currentColor" stroke-width="1.00" stroke-linecap="butt" stroke-linejoin="miter">
	<path stroke='black'  d='M55.3,211.9 L64.3,211.9 M575.0,211.9 L566.0,211.9  '/>	<g transform="translate(47.0,215.8)" stroke="none" fill="black" font-family="Arial" font-size="12.00"  text-anchor="end">
		<text><tspan font-family="Arial" >-1</tspan></text>
	</g>
</g>
<g fill="none" color="black" stroke="currentColor" stroke-width="1.00" stroke-linecap="butt" stroke-linejoin="miter">
</g>
<g fill="none" color="black" stroke="black" stroke-width="0.50" stroke-linecap="butt" stroke-linejoin="miter">
</g>
<g fill="none" color="gray" stroke="currentColor" stroke-width="0.50" stroke-linecap="butt" stroke-linejoin="miter">
	<path stroke='gray' stroke-dasharray='2,4' class="gridline"  d='M55.3,159.3 L575.0,159.3  '/></g>
<g fill="none" color="gray" stroke="gray" stroke-width="1.00" stroke-linecap="butt" stroke-linejoin="miter">
</g>
<g fill="none" color="black" stroke="currentColor" stroke-width="1.00" stroke-linecap="butt" stroke-linejoin="miter">
	<path stroke='black'  d='M55.3,159.3 L64.3,159.3 M575.0,159.3 L566.0,159.3  '/>	<g transform="translate(47.0,163.2)" stroke="none" fill="black" font-family="Arial" font-size="12.00"  text-anchor="end">
		<text><tspan font-family="Arial" > 0</tspan></text>
	</g>
</g>
<g fill="none" color="black" stroke="currentColor" stroke-width="1.00" stroke-linecap="butt" stroke-linejoin="miter">
</g>
<g fill="none" color="black" stroke="black" stroke-width="0.50" stroke-linecap="butt" stroke-linejoin="miter">
</g>
<g fill="none" color="gray" stroke="currentColor" stroke-width="0.50" stroke-linecap="butt" stroke-linejoin="miter">
	<path stroke='gray' stroke-dasharray='2,4' class="gridline"  d='M55.3,106.7 L575.0,106.7  '/></g>
<g fill="none" color="gray" stroke="gray" stroke-width="1.00" stroke-linecap="butt" stroke-linejoin="miter">
</g>
<g fill="none" color="black" stroke="currentColor" stroke-width="1.00" stroke-linecap="butt" stroke-linejoin="miter">
	<path stroke='black'  d='M55.3,106.7 L64.3,106.7 M575.0,106.7 L566.0,106.7  '/>	<g transform="translate(47.0,110.6)" stroke="none" fill="black" font-family="Arial" font-size="12.00"  text-anchor="end">
		<text><tspan font-family="Arial" > 1</tspan></text>
	</g>
</g>
<g fill="none" color="black" stroke="currentColor" stroke-width="1.00" stroke-linecap="butt" stroke-linejoin="miter">
</g>
<g fill="none" color="black" stroke="black" stroke-width="0.50" stroke-linecap="butt" stroke-linejoin="miter">
</g>
<g fill="none" color="gray" stroke="currentColor" stroke-width="0.50" stroke-linecap="butt" stroke-linejoin="miter">
	<path stroke='gray' stroke-dasharray='2,4' class="gridline"  d='M55.3,54.1 L575.0,54.1  '/></g>
<g fill="none" color="gray" stroke="gray" stroke-width="1.00" stroke-linecap="butt" stroke-linejoin="miter">
</g>
<g fill="none" color="black" stroke="currentColor" stroke-width="1.00" stroke-linecap="butt" stroke-linejoin="miter">
	<path stroke='black'  d='M55.3,54.1 L64.3,54.1 M575.0,54.1 L566.0,54.1  '/>	<g transform="translate(47.0,58.0)" stroke="none" fill="black" font-family="Arial" font-size="12.00"  text-anchor="end">
		<text><tspan font-family="Arial" > 2</tspan></text>
	</g>
</g>
<g fill="none" color="black" stroke="currentColor" stroke-width="1.00" stroke-linecap="butt" stroke-linejoin="miter">
</g>
<g fill="none" color="black" stroke="black" stroke-width="0.50" stroke-linecap="butt" stroke-linejoin="miter">
</g>
<g fill="none" color="gray" stroke="currentColor" stroke-width="0.50" stroke-linecap="butt" stroke-linejoin="miter">
	<path stroke='gray' stroke-dasharray='2,4' class="gridline"  d='M55.3,422.4 L55.3,54.1  '/></g>
<g fill="none" color="gray" stroke="gray" stroke-width="1.00" stroke-linecap="butt" stroke-linejoin="miter">
</g>
<g fill="none" color="black" stroke="currentColor" stroke-width="1.00" stroke-linecap="butt" stroke-linejoin="miter">
	<path stroke='black'  d='M55.3,422.4 L55.3,413.4 M55.3,54.1 L55.3,63.1  '/>	<g transform="translate(55.3,444.3)" stroke="none" fill="black" font-family="Arial" font-size="12.00"  text-anchor="middle">
		<text><tspan font-family="Arial" >-5</tspan></text>
	</g>
</g>
<g fill="none" color="black" stroke="currentColor" stroke-width="1.00" stroke-linecap="butt" stroke-linejoin="miter">
</g>
<g fill="none" color="black" stroke="black" stroke-width="0.50" stroke-linecap="butt" stroke-linejoin="miter">
</g>
<g fill="none" color="gray" stroke="currentColor" stroke-width="0.50" stroke-linecap="butt" stroke-linejoin="miter">
	<path stroke='gray' stroke-dasharray='2,4' class="gridline"  d='M107.3,422.4 L107.3,81.1 M107.3,63.1 L107.3,54.1  '/></g>
<g fill="none" color="gray" stroke="gray" stroke-width="1.00" stroke-linecap="butt" stroke-linejoin="miter">
</g>
<g fill="none" color="black" stroke="currentColor" stroke-width="1.00" stroke-linecap="butt" stroke-linejoin="miter">
	<path stroke='black'  d='M107.3,422.4 L107.3,413.4 M107.3,54.1 L107.3,63.1  '/>	<g transform="translate(107.3,444.3)" stroke="none" fill="black" font-family="Arial" font-size="12.00"  text-anchor="middle">
		<text><tspan font-family="Arial" >-4</tspan></text>
	</g>
</g>
<g fill="none" color="black" stroke="currentColor" stroke-width="1.00" stroke-linecap="butt" stroke-linejoin="miter">
</g>
<g fill="none" color="black" stroke="black" stroke-width="0.50" stroke-linecap="butt" stroke-linejoin="miter">
</g>
<g fill="none" color="gray" stroke="currentColor" stroke-width="0.50" stroke-linecap="butt" stroke-linejoin="miter">
	<path stroke='gray' stroke-dasharray='2,4' class="gridline"  d='M159.2,422.4 L159.2,54.1  '/></g>
<g fill="none" color="gray" stroke="gray" stroke-width="1.00" stroke-linecap="butt" stroke-linejoin="miter">
</g>
<g fill="none" color="black" stroke="currentColor" stroke-width="1.00" stroke-linecap="butt" stroke-linejoin="miter">
	<path stroke='black'  d='M159.2,422.4 L159.2,413.4 M159.2,54.1 L159.2,63.1  '/>	<g transform="translate(159.2,444.3)" stroke="none" fill="black" font-family="Arial" font-size="12.00"  text-anchor="middle">
		<text><tspan font-family="Arial" >-3</tspan></text>
	</g>
</g>
<g fill="none" color="black" stroke="currentColor" stroke-width="1.00" stroke-linecap="butt" stroke-linejoin="miter">
</g>
<g fill="none" color="black" stroke="black" stroke-width="0.50" stroke-linecap="butt" stroke-linejoin="miter">
</g>
<g fill="none" color="gray" stroke="currentColor" stroke-width="0.50" stroke-linecap="butt" stroke-linejoin="miter">
	<path stroke='gray' stroke-dasharray='2,4' class="gridline"  d='M211.2,422.4 L211.2,54.1  '/></g>
<g fill="none" color="gray" stroke="gray" stroke-width="1.00" stroke-linecap="butt" stroke-linejoin="miter">
</g>
<g fill="none" color="black" stroke="currentColor" stroke-width="1.00" stroke-linecap="butt" stroke-linejoin="miter">
	<path stroke='black'  d='M211.2,422.4 L211.2,413.4 M211.2,54.1 L211.2,63.1  '/>	<g transform="translate(211.2,444.3)" stroke="none" fill="black" font-family="Arial" font-size="12.00"  text-anchor="middle">
		<text><tspan font-family="Arial" >-2</tspan></text>
	</g>
</g>
<g fill="none" color="black" stroke="currentColor" stroke-width="1.00" stroke-linecap="butt" stroke-linejoin="miter">
</g>
<g fill="none" color="black" stroke="black" stroke-width="0.50" stroke-linecap="butt" stroke-linejoin="miter">
</g>
<g fill="none" color="gray" stroke="currentColor" stroke-width="0.50" stroke-linecap="butt" stroke-linejoin="miter">
	<path stroke='gray' stroke-dasharray='2,4' class="gridline"  d='M263.2,422.4 L263.2,54.1  '/></g>
<g fill="none" color="gray" stroke="gray" stroke-width="1.00" stroke-linecap="butt" stroke-linejoin="miter">
</g>
<g fill="none" color="black" stroke="currentColor" stroke-width="1.00" stroke-linecap="butt" stroke-linejoin="miter">
	<path stroke='black'  d='M263.2,422.4 L263.2,413.4 M263.2,54.1 L263.2,63.1  '/>	<g transform="translate(263.2,444.3)" stroke="none" fill="black" font-family="Arial" font-size="12.00"  text-anchor="middle">
		<text><tspan font-family="Arial" >-1</tspan></text>
	</g>
</g>
<g fill="none" color="black" stroke="currentColor" stroke-width="1.00" stroke-linecap="butt" stroke-linejoin="miter">
</g>
<g fill="none" color="black" stroke="black" stroke-width="0.50" stroke-linecap="butt" stroke-linejoin="miter">
</g>
<g fill="none" color="gray" stroke="currentColor" stroke-width="0.50" stroke-linecap="butt" stroke-linejoin="miter">
	<path stroke='gray' stroke-dasharray='2,4' class="gridline"  d='M315.2,422.4 L315.2,54.1  '/></g>
<g fill="none" color="gray" stroke="gray" stroke-width="1.00" stroke-linecap="butt" stroke-linejoin="miter">
</g>
<g fill="none" color="black" stroke="currentColor" stroke-width="1.00" stroke-linecap="butt" stroke-linejoin="miter">
	<path stroke='black'  d='M315.2,422.4 L315.2,413.4 M315.2,54.1 L315.2,63.1  '/>	<g transform="translate(315.2,444.3)" stroke="none" fill="black" font-family="Arial" font-size="12.00"  text-anchor="middle">
		<text><tspan font-family="Arial" > 0</tspan></text>
	</g>
</g>
<g fill="none" color="black" stroke="currentColor" stroke-width="1.00" stroke-linecap="butt" stroke-linejoin="miter">
</g>
<g fill="none" color="black" stroke="black" stroke-width="0.50" stroke-linecap="butt" stroke-linejoin="miter">
</g>
<g fill="none" color="gray" stroke="currentColor" stroke-width="0.50" stroke-linecap="butt" stroke-linejoin="miter">
	<path stroke='gray' stroke-dasharray='2,4' class="gridline"  d='M367.1,422.4 L367.1,54.1  '/></g>
<g fill="none" color="gray" stroke="gray" stroke-width="1.00" stroke-linecap="butt" stroke-linejoin="miter">
</g>
<g fill="none" color="black" stroke="currentColor" stroke-width="1.00" stroke-linecap="butt" stroke-linejoin="miter">
	<path stroke='black'  d='M367.1,422.4 L367.1,413.4 M367.1,54.1 L367.1,63.1  '/>	<g transform="translate(367.1,444.3)" stroke="none" fill="black" font-family="Arial" font-size="12.00"  text-anchor="middle">
		<text><tspan font-family="Arial" > 1</tspan></text>
	</g>
</g>
<g fill="none" color="black" stroke="currentColor" stroke-width="1.00" stroke-linecap="butt" stroke-linejoin="miter">
</g>
<g fill="none" color="black" stroke="black" stroke-width="0.50" stroke-linecap="butt" stroke-linejoin="miter">
</g>
<g fill="none" color="gray" stroke="currentColor" stroke-width="0.50" stroke-linecap="butt" stroke-linejoin="miter">
	<path stroke='gray' stroke-dasharray='2,4' class="gridline"  d='M419.1,422.4 L419.1,54.1  '/></g>
<g fill="none" color="gray" stroke="gray" stroke-width="1.00" stroke-linecap="butt" stroke-linejoin="miter">
</g>
<g fill="none" color="black" stroke="currentColor" stroke-width="1.00" stroke-linecap="butt" stroke-linejoin="miter">
	<path stroke='black'  d='M419.1,422.4 L419.1,413.4 M419.1,54.1 L419.1,63.1  '/>	<g transform="translate(419.1,444.3)" stroke="none" fill="black" font-family="Arial" font-size="12.00"  text-anchor="middle">
		<text><tspan font-family="Arial" > 2</tspan></text>
	</g>
</g>
<g fill="none" color="black" stroke="currentColor" stroke-width="1.00" stroke-linecap="butt" stroke-linejoin="miter">
</g>
<g fill="none" color="black" stroke="black" stroke-width="0.50" stroke-linecap="butt" stroke-linejoin="miter">
</g>
<g fill="none" color="gray" stroke="currentColor" stroke-width="0.50" stroke-linecap="butt" stroke-linejoin="miter">
	<path stroke='gray' stroke-dasharray='2,4' class="gridline"  d='M471.1,422.4 L471.1,54.1  '/></g>
<g fill="none" color="gray" stroke="gray" stroke-width="1.00" stroke-linecap="butt" stroke-linejoin="miter">
</g>
<g fill="none" color="black" stroke="currentColor" stroke-width="1.00" stroke-linecap="butt" stroke-linejoin="miter">
	<path stroke='black'  d='M471.1,422.4 L471.1,413.4 M471.1,54.1 L471.1,63.1  '/>	<g transform="translate(471.1,444.3)" stroke="none" fill="black" font-family="Arial" font-size="12.00"  text-anchor="middle">
		<text><tspan font-family="Arial" > 3</tspan></text>
	</g>
</g>
<g fill="none" color="black" stroke="currentColor" stroke-width="1.00" stroke-linecap="butt" stroke-linejoin="miter">
</g>
<g fill="none" color="black" stroke="black" stroke-width="0.50" stroke-linecap="butt" stroke-linejoin="miter">
</g>
<g fill="none" color="gray" stroke="currentColor" stroke-width="0.50" stroke-linecap="butt" stroke-linejoin="miter">
	<path stroke='gray' stroke-dasharray='2,4' class="gridline"  d='M523.0,422.4 L523.0,54.1  '/></g>
<g fill="none" color="gray" stroke="gray" stroke-width="1.00" stroke-linecap="butt" stroke-linejoin="miter">
</g>
<g fill="none" color="black" stroke="currentColor" stroke-width="1.00" stroke-linecap="butt" stroke-linejoin="miter">
	<path stroke='black'  d='M523.0,422.4 L523.0,413.4 M523.0,54.1 L523.0,63.1  '/>	<g transform="translate(523.0,444.3)" stroke="none" fill="black" font-family="Arial" font-size="12.00"  text-anchor="middle">
		<text><tspan font-family="Arial" > 4</tspan></text>
	</g>
</g>
<g fill="none" color="black" stroke="currentColor" stroke-width="1.00" stroke-linecap="butt" stroke-linejoin="miter">
</g>
<g fill="none" color="black" stroke="black" stroke-width="0.50" stroke-linecap="butt" stroke-linejoin="miter">
</g>
<g fill="none" color="gray" stroke="currentColor" stroke-width="0.50" stroke-linecap="butt" stroke-linejoin="miter">
	<path stroke='gray' stroke-dasharray='2,4' class="gridline"  d='M575.0,422.4 L575.0,54.1  '/></g>
<g fill="none" color="gray" stroke="gray" stroke-width="1.00" stroke-linecap="butt" stroke-linejoin="miter">
</g>
<g fill="none" color="black" stroke="currentColor" stroke-width="1.00" stroke-linecap="butt" stroke-linejoin="miter">
	<path stroke='black'  d='M575.0,422.4 L575.0,413.4 M575.0,54.1 L575.0,63.1  '/>	<g transform="translate(575.0,444.3)" stroke="none" fill="black" font-family="Arial" font-size="12.00"  text-anchor="middle">
		<text><tspan font-family="Arial" > 5</tspan></text>
	</g>
</g>
<g fill="none" color="black" stroke="currentColor" stroke-width="1.00" stroke-linecap="butt" stroke-linejoin="miter">
</g>
<g fill="none" color="black" stroke="currentColor" stroke-width="1.00" stroke-linecap="butt" stroke-linejoin="miter">
	<path stroke='black'  d='M55.3,54.1 L55.3,422.4 L575.0,422.4 L575.0,54.1 L55.3,54.1 Z  '/></g>
<g fill="none" color="black" stroke="currentColor" stroke-width="1.00" stroke-linecap="butt" stroke-linejoin="miter">
	<g transform="translate(17.0,238.3) rotate(270)" stroke="none" fill="black" font-family="Arial" font-size="12.00"  text-anchor="middle">
		<text><tspan font-family="Arial" >y</tspan></text>
	</g>
</g>
<g fill="none" color="black" stroke="currentColor" stroke-width="1.00" stroke-linecap="butt" stroke-linejoin="miter">
	<g transform="translate(315.1,471.3)" stroke="none" fill="black" font-family="Arial" font-size="12.00"  text-anchor="middle">
		<text><tspan font-family="Arial" >x</tspan></text>
	</g>
</g>
<g fill="none" color="black" stroke="currentColor" stroke-width="1.00" stroke-linecap="butt" stroke-linejoin="miter">
	<g transform="translate(315.1,31.0)" stroke="none" fill="black" font-family="Arial" font-size="12.00"  text-anchor="middle">
		<text><tspan font-family="Arial" >equatorial motion of a planet around a star</tspan></text>
	</g>
</g>
	<g id="gnuplot_plot_1" ><title>gnuplot_plot_1</title>
<g fill="none" color="black" stroke="currentColor" stroke-width="1.00" stroke-linecap="butt" stroke-linejoin="miter">
	<path stroke='rgb(148,   0, 211)'  d='M315.2,106.7 L317.9,104.6 L320.8,102.4 L324.0,100.3 L327.4,98.0 L331.2,95.8 L335.2,93.6 L339.7,91.3
		L344.5,89.1 L349.7,86.8 L355.4,84.7 L361.7,82.5 L368.4,80.5 L375.8,78.6 L383.8,76.8 L392.5,75.3
		L401.8,74.1 L412.0,73.2 L422.9,72.8 L434.5,72.9 L446.8,73.7 L459.8,75.3 L473.2,77.9 L487.0,81.5
		L500.8,86.3 L514.3,92.3 L527.1,99.8 L538.7,108.5 L548.7,118.5 L556.6,129.7 L561.9,141.6 L564.5,154.1
		L564.0,166.7 L560.6,179.1 L554.5,190.8 L545.9,201.6 L535.4,211.3 L523.3,219.8 L510.3,226.8 L496.7,232.6
		L482.9,237.1 L469.3,240.4 L456.0,242.7 L443.3,244.2 L431.2,244.8 L419.8,244.9 L409.2,244.4 L399.3,243.4
		L390.1,242.2 L381.7,240.7 L373.9,238.9 L366.7,237.0 L360.1,235.0 L354.1,232.9 L348.5,230.8 L343.4,228.6
		L338.7,226.4 L334.4,224.2 L330.4,221.9 L326.7,219.8 L323.4,217.6 L320.2,215.4 L317.4,213.3 L314.7,211.2
		L312.3,209.2 L310.0,207.2 L307.9,205.2 L306.0,203.2 L304.2,201.3 L302.5,199.4 L301.0,197.6 L299.6,195.7
		L298.3,193.9 L297.1,192.2 L295.9,190.4 L294.9,188.7 L294.0,187.1 L293.1,185.4 L292.3,183.8 L291.6,182.1
		L290.9,180.5 L290.3,179.0 L289.7,177.4 L289.2,175.9 L288.8,174.3 L288.4,172.8 L288.0,171.3 L287.8,169.8
		L287.5,168.4 L287.3,166.9 L287.1,165.4 L287.0,164.0 L286.9,162.6 L286.9,161.1 L286.9,159.7 L287.0,158.3
		L287.1,156.8 L287.2,155.4 L287.3,154.0 L287.6,152.6 L287.8,151.1 L288.1,149.7 L288.4,148.3 L288.8,146.9
		L289.3,145.4 L289.7,144.0 L290.3,142.5 L290.8,141.1 L291.5,139.6 L292.1,138.2 L292.9,136.7 L293.7,135.2
		L294.5,133.7 L295.5,132.2 L296.5,130.7 L297.5,129.1 L298.7,127.6 L299.9,126.0 L301.3,124.4 L302.7,122.8
		L304.2,121.2 L305.8,119.6 L307.6,117.9 L309.5,116.3 L311.5,114.6 L313.6,112.9 L315.9,111.2 L318.4,109.5
		L321.1,107.7 L324.0,106.0 L327.1,104.3 L330.5,102.5 L334.1,100.8 L338.0,99.1 L342.2,97.4 L346.8,95.7
		L351.7,94.1 L357.1,92.6 L362.9,91.2 L369.2,89.9 L376.0,88.7 L383.3,87.7 L391.3,87.0 L399.8,86.5
		L409.1,86.4 L419.0,86.8 L429.6,87.6 L440.9,89.1 L452.9,91.3 L465.3,94.3 L478.2,98.3 L491.4,103.4
		L504.5,109.6 L517.3,117.0 L529.3,125.7 L540.2,135.6 L549.4,146.5 L556.6,158.4 L561.2,170.8 L563.0,183.5
		L561.8,196.1 L557.8,208.1 L551.0,219.3 L541.8,229.3 L530.6,238.0 L517.9,245.2 L504.3,250.9 L490.2,255.2
		L475.9,258.2 L461.8,260.0 L448.2,260.8 L435.1,260.8 L422.8,260.0 L411.2,258.7 L400.5,256.9 L390.6,254.8
		L381.4,252.4 L373.0,249.8 L365.3,247.0 L358.2,244.2 L351.8,241.3 L345.9,238.4 L340.5,235.6 L335.6,232.7
		L331.1,229.9 L327.0,227.1 L323.2,224.3 L319.8,221.6 L316.6,219.0 L313.7,216.4 L311.1,213.9 L308.7,211.5
		L306.4,209.1 L304.4,206.8 L302.5,204.5 L300.8,202.3 L299.3,200.1 L297.8,198.0 L296.5,196.0 L295.3,194.0
		L294.2,192.0 L293.2,190.1 L292.3,188.2 L291.5,186.4 L290.7,184.5 L290.1,182.8 L289.5,181.0 L288.9,179.3
		L288.5,177.6 L288.0,176.0 L287.7,174.4 L287.4,172.8 L287.1,171.2 L286.9,169.6 L286.8,168.1 L286.6,166.6
		L286.6,165.1 L286.6,163.6 L286.6,162.1 L286.6,160.6 L286.7,159.2 L286.9,157.8 L287.1,156.3 L287.3,154.9
		L287.5,153.5 L287.8,152.1 L288.2,150.7 L288.6,149.4 L289.0,148.0 L289.4,146.6 L290.0,145.2 L290.5,143.9
		L291.1,142.5 L291.8,141.2 L292.4,139.8 L293.2,138.4 L294.0,137.1 L294.8,135.7 L295.7,134.3 L296.7,133.0
		L297.7,131.6 L298.8,130.2 L300.0,128.9 L301.2,127.5 L302.6,126.1 L304.0,124.7 L305.4,123.3 L307.0,121.9
		L308.7,120.5 L310.5,119.1 L312.4,117.7 L314.5,116.3 L316.6,115.0 L318.9,113.6 L321.4,112.2 L324.1,110.8
		L326.9,109.4 L329.9,108.1 L333.1,106.8 L336.6,105.5 L340.3,104.3 L344.3,103.1 L348.6,101.9 L353.3,100.9
		L358.3,99.9 L363.6,99.1 L369.4,98.4 L375.7,97.9 L382.4,97.5 L389.6,97.5 L397.4,97.7 L405.8,98.3
		L414.8,99.3 L424.4,100.8 L434.6,102.8 L445.4,105.6 L456.8,109.1 L468.6,113.5 L480.8,118.8 L493.1,125.2
		L505.4,132.7 L517.3,141.4 L528.4,151.3 L538.4,162.2 L546.8,174.1 L553.0,186.6 L556.8,199.5 L557.9,212.4
		L556.1,225.0 L551.4,236.7 L544.0,247.3 L534.2,256.5 L522.5,264.1 L509.4,270.1 L495.3,274.4 L480.8,277.3
		L466.2,278.7 L451.9,279.0 L438.0,278.3 L424.9,276.7 L412.5,274.5 L400.9,271.7 L390.3,268.6 L380.4,265.2
		L371.4,261.6 L363.2,257.9 L355.7,254.2 L348.8,250.5 L342.6,246.7 L337.0,243.1 L331.8,239.4 L327.2,235.9
		L323.0,232.5 L319.2,229.1 L315.7,225.9 L312.5,222.7 L309.7,219.7 L307.0,216.7 L304.7,213.8 L302.5,211.0
		L300.6,208.4 L298.8,205.8 L297.2,203.2 L295.8,200.8 L294.5,198.4 L293.3,196.1 L292.2,193.9 L291.2,191.7
		L290.4,189.6 L289.6,187.5 L288.9,185.5 L288.3,183.6 L287.8,181.7 L287.4,179.8 L287.0,178.0 L286.6,176.2
		L286.4,174.5 L286.2,172.7 L286.0,171.1 L285.9,169.4 L285.8,167.8 L285.8,166.2 L285.8,164.7 L285.9,163.2
		L286.0,161.7 L286.2,160.2 L286.4,158.7 L286.6,157.3 L286.9,155.8 L287.2,154.4 L287.6,153.0 L288.0,151.7
		L288.4,150.3 L288.9,149.0 L289.4,147.6 L289.9,146.3 L290.5,145.0 L291.1,143.7 L291.8,142.4 L292.5,141.1
		L293.3,139.9 L294.1,138.6 L294.9,137.3 L295.8,136.1 L296.8,134.8 L297.8,133.6 L298.8,132.4 L300.0,131.1
		L301.1,129.9 L302.4,128.7 L303.7,127.5 L305.1,126.3 L306.5,125.1 L308.1,123.9 L309.7,122.7 L311.4,121.6
		L313.2,120.4 L315.2,119.2 L317.2,118.1 L319.4,117.0 L321.7,115.9 L324.1,114.8 L326.7,113.8 L329.4,112.8
		L332.3,111.8 L335.4,110.8 L338.7,109.9 L342.3,109.1 L346.0,108.4 L350.1,107.7 L354.4,107.1 L359.0,106.6
		L364.0,106.3 L369.3,106.1 L375.0,106.2 L381.1,106.4 L387.6,106.9 L394.7,107.7 L402.2,108.8 L410.2,110.4
		L418.8,112.4 L428.0,115.0 L437.6,118.2 L447.8,122.1 L458.5,126.8 L469.6,132.4 L480.9,139.0 L492.3,146.7
		L503.6,155.4 L514.5,165.3 L524.6,176.2 L533.5,188.1 L540.8,200.8 L546.1,214.0 L549.0,227.3 L549.3,240.4
		L546.8,252.9 L541.5,264.3 L533.5,274.3 L523.3,282.7 L511.2,289.3 L497.8,294.0 L483.4,297.0 L468.7,298.4
		L454.0,298.3 L439.6,297.0 L425.7,294.6 L412.6,291.5 L400.3,287.8 L389.0,283.7 L378.5,279.2 L368.9,274.6
		L360.2,269.8 L352.2,265.1 L345.1,260.3 L338.6,255.7 L332.7,251.1 L327.4,246.7 L322.6,242.4 L318.4,238.2
		L314.5,234.2 L311.0,230.3 L307.9,226.5 L305.1,222.9 L302.6,219.5 L300.3,216.2 L298.2,213.0 L296.4,209.9
		L294.8,206.9 L293.3,204.1 L292.0,201.3 L290.9,198.7 L289.8,196.1 L288.9,193.6 L288.1,191.2 L287.4,188.9
		L286.8,186.7 L286.3,184.5 L285.9,182.4 L285.5,180.4 L285.2,178.4 L285.0,176.5 L284.8,174.6 L284.7,172.8
		L284.6,171.0 L284.6,169.3 L284.7,167.6 L284.8,165.9 L284.9,164.3 L285.1,162.7 L285.3,161.2 L285.6,159.7
		L285.9,158.2 L286.2,156.7 L286.6,155.3 L287.0,153.9 L287.5,152.5 L287.9,151.2 L288.5,149.8 L289.0,148.5
		L289.6,147.2 L290.2,145.9 L290.9,144.7 L291.6,143.4 L292.3,142.2 L293.1,141.0 L293.9,139.8 L294.8,138.6
		L295.7,137.5 L296.7,136.3 L297.7,135.2 L298.7,134.0 L299.8,132.9 L300.9,131.8 L302.1,130.8 L303.4,129.7
		L304.7,128.6 L306.0,127.6 L307.5,126.6 L309.0,125.5 L310.6,124.6 L312.2,123.6 L314.0,122.6 L315.8,121.7
		L317.7,120.8 L319.7,119.9 L321.9,119.0 L324.1,118.2 L326.5,117.4 L329.0,116.7 L331.6,115.9 L334.4,115.3
		L337.4,114.7 L340.5,114.1 L343.9,113.7 L347.4,113.3 L351.2,113.0 L355.2,112.9 L359.4,112.8 L364.0,112.9
		L368.8,113.2 L374.0,113.7 L379.5,114.4 L385.4,115.4 L391.7,116.6 L398.4,118.2 L405.6,120.2 L413.2,122.7
		L421.3,125.7 L429.9,129.2 L438.9,133.5 L448.4,138.5 L458.2,144.3 L468.4,151.0 L478.7,158.7 L489.1,167.5
		L499.2,177.4 L508.9,188.3 L517.8,200.2 L525.6,212.9 L531.7,226.3 L536.0,240.0 L538.0,253.8 L537.4,267.0
		L534.1,279.4 L528.2,290.5 L519.7,300.0 L509.1,307.5 L496.8,313.1 L483.1,316.6 L468.7,318.3 L453.9,318.1
		L439.3,316.5 L425.0,313.6 L411.3,309.8 L398.4,305.1 L386.4,299.9 L375.4,294.4 L365.3,288.6 L356.1,282.7
		L347.8,276.8 L340.3,271.0 L333.6,265.3 L327.5,259.7 L322.1,254.4 L317.3,249.2 L313.0,244.2 L309.2,239.4
		L305.7,234.9 L302.7,230.5 L300.0,226.3 L297.6,222.3 L295.4,218.5 L293.5,214.8 L291.9,211.3 L290.4,208.0
		L289.1,204.8 L288.0,201.7 L287.0,198.8 L286.2,195.9 L285.4,193.2 L284.8,190.6 L284.3,188.1 L283.9,185.7
		L283.6,183.4 L283.3,181.1 L283.1,179.0 L283.0,176.9 L283.0,174.9 L283.0,172.9 L283.0,171.0 L283.2,169.2
		L283.3,167.4 L283.5,165.7 L283.8,164.0 L284.1,162.3 L284.4,160.7 L284.8,159.2 L285.2,157.7 L285.6,156.2
		L286.1,154.7 L286.6,153.3 L287.2,152.0 L287.8,150.6 L288.4,149.3 L289.0,148.0 L289.7,146.7 L290.4,145.5
		L291.2,144.3 L291.9,143.1 L292.8,141.9 L293.6,140.8 L294.5,139.7 L295.4,138.6 L296.4,137.5 L297.4,136.4
		L298.4,135.4 L299.5,134.4 L300.6,133.4 L301.8,132.4 L303.0,131.4 L304.2,130.5 L305.5,129.6 L306.9,128.7
		L308.3,127.8 L309.8,126.9 L311.3,126.1 L312.9,125.3 L314.6,124.5 L316.3,123.7 L318.2,123.0 L320.1,122.3
		L322.1,121.7 L324.2,121.0 L326.4,120.5 L328.7,119.9 L331.1,119.4 L333.6,119.0 L336.3,118.6 L339.1,118.3
		L342.1,118.1 L345.2,118.0 L348.5,117.9 L352.0,118.0 L355.7,118.2 L359.6,118.5 L363.7,119.0 L368.1,119.7
		L372.8,120.5 L377.8,121.6 L383.1,122.9 L388.7,124.6 L394.6,126.6 L401.0,128.9 L407.7,131.7 L414.8,135.0
		L422.3,138.8 L430.2,143.3 L438.4,148.5 L447.1,154.4 L456.0,161.2 L465.1,168.9 L474.3,177.7 L483.5,187.4
		L492.4,198.2 L500.8,210.0 L508.4,222.7 L514.9,236.2 L519.8,250.2 L522.9,264.4 L523.8,278.4 L522.3,291.8
		L518.3,304.1 L511.7,314.8 L502.9,323.8 L491.9,330.6 L479.4,335.1 L465.7,337.5 L451.3,337.8 L436.6,336.3
		L422.2,333.1 L408.2,328.7 L394.9,323.3 L382.4,317.1 L370.9,310.5 L360.4,303.6 L350.8,296.5 L342.2,289.4
		L334.5,282.4 L327.5,275.6 L321.4,269.0 L315.9,262.6 L311.1,256.4 L306.8,250.5 L303.0,244.9 L299.7,239.6
		L296.8,234.5 L294.2,229.7 L292.0,225.1 L290.0,220.7 L288.3,216.6 L286.9,212.7 L285.6,208.9 L284.6,205.3
		L283.6,201.9 L282.9,198.7 L282.3,195.6 L281.8,192.7 L281.4,189.8 L281.1,187.1 L280.9,184.5 L280.7,182.1
		L280.7,179.7 L280.7,177.4 L280.8,175.2 L280.9,173.1 L281.1,171.1 L281.4,169.1 L281.7,167.2 L282.0,165.4
		L282.4,163.6 L282.8,161.9 L283.3,160.2 L283.8,158.6 L284.3,157.1 L284.9,155.6 L285.5,154.1 L286.1,152.7
		L286.8,151.3 L287.4,150.0 L288.2,148.7 L288.9,147.4 L289.7,146.2 L290.5,145.0 L291.3,143.8 L292.2,142.7
		L293.1,141.5 L294.0,140.5 L294.9,139.4 L295.9,138.4 L296.9,137.4 L298.0,136.4 L299.0,135.5 L300.2,134.5
		L301.3,133.6 L302.5,132.8 L303.7,131.9 L305.0,131.1 L306.3,130.3 L307.7,129.5 L309.1,128.8 L310.5,128.0
		L312.0,127.4 L313.6,126.7 L315.2,126.1 L316.9,125.5 L318.6,124.9 L320.4,124.4 L322.3,123.9 L324.2,123.5
		L326.3,123.1 L328.4,122.7 L330.6,122.4 L332.9,122.2 L335.3,122.0 L337.9,121.9 L340.5,121.8 L343.3,121.9
		L346.2,122.0 L349.3,122.3 L352.5,122.6 L355.9,123.1 L359.5,123.8 L363.3,124.6 L367.3,125.5 L371.5,126.7
		L375.9,128.1 L380.6,129.7 L385.6,131.7 L390.8,134.0 L396.4,136.6 L402.2,139.6 L408.4,143.1 L414.9,147.2
		L421.7,151.8 L428.8,157.0 L436.3,163.0 L444.0,169.8 L451.9,177.4 L459.9,186.0 L467.9,195.6 L475.8,206.1
		L483.4,217.7 L490.4,230.2 L496.6,243.6 L501.7,257.7 L505.3,272.1 L507.1,286.7 L506.9,300.9 L504.4,314.3
		L499.6,326.5 L492.4,336.9 L483.1,345.3 L471.9,351.3 L459.2,355.0 L445.6,356.2 L431.3,355.3 L417.0,352.3
		L402.9,347.8 L389.4,341.9 L376.7,335.0 L364.8,327.4 L353.9,319.3 L344.1,311.1 L335.2,302.8 L327.3,294.5
		L320.3,286.5 L314.1,278.7 L308.6,271.2 L303.8,264.0 L299.6,257.2 L296.0,250.7 L292.8,244.5 L290.1,238.7
		L287.8,233.1 L285.8,227.9 L284.1,223.0 L282.6,218.3 L281.4,213.9 L280.4,209.7 L279.6,205.7 L279.0,202.0
		L278.5,198.5 L278.1,195.1 L277.9,191.9 L277.7,188.8 L277.7,185.9 L277.7,183.2 L277.8,180.5 L278.0,178.0
		L278.2,175.6 L278.5,173.3 L278.9,171.1 L279.3,169.0 L279.8,167.0 L280.2,165.1 L280.8,163.2 L281.3,161.4
		L281.9,159.7 L282.6,158.1 L283.2,156.5 L283.9,154.9 L284.6,153.4 L285.4,152.0 L286.2,150.6 L287.0,149.3
		L287.8,148.0 L288.6,146.7 L289.5,145.5 L290.4,144.4 L291.3,143.2 L292.3,142.1 L293.2,141.1 L294.2,140.0
		L295.2,139.1 L296.3,138.1 L297.4,137.2 L298.5,136.3 L299.6,135.4 L300.7,134.6 L301.9,133.8 L303.1,133.0
		L304.4,132.2 L305.7,131.5 L307.0,130.8 L308.3,130.2 L309.7,129.5 L311.2,128.9 L312.6,128.4 L314.1,127.9
		L315.7,127.4 L317.3,126.9 L319.0,126.5 L320.7,126.1 L322.5,125.8 L324.3,125.5 L326.2,125.2 L328.2,125.0
		L330.2,124.9 L332.4,124.8 L334.6,124.8 L336.9,124.8 L339.3,125.0 L341.8,125.2 L344.3,125.5 L347.1,125.9
		L349.9,126.4 L352.9,127.0 L356.0,127.7 L359.2,128.6 L362.6,129.7 L366.2,130.9 L370.0,132.3 L373.9,134.0
		L378.1,135.9 L382.4,138.0 L387.0,140.5 L391.8,143.3 L396.9,146.6 L402.2,150.2 L407.8,154.3 L413.6,159.0
		L419.7,164.3 L426.0,170.2 L432.6,176.9 L439.3,184.4 L446.1,192.7 L452.9,202.0 L459.7,212.2 L466.2,223.4
		L472.4,235.6 L477.9,248.7 L482.6,262.6 L486.2,277.0 L488.4,291.8 L489.0,306.6 L487.6,320.9 L484.1,334.3
		L478.4,346.3 L470.6,356.3 L460.8,364.2 L449.4,369.5 L436.7,372.3 L423.1,372.5 L409.2,370.3 L395.3,366.1
		L381.7,360.1 L368.8,352.8 L356.8,344.5 L345.7,335.6 L335.7,326.2 L326.7,316.7 L318.6,307.3 L311.6,298.0
		L305.4,288.9 L300.0,280.3 L295.4,271.9 L291.4,264.1 L287.9,256.6 L285.0,249.5 L282.6,242.8 L280.5,236.6
		L278.8,230.6 L277.4,225.1 L276.3,219.9 L275.4,214.9 L274.7,210.3 L274.3,206.0 L273.9,201.9 L273.7,198.0
		L273.7,194.3 L273.7,190.9 L273.9,187.6 L274.1,184.5 L274.4,181.6 L274.8,178.8 L275.2,176.2 L275.7,173.7
		L276.2,171.3 L276.8,169.0 L277.5,166.9 L278.1,164.8 L278.8,162.8 L279.6,160.9 L280.3,159.1 L281.1,157.4
		L281.9,155.8 L282.7,154.2 L283.6,152.7 L284.5,151.2 L285.4,149.8 L286.3,148.5 L287.3,147.2 L288.2,146.0
		L289.2,144.8 L290.2,143.6 L291.2,142.6 L292.2,141.5 L293.3,140.5 L294.4,139.5 L295.5,138.6 L296.6,137.7
		L297.7,136.8 L298.9,136.0 L300.0,135.2 L301.2,134.5 L302.5,133.7 L303.7,133.1 L305.0,132.4 L306.3,131.8
		L307.6,131.2 L309.0,130.7 L310.3,130.1 L311.8,129.7 L313.2,129.2 L314.7,128.8 L316.2,128.4 L317.8,128.1
		L319.4,127.8 L321.0,127.6 L322.7,127.4 L324.4,127.2 L326.2,127.1 L328.1,127.0 L330.0,127.0 L331.9,127.1
		L333.9,127.2 L336.0,127.4 L338.2,127.6 L340.4,127.9 L342.8,128.4 L345.2,128.9 L347.7,129.5 L350.3,130.2
		L353.0,131.0 L355.8,132.0 L358.8,133.1 L361.8,134.4 L365.0,135.8 L368.4,137.4 L371.8,139.3 L375.5,141.3
		L379.3,143.7 L383.3,146.3 L387.4,149.3 L391.8,152.6 L396.3,156.3 L401.1,160.5 L406.0,165.2 L411.1,170.4
		L416.4,176.3 L421.8,182.8 L427.4,190.0 L433.0,198.0 L438.7,206.9 L444.3,216.7 L449.7,227.5 L454.9,239.1
		L459.6,251.8 L463.6,265.2 L466.8,279.4 L468.9,294.1 L469.6,309.1 L468.8,323.9 L466.1,338.2 L461.5,351.4
		L455.0,363.1 L446.5,372.8 L436.3,380.1 L424.7,384.8 L412.0,386.7 L398.6,385.9 L385.1,382.6 L371.7,377.2
		L358.9,370.0 L346.8,361.4 L335.6,351.8 L325.4,341.5 L316.3,331.0 L308.3,320.3 L301.3,309.8 L295.2,299.5
		L290.0,289.6 L285.6,280.1 L281.8,271.1 L278.7,262.6 L276.2,254.6 L274.1,247.0 L272.4,239.9 L271.1,233.3
		L270.1,227.1 L269.3,221.3 L268.8,215.8 L268.5,210.7 L268.4,205.9 L268.5,201.4 L268.6,197.2 L268.9,193.3
		L269.3,189.6 L269.8,186.1 L270.3,182.8 L270.9,179.7 L271.6,176.8 L272.3,174.1 L273.1,171.5 L273.9,169.0
		L274.7,166.7 L275.6,164.5 L276.5,162.4 L277.4,160.4 L278.4,158.5 L279.3,156.7 L280.3,155.0 L281.3,153.4
		L282.3,151.8 L283.4,150.4 L284.4,148.9 L285.5,147.6 L286.5,146.3 L287.6,145.1 L288.7,143.9 L289.8,142.8
		L291.0,141.8 L292.1,140.8 L293.2,139.8 L294.4,138.9 L295.6,138.0 L296.8,137.2 L298.0,136.4 L299.2,135.6
		L300.4,134.9 L301.7,134.2 L302.9,133.6 L304.2,133.0 L305.5,132.4 L306.8,131.9 L308.2,131.4 L309.5,131.0
		L310.9,130.6 L312.3,130.2 L313.7,129.9 L315.2,129.6 L316.7,129.3 L318.2,129.1 L319.7,128.9 L321.3,128.8
		L322.9,128.7 L324.6,128.6 L326.3,128.6 L328.0,128.7 L329.8,128.8 L331.6,129.0 L333.4,129.2 L335.4,129.5
		L337.3,129.9 L339.4,130.3 L341.5,130.8 L343.6,131.4 L345.8,132.1 L348.1,132.9 L350.5,133.8 L353.0,134.8
		L355.5,136.0 L358.2,137.2 L360.9,138.7 L363.7,140.3 L366.7,142.1 L369.7,144.1 L372.9,146.3 L376.2,148.8
		L379.6,151.5 L383.2,154.5 L386.9,157.9 L390.7,161.7 L394.7,165.8 L398.8,170.4 L403.0,175.6 L407.4,181.2
		L411.8,187.5 L416.3,194.5 L420.9,202.1 L425.4,210.6 L429.9,219.9 L434.2,230.1 L438.3,241.1 L442.1,253.1
		L445.3,266.0 L447.8,279.6 L449.4,293.9 L450.0,308.7 L449.2,323.7 L446.9,338.4 L443.0,352.5 L437.3,365.5
		L429.8,376.9 L420.7,386.1 L410.0,392.8 L398.2,396.8 L385.5,397.9 L372.5,396.2 L359.4,392.0 L346.7,385.4
		L334.6,377.1 L323.4,367.3 L313.3,356.5 L304.2,345.1 L296.2,333.4 L289.3,321.8 L283.4,310.3 L278.4,299.1
		L274.3,288.5 L271.0,278.3 L268.2,268.7 L266.1,259.6 L264.5,251.1 L263.2,243.2 L262.4,235.8 L261.9,228.9
		L261.6,222.4 L261.6,216.4 L261.7,210.8 L262.1,205.6 L262.5,200.8 L263.1,196.2 L263.8,192.0 L264.6,188.0
		L265.4,184.3 L266.4,180.9 L267.3,177.6 L268.3,174.6 L269.3,171.7 L270.4,169.0 L271.5,166.5 L272.6,164.1
		L273.8,161.9 L274.9,159.8 L276.1,157.8 L277.2,155.9 L278.4,154.1 L279.6,152.4 L280.8,150.9 L282.0,149.4
		L283.2,147.9 L284.4,146.6 L285.6,145.3 L286.9,144.1 L288.1,143.0 L289.3,141.9 L290.6,140.8 L291.8,139.9
		L293.1,139.0 L294.3,138.1 L295.6,137.3 L296.9,136.5 L298.1,135.8 L299.4,135.1 L300.7,134.5 L302.0,133.9
		L303.3,133.3 L304.6,132.8 L306.0,132.3 L307.3,131.9 L308.7,131.5 L310.0,131.1 L311.4,130.8 L312.8,130.6
		L314.2,130.3 L315.7,130.1 L317.1,130.0 L318.6,129.9 L320.1,129.8 L321.6,129.8 L323.2,129.8 L324.7,129.8
		L326.3,129.9 L328.0,130.1 L329.6,130.3 L331.3,130.6 L333.1,130.9 L334.8,131.3 L336.6,131.8 L338.5,132.3
		L340.4,132.9 L342.3,133.6 L344.3,134.3 L346.4,135.2 L348.4,136.1 L350.6,137.2 L352.8,138.4 L355.1,139.7
		L357.5,141.1 L359.9,142.7 L362.4,144.4 L364.9,146.3 L367.6,148.4 L370.3,150.7 L373.2,153.3 L376.1,156.1
		L379.1,159.2 L382.2,162.5 L385.4,166.3 L388.7,170.4 L392.0,174.9 L395.5,179.9 L399.0,185.3 L402.5,191.3
		L406.1,198.0 L409.7,205.2 L413.2,213.2 L416.6,221.9 L419.9,231.5 L423.0,241.9 L425.7,253.1 L428.0,265.2
		L429.7,278.1 L430.7,291.8 L430.8,306.0 L429.8,320.7 L427.5,335.4 L423.8,349.9 L418.6,363.7 L411.8,376.3
		L403.4,387.2 L393.5,396.0 L382.4,402.1 L370.4,405.4 L357.8,405.8 L345.0,403.3 L332.5,398.1 L320.5,390.6
		L309.3,381.1 L299.2,370.3 L290.1,358.5 L282.2,346.1 L275.5,333.5 L269.9,320.9 L265.2,308.6 L261.5,296.7
		L258.6,285.4 L256.3,274.7 L254.7,264.6 L253.6,255.1 L253.0,246.3 L252.7,238.0 L252.8,230.4 L253.1,223.3
		L253.6,216.7 L254.3,210.6 L255.2,204.9 L256.1,199.7 L257.2,194.8 L258.4,190.3 L259.6,186.1 L260.9,182.2
		L262.2,178.6 L263.5,175.2 L264.9,172.0 L266.3,169.1 L267.7,166.3 L269.1,163.7 L270.5,161.3 L271.9,159.1
		L273.3,157.0 L274.7,155.0 L276.2,153.1 L277.6,151.4 L279.0,149.7 L280.4,148.2 L281.8,146.8 L283.2,145.4
		L284.5,144.1 L285.9,142.9 L287.3,141.8 L288.7,140.8 L290.0,139.8 L291.4,138.8 L292.8,138.0 L294.1,137.2
		L295.5,136.4 L296.8,135.7 L298.2,135.0 L299.6,134.4 L300.9,133.9 L302.3,133.4 L303.6,132.9 L305.0,132.5
		L306.4,132.1 L307.8,131.7 L309.1,131.4 L310.5,131.2 L311.9,130.9 L313.3,130.8 L314.7,130.6 L316.1,130.5
		L317.6,130.5 L319.0,130.4 L320.5,130.5 L322.0,130.5 L323.4,130.7 L325.0,130.8 L326.5,131.0 L328.0,131.3
		L329.6,131.6 L331.2,132.0 L332.8,132.4 L334.4,132.9 L336.1,133.4 L337.8,134.0 L339.5,134.7 L341.2,135.4
		L343.0,136.2 L344.9,137.1 L346.7,138.1 L348.6,139.2 L350.6,140.4 L352.5,141.7 L354.6,143.1 L356.6,144.7
		L358.8,146.4 L360.9,148.2 L363.2,150.2 L365.5,152.4 L367.8,154.7 L370.2,157.3 L372.6,160.2 L375.1,163.2
		L377.7,166.6 L380.3,170.3 L383.0,174.3 L385.7,178.6 L388.4,183.4 L391.2,188.7 L393.9,194.4 L396.6,200.6
		L399.3,207.5 L402.0,214.9 L404.5,223.1 L406.8,232.0 L408.9,241.6 L410.7,252.0 L412.1,263.3 L413.0,275.3
		L413.2,288.1 L412.7,301.6 L411.2,315.6 L408.7,330.0 L404.9,344.3 L399.8,358.4 L393.3,371.7 L385.4,383.8
		L376.0,394.2 L365.5,402.3 L353.9,407.8 L341.7,410.5 L329.2,410.1 L316.8,406.8 L304.8,400.8 L293.6,392.4
		L283.4,382.1 L274.3,370.4 L266.5,357.6 L259.9,344.4 L254.5,331.0 L250.2,317.7 L247.0,304.7 L244.6,292.2
		L242.9,280.4 L241.9,269.2 L241.5,258.8 L241.5,249.0 L241.9,240.0 L242.7,231.6 L243.6,223.8 L244.8,216.6
		L246.2,210.0 L247.6,203.9 L249.2,198.2 L250.8,193.0 L252.5,188.2 L254.2,183.8 L256.0,179.7 L257.8,175.9
		L259.5,172.4 L261.3,169.1 L263.1,166.1 L264.9,163.3 L266.6,160.7 L268.3,158.3 L270.1,156.0 L271.8,153.9
		L273.5,152.0 L275.1,150.2 L276.8,148.5 L278.4,146.9 L280.0,145.4 L281.6,144.1 L283.2,142.8 L284.8,141.6
		L286.3,140.5 L287.8,139.5 L289.4,138.5 L290.9,137.6 L292.3,136.8 L293.8,136.1 L295.3,135.4 L296.7,134.7
		L298.2,134.1 L299.6,133.6 L301.1,133.1 L302.5,132.7 L303.9,132.3 L305.3,132.0 L306.7,131.7 L308.2,131.4
		L309.6,131.2 L311.0,131.0 L312.4,130.9 L313.8,130.8 L315.2,130.8 L316.6,130.8 L318.0,130.8 L319.4,130.9
		L320.9,131.0 L322.3,131.2 L323.7,131.4 L325.2,131.6 L326.7,131.9 L328.1,132.3 L329.6,132.7 L331.1,133.1
		L332.6,133.6 L334.1,134.2 L335.7,134.8 L337.2,135.4 L338.8,136.2 L340.4,137.0 L342.0,137.9 L343.6,138.8
		L345.3,139.8 L346.9,140.9 L348.7,142.1 L350.4,143.4 L352.1,144.8 L353.9,146.4 L355.7,148.0 L357.6,149.8
		L359.5,151.7 L361.4,153.7 L363.3,156.0 L365.3,158.4 L367.3,161.0 L369.3,163.8 L371.3,166.8 L373.4,170.1
		L375.5,173.7 L377.6,177.6 L379.7,181.8 L381.8,186.4 L383.9,191.3 L386.0,196.7 L388.0,202.6 L389.9,209.0
		L391.7,216.0 L393.4,223.5 L394.9,231.7 L396.1,240.6 L397.1,250.2 L397.6,260.5 L397.7,271.6 L397.2,283.5
		L396.0,296.0 L394.0,309.1 L391.1,322.7 L387.0,336.5 L381.8,350.3 L375.4,363.8 L367.6,376.5 L358.5,387.9
		L348.3,397.6 L337.0,405.0 L325.0,409.9 L312.6,411.8 L300.2,410.8 L288.1,406.8 L276.7,400.0 L266.4,390.9
		L257.2,379.8 L249.3,367.3 L242.8,353.9 L237.6,339.9 L233.6,325.9 L230.8,312.0 L228.9,298.5 L227.9,285.6
		L227.6,273.4 L228.0,262.0 L228.8,251.3 L230.0,241.4 L231.5,232.2 L233.2,223.8 L235.2,216.0 L237.2,208.9
		L239.4,202.3 L241.6,196.3 L243.9,190.7 L246.2,185.6 L248.5,181.0 L250.8,176.7 L253.1,172.8 L255.4,169.1
		L257.6,165.8 L259.8,162.7 L262.0,159.9 L264.1,157.3 L266.2,154.9 L268.2,152.7 L270.3,150.6 L272.2,148.7
		L274.2,147.0 L276.1,145.4 L277.9,143.9 L279.8,142.5 L281.6,141.2 L283.3,140.1 L285.1,139.0 L286.8,138.0
		L288.5,137.1 L290.1,136.2 L291.8,135.5 L293.4,134.8 L295.0,134.2 L296.6,133.6 L298.1,133.1 L299.6,132.6
		L301.2,132.2 L302.7,131.9 L304.1,131.6 L305.6,131.3 L307.1,131.1 L308.5,130.9 L310.0,130.8 L311.4,130.7
		L312.8,130.7 L314.3,130.7 L315.7,130.8 L317.1,130.8 L318.5,131.0 L319.9,131.1 L321.3,131.4 L322.7,131.6
		L324.1,131.9 L325.5,132.3 L326.9,132.6 L328.3,133.1 L329.7,133.5 L331.1,134.1 L332.5,134.6 L333.9,135.3
		L335.3,135.9 L336.8,136.7 L338.2,137.5 L339.7,138.3 L341.1,139.2 L342.6,140.2 L344.1,141.3 L345.6,142.4
		L347.1,143.6 L348.6,144.9 L350.1,146.3 L351.7,147.8 L353.2,149.4 L354.8,151.1 L356.4,152.9 L357.9,154.9
		L359.6,157.0 L361.2,159.2 L362.8,161.6 L364.4,164.2 L366.1,167.0 L367.7,170.0 L369.3,173.2 L371.0,176.7
		L372.6,180.4 L374.2,184.4 L375.7,188.8 L377.2,193.5 L378.7,198.6 L380.0,204.0 L381.3,210.0 L382.4,216.4
		L383.3,223.4 L384.1,230.9 L384.6,239.0 L384.8,247.8 L384.6,257.2 L383.9,267.3 L382.8,278.1 L381.0,289.5
		L378.4,301.6 L375.0,314.2 L370.6,327.1 L365.2,340.3 L358.6,353.4 L350.8,366.1 L341.8,378.0 L331.7,388.6
		L320.6,397.5 L308.6,404.1 L296.2,408.3 L283.6,409.5 L271.3,407.8 L259.5,403.1 L248.8,395.7 L239.2,385.9
		L231.1,374.2 L224.5,361.1 L219.3,347.1 L215.5,332.7 L213.1,318.1 L211.7,303.9 L211.4,290.1 L211.8,276.9
		L213.0,264.5 L214.6,253.0 L216.7,242.2 L219.1,232.3 L221.8,223.2 L224.6,214.8 L227.5,207.1 L230.4,200.1
		L233.5,193.7 L236.5,187.8 L239.5,182.5 L242.4,177.6 L245.3,173.2 L248.2,169.1 L251.0,165.4 L253.7,162.1
		L256.4,159.0 L259.0,156.1 L261.5,153.5 L264.0,151.2 L266.4,149.0 L268.8,147.0 L271.1,145.2 L273.3,143.6
		L275.5,142.0 L277.6,140.7 L279.6,139.4 L281.6,138.2 L283.6,137.2 L285.5,136.2 L287.4,135.4 L289.3,134.6
		L291.1,133.9 L292.8,133.3 L294.6,132.7 L296.3,132.2 L297.9,131.8 L299.6,131.4 L301.2,131.1 L302.8,130.8
		L304.3,130.6 L305.9,130.5 L307.4,130.4 L308.9,130.3 L310.4,130.3 L311.8,130.3 L313.3,130.3 L314.7,130.4
		L316.2,130.6 L317.6,130.8 L319.0,131.0 L320.4,131.3 L321.7,131.6 L323.1,131.9 L324.5,132.3 L325.8,132.7
		L327.2,133.2 L328.5,133.7 L329.8,134.3 L331.2,134.9 L332.5,135.5 L333.8,136.2 L335.2,136.9 L336.5,137.7
		L337.8,138.6 L339.1,139.5 L340.5,140.4 L341.8,141.5 L343.1,142.5 L344.4,143.7 L345.8,144.9 L347.1,146.2
		L348.4,147.6 L349.7,149.1 L351.1,150.6 L352.4,152.3 L353.7,154.0 L355.1,155.9 L356.4,157.9 L357.7,160.0
		L359.0,162.2 L360.3,164.6 L361.6,167.1 L362.9,169.9 L364.2,172.8 L365.4,175.9 L366.6,179.2 L367.8,182.8
		L368.9,186.6 L370.0,190.7 L371.0,195.1 L371.9,199.9 L372.7,205.0 L373.4,210.5 L373.9,216.4 L374.3,222.8
		L374.4,229.6 L374.2,237.0 L373.8,244.9 L372.9,253.4 L371.7,262.5 L369.9,272.3 L367.5,282.6 L364.5,293.5
		L360.6,305.0 L355.9,316.9 L350.2,329.1 L343.5,341.4 L335.6,353.6 L326.6,365.4 L316.5,376.3 L305.3,386.0
		L293.3,393.9 L280.8,399.7 L267.9,403.0 L255.1,403.5 L242.9,401.1 L231.5,395.8 L221.4,387.8 L212.7,377.5
		L205.6,365.3 L200.2,351.8 L196.4,337.4 L194.1,322.6 L193.2,307.8 L193.4,293.3 L194.6,279.4 L196.5,266.1
		L199.1,253.7 L202.2,242.2 L205.6,231.5 L209.2,221.8 L213.0,212.8 L216.8,204.6 L220.7,197.2 L224.6,190.4
		L228.4,184.3 L232.2,178.7 L235.9,173.7 L239.5,169.1 L243.0,165.0 L246.4,161.2 L249.7,157.8 L252.9,154.7
		L256.0,151.9 L259.0,149.4 L261.9,147.1 L264.7,145.0 L267.4,143.1 L270.0,141.4 L272.5,139.9 L274.9,138.5
		L277.3,137.2 L279.6,136.1 L281.8,135.1 L284.0,134.2 L286.1,133.4 L288.2,132.7 L290.2,132.1 L292.1,131.5
		L294.0,131.0 L295.8,130.6 L297.6,130.3 L299.4,130.0 L301.1,129.8 L302.8,129.6 L304.5,129.5 L306.1,129.4
		L307.7,129.4 L309.2,129.5 L310.8,129.5 L312.3,129.7 L313.8,129.8 L315.2,130.0 L316.7,130.3 L318.1,130.5
		L319.5,130.9 L320.8,131.2 L322.2,131.6 L323.5,132.1 L324.9,132.5 L326.2,133.0 L327.5,133.6 L328.8,134.2
		L330.1,134.8 L331.3,135.5 L332.6,136.2 L333.8,137.0 L335.1,137.8 L336.3,138.6 L337.5,139.5 L338.7,140.5
		L339.9,141.5 L341.1,142.5 L342.3,143.6 L343.5,144.8 L344.7,146.0 L345.8,147.3 L347.0,148.7 L348.1,150.1
		L349.3,151.7 L350.4,153.3 L351.5,154.9 L352.6,156.7 L353.7,158.6 L354.8,160.6 L355.9,162.7 L356.9,164.9
		L357.9,167.3 L358.9,169.8 L359.9,172.4 L360.8,175.2 L361.7,178.2 L362.6,181.4 L363.3,184.8 L364.1,188.4
		L364.7,192.3 L365.3,196.4 L365.7,200.8 L366.0,205.6 L366.2,210.6 L366.2,216.0 L366.0,221.8 L365.6,228.0
		L364.9,234.7 L363.9,241.8 L362.6,249.4 L360.8,257.6 L358.5,266.3 L355.7,275.5 L352.2,285.2 L348.0,295.5
		L343.0,306.2 L337.0,317.3 L330.1,328.6 L322.2,339.9 L313.1,351.1 L303.0,361.8 L291.9,371.6 L279.8,380.2
		L267.1,387.1 L253.9,391.9 L240.6,394.3 L227.7,394.0 L215.6,390.9 L204.6,384.9 L195.0,376.4 L187.2,365.7
		L181.2,353.2 L177.0,339.3 L174.6,324.7 L173.8,309.7 L174.3,294.9 L176.1,280.4 L178.8,266.5 L182.3,253.4
		L186.4,241.1 L190.8,229.8 L195.5,219.4 L200.3,209.9 L205.2,201.2 L210.2,193.4 L215.0,186.3 L219.8,179.9
		L224.4,174.2 L229.0,169.0 L233.3,164.3 L237.6,160.1 L241.6,156.4 L245.5,153.0 L249.3,149.9 L252.9,147.2
		L256.4,144.8 L259.7,142.6 L262.9,140.6 L266.0,138.9 L269.0,137.3 L271.8,135.9 L274.5,134.7 L277.2,133.6
		L279.7,132.6 L282.2,131.8 L284.6,131.1 L286.9,130.4 L289.1,129.9 L291.2,129.4 L293.3,129.0 L295.3,128.7
		L297.3,128.5 L299.2,128.3 L301.0,128.2 L302.8,128.2 L304.6,128.1 L306.3,128.2 L307.9,128.3 L309.6,128.4
		L311.2,128.6 L312.7,128.8 L314.2,129.1 L315.7,129.4 L317.2,129.8 L318.6,130.1 L320.0,130.6 L321.4,131.0
		L322.7,131.5 L324.0,132.1 L325.4,132.6 L326.6,133.2 L327.9,133.9 L329.1,134.5 L330.4,135.2 L331.6,136.0
		L332.8,136.8 L333.9,137.6 L335.1,138.5 L336.2,139.4 L337.4,140.3 L338.5,141.3 L339.6,142.4 L340.6,143.4
		L341.7,144.6 L342.8,145.8 L343.8,147.0 L344.8,148.3 L345.8,149.7 L346.8,151.1 L347.8,152.6 L348.7,154.1
		L349.7,155.8 L350.6,157.5 L351.5,159.3 L352.4,161.1 L353.2,163.1 L354.0,165.2 L354.8,167.4 L355.6,169.7
		L356.3,172.1 L357.0,174.7 L357.6,177.4 L358.2,180.3 L358.7,183.3 L359.1,186.5 L359.5,189.9 L359.7,193.5
		L359.9,197.4 L360.0,201.4 L359.9,205.8 L359.6,210.4 L359.2,215.3 L358.6,220.6 L357.7,226.2 L356.6,232.2
		L355.1,238.5 L353.3,245.3 L351.1,252.6 L348.5,260.2 L345.3,268.4 L341.5,277.0 L337.0,286.1 L331.7,295.5
		L325.6,305.4 L318.6,315.5 L310.6,325.8 L301.6,336.0 L291.5,346.0 L280.4,355.4 L268.4,364.0 L255.5,371.4
		L242.1,377.2 L228.4,380.9 L214.8,382.3 L201.8,381.1 L189.8,377.3 L179.1,370.8 L170.1,361.8 L163.1,350.7
		L158.1,337.9 L155.2,323.9 L154.1,309.2 L154.7,294.3 L156.9,279.5 L160.2,265.1 L164.4,251.5 L169.4,238.7
		L174.9,226.8 L180.7,215.8 L186.7,205.8 L192.7,196.8 L198.8,188.6 L204.7,181.2 L210.5,174.6 L216.1,168.7
		L221.6,163.4 L226.8,158.7 L231.8,154.5 L236.6,150.8 L241.2,147.5 L245.6,144.6 L249.8,142.0 L253.8,139.7
		L257.6,137.6 L261.2,135.8 L264.7,134.3 L268.1,132.9 L271.2,131.7 L274.3,130.6 L277.2,129.7 L280.0,129.0
		L282.7,128.3 L285.3,127.8 L287.7,127.3 L290.1,127.0 L292.4,126.7 L294.6,126.5 L296.8,126.4 L298.8,126.3
		L300.8,126.4 L302.8,126.4 L304.6,126.5 L306.4,126.7 L308.2,126.9 L309.9,127.2 L311.5,127.5 L313.2,127.8
		L314.7,128.2 L316.2,128.6 L317.7,129.1 L319.2,129.6 L320.6,130.1 L322.0,130.7 L323.3,131.3 L324.6,131.9
		L325.9,132.6 L327.1,133.3 L328.4,134.0 L329.6,134.7 L330.7,135.5 L331.9,136.4 L333.0,137.2 L334.1,138.1
		L335.2,139.0 L336.3,140.0 L337.3,141.0 L338.3,142.0 L339.3,143.1 L340.3,144.2 L341.3,145.4 L342.2,146.6
		L343.1,147.9 L344.0,149.2 L344.9,150.5 L345.7,151.9 L346.6,153.4 L347.4,154.9 L348.1,156.5 L348.9,158.1
		L349.6,159.9 L350.3,161.6 L351.0,163.5 L351.6,165.5 L352.2,167.5 L352.8,169.7 L353.3,171.9 L353.7,174.3
		L354.1,176.7 L354.5,179.3 L354.8,182.0 L355.0,184.9 L355.1,187.9 L355.2,191.1 L355.1,194.5 L354.9,198.0
		L354.7,201.8 L354.2,205.7 L353.6,210.0 L352.8,214.4 L351.8,219.1 L350.6,224.2 L349.1,229.5 L347.3,235.2
		L345.2,241.2 L342.7,247.5 L339.7,254.3 L336.2,261.4 L332.1,268.9 L327.5,276.8 L322.1,285.1 L315.9,293.7
		L308.9,302.6 L300.9,311.6 L292.0,320.7 L282.0,329.7 L271.1,338.4 L259.1,346.5 L246.3,353.8 L232.7,359.9
		L218.8,364.3 L204.7,366.9 L190.8,367.3 L177.8,365.2 L165.8,360.6 L155.5,353.4 L147.1,344.0 L140.9,332.6
		L136.9,319.7 L135.1,305.7 L135.4,291.1 L137.5,276.3 L141.1,261.8 L145.9,247.8 L151.7,234.5 L158.1,222.2
		L165.0,210.8 L172.1,200.4 L179.4,191.0 L186.6,182.5 L193.7,175.0 L200.6,168.2 L207.3,162.2 L213.7,156.9
		L219.9,152.2 L225.8,148.1 L231.4,144.5 L236.7,141.3 L241.8,138.5 L246.6,136.1 L251.2,134.0 L255.5,132.1
		L259.7,130.5 L263.6,129.2 L267.3,128.0 L270.8,127.1 L274.2,126.2 L277.4,125.6 L280.5,125.0 L283.4,124.6
		L286.2,124.3 L288.8,124.1 L291.4,123.9 L293.8,123.9 L296.2,123.9 L298.4,124.0 L300.6,124.2 L302.6,124.4
		L304.6,124.6 L306.6,124.9 L308.4,125.3 L310.2,125.7 L311.9,126.1 L313.6,126.6 L315.2,127.1 L316.8,127.7
		L318.3,128.2 L319.8,128.9 L321.2,129.5 L322.6,130.2 L323.9,130.9 L325.2,131.6 L326.5,132.4 L327.7,133.2
		L328.9,134.0 L330.1,134.8 L331.2,135.7 L332.3,136.6 L333.4,137.5 L334.4,138.5 L335.4,139.5 L336.4,140.5
		L337.4,141.6 L338.3,142.6 L339.2,143.8 L340.1,144.9 L341.0,146.1 L341.8,147.3 L342.6,148.6 L343.4,149.9
		L344.1,151.3 L344.9,152.7 L345.6,154.1 L346.2,155.6 L346.9,157.1 L347.5,158.7 L348.0,160.4 L348.6,162.1
		L349.1,163.9 L349.6,165.7 L350.0,167.7 L350.4,169.7 L350.7,171.7 L351.0,173.9 L351.2,176.2 L351.4,178.5
		L351.5,181.0 L351.5,183.6 L351.5,186.3 L351.3,189.1 L351.1,192.0 L350.8,195.2 L350.3,198.4 L349.7,201.9
		L349.0,205.5 L348.1,209.3 L347.0,213.3 L345.7,217.6 L344.2,222.0 L342.4,226.8 L340.4,231.8 L338.0,237.0
		L335.2,242.6 L332.0,248.5 L328.3,254.7 L324.1,261.1 L319.3,268.0 L313.9,275.1 L307.7,282.5 L300.7,290.1
		L292.9,297.9 L284.2,305.8 L274.4,313.6 L263.7,321.3 L252.0,328.6 L239.4,335.3 L225.9,341.2 L211.9,345.8
		L197.5,348.9 L183.1,350.2 L169.1,349.5 L156.0,346.4 L144.2,341.0 L134.3,333.3 L126.5,323.4 L121.0,311.8
		L117.9,298.8 L117.3,284.8 L118.8,270.5 L122.2,256.0 L127.2,242.0 L133.5,228.5 L140.7,215.8 L148.6,204.1
		L156.8,193.4 L165.3,183.8 L173.7,175.1 L182.0,167.4 L190.1,160.6 L198.0,154.5 L205.5,149.3 L212.7,144.7
		L219.5,140.7 L226.0,137.2 L232.2,134.2 L238.0,131.7 L243.5,129.5 L248.7,127.6 L253.6,126.0 L258.2,124.7
		L262.5,123.7 L266.7,122.8 L270.6,122.1 L274.3,121.5 L277.8,121.1 L281.1,120.9 L284.3,120.7 L287.3,120.7
		L290.1,120.7 L292.8,120.8 L295.4,121.0 L297.9,121.2 L300.2,121.6 L302.5,121.9 L304.6,122.4 L306.7,122.8
		L308.7,123.3 L310.6,123.9 L312.4,124.5 L314.1,125.1 L315.8,125.8 L317.4,126.5 L319.0,127.2 L320.5,127.9
		L321.9,128.7 L323.3,129.5 L324.6,130.3 L325.9,131.1 L327.2,132.0 L328.4,132.9 L329.6,133.8 L330.7,134.8
		L331.8,135.7 L332.8,136.7 L333.8,137.7 L334.8,138.8 L335.8,139.8 L336.7,140.9 L337.6,142.0 L338.4,143.2
		L339.3,144.3 L340.1,145.5 L340.8,146.7 L341.6,148.0 L342.3,149.3 L342.9,150.6 L343.6,151.9 L344.2,153.3
		L344.8,154.8 L345.3,156.2 L345.8,157.7 L346.3,159.3 L346.7,160.9 L347.1,162.5 L347.5,164.2 L347.8,166.0
		L348.1,167.8 L348.3,169.7 L348.5,171.6 L348.7,173.6 L348.7,175.7 L348.8,177.9 L348.7,180.1 L348.6,182.4
		L348.4,184.9 L348.1,187.4 L347.8,190.0 L347.3,192.8 L346.7,195.6 L346.0,198.6 L345.2,201.7 L344.2,205.0
		L343.1,208.5 L341.8,212.1 L340.2,215.8 L338.5,219.8 L336.5,224.0 L334.2,228.4 L331.6,233.0 L328.6,237.8
		L325.3,242.9 L321.5,248.2 L317.2,253.7 L312.4,259.5 L307.0,265.5 L300.9,271.8 L294.0,278.2 L286.4,284.8
		L277.9,291.5 L268.5,298.2 L258.1,304.7 L246.8,311.0 L234.6,316.9 L221.4,322.1 L207.5,326.4 L193.1,329.6
		L178.4,331.2 L163.8,331.2 L149.8,329.2 L136.8,325.2 L125.3,318.9 L115.7,310.6 L108.5,300.3 L103.7,288.5
		L101.6,275.5 L101.9,261.7 L104.6,247.7 L109.3,233.7 L115.7,220.2 L123.3,207.4 L131.9,195.6 L141.1,184.7
		L150.6,174.8 L160.3,166.1  '/></g>
	</g>
	<g id="gnuplot_plot_2" ><title>star</title>
<g fill="none" color="black" stroke="currentColor" stroke-width="1.00" stroke-linecap="butt" stroke-linejoin="miter">
	<g transform="translate(96.8,76.0)" stroke="none" fill="black" font-family="Arial" font-size="12.00"  text-anchor="end">
		<text><tspan font-family="Arial" >star</tspan></text>
	</g>
</g>
<g fill="none" color="black" stroke="currentColor" stroke-width="1.00" stroke-linecap="butt" stroke-linejoin="miter">
	<use xlink:href='#gpPt4' transform='translate(315.2,159.3) scale(4.50)' color='rgb(  0, 158, 115)'/>
	<use xlink:href='#gpPt4' transform='translate(126.2,72.1) scale(4.50)' color='rgb(  0, 158, 115)'/>
</g>
	</g>
<g fill="none" color="white" stroke="rgb(  0, 158, 115)" stroke-width="2.00" stroke-linecap="butt" stroke-linejoin="miter">
</g>
<g fill="none" color="black" stroke="currentColor" stroke-width="2.00" stroke-linecap="butt" stroke-linejoin="miter">
</g>
<g fill="none" color="black" stroke="black" stroke-width="1.00" stroke-linecap="butt" stroke-linejoin="miter">
</g>
<g fill="none" color="black" stroke="currentColor" stroke-width="1.00" stroke-linecap="butt" stroke-linejoin="miter">
	<path stroke='black'  d='M55.3,54.1 L55.3,422.4 L575.0,422.4 L575.0,54.1 L55.3,54.1 Z  '/></g>
<g fill="none" color="black" stroke="currentColor" stroke-width="1.00" stroke-linecap="butt" stroke-linejoin="miter">
</g>
</g>
</svg>

