
This is (probably) a 32 bit system...

1.0f/9 float       : 0.1111111119389533996582031
1.0 /9 double      : 0.1111111111111111049432054
1.0L/9 long double : 0.1111111111111111049432054
                      .123456789|123456789|123456789|
